{"totalHits":51408,"currentPage":1,"totalPages":51408,"pageList":[1,2,3,4,5,6,7,8,9,10],"foodSearchCriteria":{"query":"Egg Bhurji","generalSearchInput":"Egg Bhurji","pageNumber":1,"numberOfResultsPerPage":50,"pageSize":1,"requireAllWords":false},"foods":[{"fdcId":747997,"description":"Eggs, Grade A, Large, egg white","commonNames":"","additionalDescriptions":"","dataType":"Foundation","ndbNumber":1124,"publishedDate":"2019-12-16","foodCategory":"Dairy and Egg Products","mostRecentAcquisitionDate":"2019-07-08","allHighlightFields":"","score":338.00052,"microbes":[],"foodNutrients":[{"nutrientId":1166,"nutrientName":"Riboflavin","nutrientNumber":"405","unitName":"MG","derivationCode":"A","derivationDescription":"Analytical","derivationId":1,"value":0.391,"foodNutrientSourceId":1,"foodNutrientSourceCode":"1","foodNutrientSourceDescription":"Analytical or derived from analytical","rank":6500,"indentLevel":1,"foodNutrientId":8526264,"dataPoints":24,"min":0.302,"max":0.504,"median":0.376},{"nutrientId":1003,"nutrientName":"Protein","nutrientNumber":"203","unitName":"G","derivationCode":"NC","derivationDescription":"Calculated","derivationId":49,"value":10.7,"foodNutrientSourceId":2,"foodNutrientSourceCode":"4","foodNutrientSourceDescription":"Calculated or imputed","rank":600,"indentLevel":1,"foodNutrientId":8526265,"min":9.5,"max":12.3,"median":10.6},{"nutrientId":1007,"nutrientName":"Ash","nutrientNumber":"207","unitName":"G","derivationCode":"A","derivationDescription":"Analytical","derivationId":1,"value":0.65,"foodNutrientSourceId":1,"foodNutrientSourceCode":"1","foodNutrientSourceDescription":"Analytical or derived from analytical","rank":1000,"indentLevel":1,"foodNutrientId":8526266,"dataPoints":24,"min":0.48,"max":0.79,"median":0.66},{"nutrientId":1103,"nutrientName":"Selenium, Se","nutrientNumber":"317","unitName":"UG","derivationCode":"A","derivationDescription":"Analytical","derivationId":1,"value":17.9,"foodNutrientSourceId":1,"foodNutrientSourceCode":"1","foodNutrientSourceDescription":"Analytical or derived from analytical","rank":6200,"indentLevel":1,"foodNutrientId":8526267,"dataPoints":24,"min":7.0,"max":48.8,"median":14.6},{"nutrientId":1004,"nutrientName":"Total lipid (fat)","nutrientNumber":"204","unitName":"G","derivationCode":"A","derivationDescription":"Analytical","derivationId":1,"value":0.0,"foodNutrientSourceId":1,"foodNutrientSourceCode":"1","foodNutrientSourceDescription":"Analytical or derived from analytical","rank":800,"indentLevel":1,"foodNutrientId":8526268,"dataPoints":24,"min":0.0,"max":0.0,"median":0.0},{"nutrientId":1051,"nutrientName":"Water","nutrientNumber":"255","unitName":"G","derivationCode":"A","derivationDescription":"Analytical","derivationId":1,"value":86.3,"foodNutrientSourceId":1,"foodNutrientSourceCode":"1","foodNutrientSourceDescription":"Analytical or derived from analytical","rank":100,"indentLevel":1,"foodNutrientId":8526269,"dataPoints":24,"min":84.4,"max":88.4,"median":86.3},{"nutrientId":1062,"nutrientName":"Energy","nutrientNumber":"268","unitName":"kJ","derivationCode":"NC","derivationDescription":"Calculated","derivationId":49,"value":231,"foodNutrientSourceId":2,"foodNutrientSourceCode":"4","foodNutrientSourceDescription":"Calculated or imputed","rank":400,"indentLevel":1,"foodNutrientId":8526270},{"nutrientId":1008,"nutrientName":"Energy","nutrientNumber":"208","unitName":"KCAL","derivationCode":"NC","derivationDescription":"Calculated","derivationId":49,"value":55.0,"foodNutrientSourceId":2,"foodNutrientSourceCode":"4","foodNutrientSourceDescription":"Calculated or imputed","rank":300,"indentLevel":1,"foodNutrientId":8526271},{"nutrientId":1005,"nutrientName":"Carbohydrate, by difference","nutrientNumber":"205","unitName":"G","derivationCode":"NC","derivationDescription":"Calculated","derivationId":49,"value":2.36,"foodNutrientSourceId":2,"foodNutrientSourceCode":"4","foodNutrientSourceDescription":"Calculated or imputed","rank":1110,"indentLevel":2,"foodNutrientId":8526272},{"nutrientId":1002,"nutrientName":"Nitrogen","nutrientNumber":"202","unitName":"G","derivationCode":"A","derivationDescription":"Analytical","derivationId":1,"value":1.71,"foodNutrientSourceId":1,"foodNutrientSourceCode":"1","foodNutrientSourceDescription":"Analytical or derived from analytical","rank":500,"indentLevel":1,"foodNutrientId":8526273,"dataPoints":24,"min":1.52,"max":1.97,"median":1.7},{"nutrientId":1210,"nutrientName":"Tryptophan","nutrientNumber":"501","unitName":"G","derivationCode":"A","derivationDescription":"Analytical","derivationId":1,"value":0.188,"foodNutrientSourceId":1,"foodNutrientSourceCode":"1","foodNutrientSourceDescription":"Analytical or derived from analytical","rank":16300,"indentLevel":1,"foodNutrientId":8526274,"dataPoints":18,"min":0.15,"max":0.23,"median":0.19},{"nutrientId":1218,"nutrientName":"Tyrosine","nutrientNumber":"509","unitName":"G","derivationCode":"A","derivationDescription":"Analytical","derivationId":1,"value":0.466,"foodNutrientSourceId":1,"foodNutrientSourceCode":"1","foodNutrientSourceDescription":"Analytical or derived from analytical","rank":17100,"indentLevel":1,"foodNutrientId":8526275,"dataPoints":18,"min":0.34,"max":0.54,"median":0.485},{"nutrientId":1219,"nutrientName":"Valine","nutrientNumber":"510","unitName":"G","derivationCode":"A","derivationDescription":"Analytical","derivationId":1,"value":0.779,"foodNutrientSourceId":1,"foodNutrientSourceCode":"1","foodNutrientSourceDescription":"Analytical or derived from analytical","rank":17200,"indentLevel":1,"foodNutrientId":8526276,"dataPoints":18,"min":0.55,"max":0.88,"median":0.805},{"nutrientId":1211,"nutrientName":"Threonine","nutrientNumber":"502","unitName":"G","derivationCode":"A","derivationDescription":"Analytical","derivationId":1,"value":0.567,"foodNutrientSourceId":1,"foodNutrientSourceCode":"1","foodNutrientSourceDescription":"Analytical or derived from analytical","rank":16400,"indentLevel":1,"foodNutrientId":8526277,"dataPoints":18,"min":0.41,"max":0.65,"median":0.58},{"nutrientId":1226,"nutrientName":"Proline","nutrientNumber":"517","unitName":"G","derivationCode":"A","derivationDescription":"Analytical","derivationId":1,"value":0.494,"foodNutrientSourceId":1,"foodNutrientSourceCode":"1","foodNutrientSourceDescription":"Analytical or derived from analytical","rank":17900,"indentLevel":1,"foodNutrientId":8526278,"dataPoints":18,"min":0.36,"max":0.57,"median":0.495},{"nutrientId":1227,"nutrientName":"Serine","nutrientNumber":"518","unitName":"G","derivationCode":"A","derivationDescription":"Analytical","derivationId":1,"value":0.857,"foodNutrientSourceId":1,"foodNutrientSourceCode":"1","foodNutrientSourceDescription":"Analytical or derived from analytical","rank":18000,"indentLevel":1,"foodNutrientId":8526279,"dataPoints":18,"min":0.6,"max":0.95,"median":0.86},{"nutrientId":1217,"nutrientName":"Phenylalanine","nutrientNumber":"508","unitName":"G","derivationCode":"A","derivationDescription":"Analytical","derivationId":1,"value":0.726,"foodNutrientSourceId":1,"foodNutrientSourceCode":"1","foodNutrientSourceDescription":"Analytical or derived from analytical","rank":17000,"indentLevel":1,"foodNutrientId":8526280,"dataPoints":18,"min":0.52,"max":0.82,"median":0.76},{"nutrientId":1215,"nutrientName":"Methionine","nutrientNumber":"506","unitName":"G","derivationCode":"A","derivationDescription":"Analytical","derivationId":1,"value":0.486,"foodNutrientSourceId":1,"foodNutrientSourceCode":"1","foodNutrientSourceDescription":"Analytical or derived from analytical","rank":16800,"indentLevel":1,"foodNutrientId":8526281,"dataPoints":18,"min":0.35,"max":0.55,"median":0.505},{"nutrientId":1213,"nutrientName":"Leucine","nutrientNumber":"504","unitName":"G","derivationCode":"A","derivationDescription":"Analytical","derivationId":1,"value":1.02,"foodNutrientSourceId":1,"foodNutrientSourceCode":"1","foodNutrientSourceDescription":"Analytical or derived from analytical","rank":16600,"indentLevel":1,"foodNutrientId":8526282,"dataPoints":18,"min":0.73,"max":1.15,"median":1.04},{"nutrientId":1214,"nutrientName":"Lysine","nutrientNumber":"505","unitName":"G","derivationCode":"A","derivationDescription":"Analytical","derivationId":1,"value":0.822,"foodNutrientSourceId":1,"foodNutrientSourceCode":"1","foodNutrientSourceDescription":"Analytical or derived from analytical","rank":16700,"indentLevel":1,"foodNutrientId":8526283,"dataPoints":18,"min":0.6,"max":0.98,"median":0.83},{"nutrientId":1221,"nutrientName":"Histidine","nutrientNumber":"512","unitName":"G","derivationCode":"A","derivationDescription":"Analytical","derivationId":1,"value":0.257,"foodNutrientSourceId":1,"foodNutrientSourceCode":"1","foodNutrientSourceDescription":"Analytical or derived from analytical","rank":17400,"indentLevel":1,"foodNutrientId":8526284,"dataPoints":18,"min":0.19,"max":0.31,"median":0.265},{"nutrientId":1212,"nutrientName":"Isoleucine","nutrientNumber":"503","unitName":"G","derivationCode":"A","derivationDescription":"Analytical","derivationId":1,"value":0.609,"foodNutrientSourceId":1,"foodNutrientSourceCode":"1","foodNutrientSourceDescription":"Analytical or derived from analytical","rank":16500,"indentLevel":1,"foodNutrientId":8526285,"dataPoints":18,"min":0.44,"max":0.69,"median":0.62},{"nutrientId":1224,"nutrientName":"Glutamic acid","nutrientNumber":"515","unitName":"G","derivationCode":"A","derivationDescription":"Analytical","derivationId":1,"value":1.76,"foodNutrientSourceId":1,"foodNutrientSourceCode":"1","foodNutrientSourceDescription":"Analytical or derived from analytical","rank":17700,"indentLevel":1,"foodNutrientId":8526286,"dataPoints":18,"min":1.18,"max":2.19,"median":1.81},{"nutrientId":1225,"nutrientName":"Glycine","nutrientNumber":"516","unitName":"G","derivationCode":"A","derivationDescription":"Analytical","derivationId":1,"value":0.422,"foodNutrientSourceId":1,"foodNutrientSourceCode":"1","foodNutrientSourceDescription":"Analytical or derived from analytical","rank":17800,"indentLevel":1,"foodNutrientId":8526287,"dataPoints":18,"min":0.31,"max":0.49,"median":0.43},{"nutrientId":1223,"nutrientName":"Aspartic acid","nutrientNumber":"514","unitName":"G","derivationCode":"A","derivationDescription":"Analytical","derivationId":1,"value":1.33,"foodNutrientSourceId":1,"foodNutrientSourceCode":"1","foodNutrientSourceDescription":"Analytical or derived from analytical","rank":17600,"indentLevel":1,"foodNutrientId":8526288,"dataPoints":18,"min":0.95,"max":1.51,"median":1.34},{"nutrientId":1220,"nutrientName":"Arginine","nutrientNumber":"511","unitName":"G","derivationCode":"A","derivationDescription":"Analytical","derivationId":1,"value":0.691,"foodNutrientSourceId":1,"foodNutrientSourceCode":"1","foodNutrientSourceDescription":"Analytical or derived from analytical","rank":17300,"indentLevel":1,"foodNutrientId":8526289,"dataPoints":18,"min":0.5,"max":0.79,"median":0.715},{"nutrientId":1222,"nutrientName":"Alanine","nutrientNumber":"513","unitName":"G","derivationCode":"A","derivationDescription":"Analytical","derivationId":1,"value":0.714,"foodNutrientSourceId":1,"foodNutrientSourceCode":"1","foodNutrientSourceDescription":"Analytical or derived from analytical","rank":17500,"indentLevel":1,"foodNutrientId":8526290,"dataPoints":18,"min":0.5,"max":0.81,"median":0.73},{"nutrientId":1228,"nutrientName":"Hydroxyproline","nutrientNumber":"521","unitName":"G","derivationCode":"A","derivationDescription":"Analytical","derivationId":1,"value":0.0,"foodNutrientSourceId":1,"foodNutrientSourceCode":"1","foodNutrientSourceDescription":"Analytical or derived from analytical","rank":18100,"indentLevel":1,"foodNutrientId":8526291,"dataPoints":18,"min":0.0,"max":0.0,"median":0.0},{"nutrientId":1232,"nutrientName":"Cysteine","nutrientNumber":"526","unitName":"G","derivationCode":"A","derivationDescription":"Analytical","derivationId":1,"value":0.407,"foodNutrientSourceId":1,"foodNutrientSourceCode":"1","foodNutrientSourceDescription":"Analytical or derived from analytical","rank":18150,"indentLevel":1,"foodNutrientId":8526292,"dataPoints":18,"min":0.28,"max":0.57,"median":0.4}],"finalFoodInputFoods":[],"foodMeasures":[],"foodAttributes":[],"foodAttributeTypes":[],"foodVersionIds":[]}],"aggregations":{"dataType":{"Branded":50738,"SR Legacy":356,"Survey (FNDDS)":267,"Foundation":42,"Experimental":5},"nutrients":{}}}
