{"totalHits":308,"currentPage":1,"totalPages":308,"pageList":[1,2,3,4,5,6,7,8,9,10],"foodSearchCriteria":{"query":"Cheeseburger","generalSearchInput":"Cheeseburger","pageNumber":1,"numberOfResultsPerPage":50,"pageSize":1,"requireAllWords":false},"foods":[{"fdcId":2723221,"description":"Cheeseburger","dataType":"Branded","gtinUpc":"00071421109955","publishedDate":"2025-03-20","brandOwner":"Tyson Foods Inc.","brandName":"Pierre","ingredients":"FULLY COOKEDFLAMEBROILED BEEF PATTY: Beef, water, textured vegetable protein (soy proteinconcentrate, caramel color), seasoning (hydrolyzed corn protein, dextrose,salt, natural flavorings), vinegar powder, sodium phosphates, spice. BUN:Enriched wheat flour (wheat flour, niacin, reduced iron, thiamine mononitrate,riboflavin, enzyme, folic acid), water, sugar, soybean oil, contains 2% or lessof: ascorbic acid, calcium propionate (preservative), calcium sulfate, enzymes,monoglycerides (with ascorbic acid [antioxidant] and citric acid[antioxidant]), salt, wheat starch, yeast (yeast, sorbitan monostearate,ascorbic acid). SHARP PASTEURIZED PROCESS AMERICAN CHEESE: Milk, cream, water,sodium citrate, salt, contains 2% or less of cheese culture, citric acid, coloradded, enzymes, sorbic acid (preservative), soy lecithin, tetrasodiumpyrophosphate.","marketCountry":"United States","foodCategory":"Meat/Poultry/Other Animals - Prepared/Processed","modifiedDate":"2025-01-23","dataSource":"GDSN","packageWeight":"6.57 ONZ","servingSizeUnit":"GRM","servingSize":186.0,"householdServingFullText":"6.64 OZ SERVING,  1 Servings Per Container","discontinuedDate":"2025-01-22","gpcClassCode":50240100,"shortDescription":"PRRE HTRD GRLR FC CHSB SAND 12/6.57","preparationStateCode":"UNPREPARED","tradeChannels":["NO_TRADE_CHANNEL"],"allHighlightFields":"","score":1233.7368,"microbes":[],"foodNutrients":[{"nutrientId":1003,"nutrientName":"Protein","nutrientNumber":"203","unitName":"G","derivationCode":"LCGA","derivationDescription":"Given by information provider as an approximate value per 100 unit measure","derivationId":78,"value":12.8,"foodNutrientSourceId":9,"foodNutrientSourceCode":"12","foodNutrientSourceDescription":"Manufacturer's analytical; partial documentation","rank":600,"indentLevel":1,"foodNutrientId":34640255,"percentDailyValue":48},{"nutrientId":1004,"nutrientName":"Total lipid (fat)","nutrientNumber":"204","unitName":"G","derivationCode":"LCGA","derivationDescription":"Given by information provider as an approximate value per 100 unit measure","derivationId":78,"value":18.1,"foodNutrientSourceId":9,"foodNutrientSourceCode":"12","foodNutrientSourceDescription":"Manufacturer's analytical; partial documentation","rank":800,"indentLevel":1,"foodNutrientId":34640256,"percentDailyValue":44},{"nutrientId":1005,"nutrientName":"Carbohydrate, by difference","nutrientNumber":"205","unitName":"G","derivationCode":"LCGA","derivationDescription":"Given by information provider as an approximate value per 100 unit measure","derivationId":78,"value":22.4,"foodNutrientSourceId":9,"foodNutrientSourceCode":"12","foodNutrientSourceDescription":"Manufacturer's analytical; partial documentation","rank":1110,"indentLevel":2,"foodNutrientId":34640257,"percentDailyValue":15},{"nutrientId":1008,"nutrientName":"Energy","nutrientNumber":"208","unitName":"KCAL","derivationCode":"LCGA","derivationDescription":"Given by information provider as an approximate value per 100 unit measure","derivationId":78,"value":304,"foodNutrientSourceId":9,"foodNutrientSourceCode":"12","foodNutrientSourceDescription":"Manufacturer's analytical; partial documentation","rank":300,"indentLevel":1,"foodNutrientId":34640258,"percentDailyValue":0},{"nutrientId":2000,"nutrientName":"Total Sugars","nutrientNumber":"269","unitName":"G","derivationCode":"LCGA","derivationDescription":"Given by information provider as an approximate value per 100 unit measure","derivationId":78,"value":3.62,"foodNutrientSourceId":9,"foodNutrientSourceCode":"12","foodNutrientSourceDescription":"Manufacturer's analytical; partial documentation","rank":1510,"indentLevel":3,"foodNutrientId":34640259,"percentDailyValue":0},{"nutrientId":1079,"nutrientName":"Fiber, total dietary","nutrientNumber":"291","unitName":"G","derivationCode":"LCGA","derivationDescription":"Given by information provider as an approximate value per 100 unit measure","derivationId":78,"value":1.27,"foodNutrientSourceId":9,"foodNutrientSourceCode":"12","foodNutrientSourceDescription":"Manufacturer's analytical; partial documentation","rank":1200,"indentLevel":3,"foodNutrientId":34640260,"percentDailyValue":7},{"nutrientId":1087,"nutrientName":"Calcium, Ca","nutrientNumber":"301","unitName":"MG","derivationCode":"LCGA","derivationDescription":"Given by information provider as an approximate value per 100 unit measure","derivationId":78,"value":88.5,"foodNutrientSourceId":9,"foodNutrientSourceCode":"12","foodNutrientSourceDescription":"Manufacturer's analytical; partial documentation","rank":5300,"indentLevel":1,"foodNutrientId":34640261,"percentDailyValue":15},{"nutrientId":1089,"nutrientName":"Iron, Fe","nutrientNumber":"303","unitName":"MG","derivationCode":"LCGA","derivationDescription":"Given by information provider as an approximate value per 100 unit measure","derivationId":78,"value":2.12,"foodNutrientSourceId":9,"foodNutrientSourceCode":"12","foodNutrientSourceDescription":"Manufacturer's analytical; partial documentation","rank":5400,"indentLevel":1,"foodNutrientId":34640262,"percentDailyValue":20},{"nutrientId":1092,"nutrientName":"Potassium, K","nutrientNumber":"306","unitName":"MG","derivationCode":"LCGA","derivationDescription":"Given by information provider as an approximate value per 100 unit measure","derivationId":78,"value":206,"foodNutrientSourceId":9,"foodNutrientSourceCode":"12","foodNutrientSourceDescription":"Manufacturer's analytical; partial documentation","rank":5700,"indentLevel":1,"foodNutrientId":34640263,"percentDailyValue":8},{"nutrientId":1093,"nutrientName":"Sodium, Na","nutrientNumber":"307","unitName":"MG","derivationCode":"LCGA","derivationDescription":"Given by information provider as an approximate value per 100 unit measure","derivationId":78,"value":619,"foodNutrientSourceId":9,"foodNutrientSourceCode":"12","foodNutrientSourceDescription":"Manufacturer's analytical; partial documentation","rank":5800,"indentLevel":1,"foodNutrientId":34640264,"percentDailyValue":50},{"nutrientId":1114,"nutrientName":"Vitamin D (D2 + D3)","nutrientNumber":"328","unitName":"UG","derivationCode":"LCGA","derivationDescription":"Given by information provider as an approximate value per 100 unit measure","derivationId":78,"value":0.0,"foodNutrientSourceId":9,"foodNutrientSourceCode":"12","foodNutrientSourceDescription":"Manufacturer's analytical; partial documentation","rank":8700,"indentLevel":1,"foodNutrientId":34640265,"percentDailyValue":0},{"nutrientId":1235,"nutrientName":"Sugars, added","nutrientNumber":"539","unitName":"G","derivationCode":"LCGA","derivationDescription":"Given by information provider as an approximate value per 100 unit measure","derivationId":78,"value":3.16,"foodNutrientSourceId":9,"foodNutrientSourceCode":"12","foodNutrientSourceDescription":"Manufacturer's analytical; partial documentation","rank":1540,"indentLevel":0,"foodNutrientId":34640266,"percentDailyValue":12},{"nutrientId":1253,"nutrientName":"Cholesterol","nutrientNumber":"601","unitName":"MG","derivationCode":"LCGA","derivationDescription":"Given by information provider as an approximate value per 100 unit measure","derivationId":78,"value":36.8,"foodNutrientSourceId":9,"foodNutrientSourceCode":"12","foodNutrientSourceDescription":"Manufacturer's analytical; partial documentation","rank":15700,"indentLevel":1,"foodNutrientId":34640267,"percentDailyValue":23},{"nutrientId":1257,"nutrientName":"Fatty acids, total trans","nutrientNumber":"605","unitName":"G","derivationCode":"LCGA","derivationDescription":"Given by information provider as an approximate value per 100 unit measure","derivationId":78,"value":0.8,"foodNutrientSourceId":9,"foodNutrientSourceCode":"12","foodNutrientSourceDescription":"Manufacturer's analytical; partial documentation","rank":15400,"indentLevel":1,"foodNutrientId":34640268,"percentDailyValue":0},{"nutrientId":1258,"nutrientName":"Fatty acids, total saturated","nutrientNumber":"606","unitName":"G","derivationCode":"LCGA","derivationDescription":"Given by information provider as an approximate value per 100 unit measure","derivationId":78,"value":7.86,"foodNutrientSourceId":9,"foodNutrientSourceCode":"12","foodNutrientSourceDescription":"Manufacturer's analytical; partial documentation","rank":9700,"indentLevel":1,"foodNutrientId":34640269,"percentDailyValue":75}],"finalFoodInputFoods":[],"foodMeasures":[],"foodAttributes":[],"foodAttributeTypes":[],"foodVersionIds":[]}],"aggregations":{"dataType":{"Branded":265,"Survey (FNDDS)":27,"SR Legacy":16},"nutrients":{}}}
