{"totalHits":263,"currentPage":1,"totalPages":263,"pageList":[1,2,3,4,5,6,7,8,9,10],"foodSearchCriteria":{"query":"Tempura","generalSearchInput":"Tempura","pageNumber":1,"numberOfResultsPerPage":50,"pageSize":1,"requireAllWords":false},"foods":[{"fdcId":2710065,"description":"Vegetable tempura","commonNames":"","additionalDescriptions":"","dataType":"Survey (FNDDS)","foodCode":75440200,"publishedDate":"2024-10-31","foodCategory":"Fried vegetables","foodCategoryId":3307678,"allHighlightFields":"","score":567.2121,"microbes":[],"foodNutrients":[{"nutrientId":1003,"nutrientName":"Protein","nutrientNumber":"203","unitName":"G","value":3.81,"rank":600,"indentLevel":1,"foodNutrientId":34440424},{"nutrientId":1004,"nutrientName":"Total lipid (fat)","nutrientNumber":"204","unitName":"G","value":15.81,"rank":800,"indentLevel":1,"foodNutrientId":34440425},{"nutrientId":1005,"nutrientName":"Carbohydrate, by difference","nutrientNumber":"205","unitName":"G","value":20.45,"rank":1110,"indentLevel":2,"foodNutrientId":34440426},{"nutrientId":1008,"nutrientName":"Energy","nutrientNumber":"208","unitName":"KCAL","value":239,"rank":300,"indentLevel":1,"foodNutrientId":34440427},{"nutrientId":1018,"nutrientName":"Alcohol, ethyl","nutrientNumber":"221","unitName":"G","value":0,"rank":18200,"indentLevel":1,"foodNutrientId":34440428},{"nutrientId":1051,"nutrientName":"Water","nutrientNumber":"255","unitName":"G","value":59.37,"rank":100,"indentLevel":1,"foodNutrientId":34440429},{"nutrientId":1057,"nutrientName":"Caffeine","nutrientNumber":"262","unitName":"MG","value":0,"rank":18300,"indentLevel":0,"foodNutrientId":34440430},{"nutrientId":1058,"nutrientName":"Theobromine","nutrientNumber":"263","unitName":"MG","value":0,"rank":18400,"indentLevel":0,"foodNutrientId":34440431},{"nutrientId":2000,"nutrientName":"Total Sugars","nutrientNumber":"269","unitName":"G","value":1.49,"rank":1510,"indentLevel":3,"foodNutrientId":34440432},{"nutrientId":1079,"nutrientName":"Fiber, total dietary","nutrientNumber":"291","unitName":"G","value":1.6,"rank":1200,"indentLevel":3,"foodNutrientId":34440433},{"nutrientId":1087,"nutrientName":"Calcium, Ca","nutrientNumber":"301","unitName":"MG","value":22,"rank":5300,"indentLevel":1,"foodNutrientId":34440434},{"nutrientId":1089,"nutrientName":"Iron, Fe","nutrientNumber":"303","unitName":"MG","value":1.54,"rank":5400,"indentLevel":1,"foodNutrientId":34440435},{"nutrientId":1090,"nutrientName":"Magnesium, Mg","nutrientNumber":"304","unitName":"MG","value":15,"rank":5500,"indentLevel":1,"foodNutrientId":34440436},{"nutrientId":1091,"nutrientName":"Phosphorus, P","nutrientNumber":"305","unitName":"MG","value":62,"rank":5600,"indentLevel":1,"foodNutrientId":34440437},{"nutrientId":1092,"nutrientName":"Potassium, K","nutrientNumber":"306","unitName":"MG","value":179,"rank":5700,"indentLevel":1,"foodNutrientId":34440438},{"nutrientId":1093,"nutrientName":"Sodium, Na","nutrientNumber":"307","unitName":"MG","value":12,"rank":5800,"indentLevel":1,"foodNutrientId":34440439},{"nutrientId":1095,"nutrientName":"Zinc, Zn","nutrientNumber":"309","unitName":"MG","value":0.4,"rank":5900,"indentLevel":1,"foodNutrientId":34440440},{"nutrientId":1098,"nutrientName":"Copper, Cu","nutrientNumber":"312","unitName":"MG","value":0.096,"rank":6000,"indentLevel":1,"foodNutrientId":34440441},{"nutrientId":1103,"nutrientName":"Selenium, Se","nutrientNumber":"317","unitName":"UG","value":6.8,"rank":6200,"indentLevel":1,"foodNutrientId":34440442},{"nutrientId":1105,"nutrientName":"Retinol","nutrientNumber":"319","unitName":"UG","value":13,"rank":7430,"indentLevel":2,"foodNutrientId":34440443},{"nutrientId":1106,"nutrientName":"Vitamin A, RAE","nutrientNumber":"320","unitName":"UG","value":60,"rank":7420,"indentLevel":1,"foodNutrientId":34440444},{"nutrientId":1107,"nutrientName":"Carotene, beta","nutrientNumber":"321","unitName":"UG","value":564,"rank":7440,"indentLevel":2,"foodNutrientId":34440445},{"nutrientId":1108,"nutrientName":"Carotene, alpha","nutrientNumber":"322","unitName":"UG","value":7,"rank":7450,"indentLevel":2,"foodNutrientId":34440446},{"nutrientId":1109,"nutrientName":"Vitamin E (alpha-tocopherol)","nutrientNumber":"323","unitName":"MG","value":3.03,"rank":7905,"indentLevel":1,"foodNutrientId":34440447},{"nutrientId":1114,"nutrientName":"Vitamin D (D2 + D3)","nutrientNumber":"328","unitName":"UG","value":0.2,"rank":8700,"indentLevel":1,"foodNutrientId":34440448},{"nutrientId":1120,"nutrientName":"Cryptoxanthin, beta","nutrientNumber":"334","unitName":"UG","value":2,"rank":7460,"indentLevel":2,"foodNutrientId":34440449},{"nutrientId":1122,"nutrientName":"Lycopene","nutrientNumber":"337","unitName":"UG","value":0,"rank":7530,"indentLevel":1,"foodNutrientId":34440450},{"nutrientId":1123,"nutrientName":"Lutein + zeaxanthin","nutrientNumber":"338","unitName":"UG","value":262,"rank":7560,"indentLevel":1,"foodNutrientId":34440451},{"nutrientId":1162,"nutrientName":"Vitamin C, total ascorbic acid","nutrientNumber":"401","unitName":"MG","value":16,"rank":6300,"indentLevel":1,"foodNutrientId":34440452},{"nutrientId":1165,"nutrientName":"Thiamin","nutrientNumber":"404","unitName":"MG","value":0.19,"rank":6400,"indentLevel":1,"foodNutrientId":34440453},{"nutrientId":1166,"nutrientName":"Riboflavin","nutrientNumber":"405","unitName":"MG","value":0.164,"rank":6500,"indentLevel":1,"foodNutrientId":34440454},{"nutrientId":1167,"nutrientName":"Niacin","nutrientNumber":"406","unitName":"MG","value":1.745,"rank":6600,"indentLevel":1,"foodNutrientId":34440455},{"nutrientId":1175,"nutrientName":"Vitamin B-6","nutrientNumber":"415","unitName":"MG","value":0.105,"rank":6800,"indentLevel":1,"foodNutrientId":34440456},{"nutrientId":1177,"nutrientName":"Folate, total","nutrientNumber":"417","unitName":"UG","value":40,"rank":6900,"indentLevel":1,"foodNutrientId":34440457},{"nutrientId":1178,"nutrientName":"Vitamin B-12","nutrientNumber":"418","unitName":"UG","value":0.06,"rank":7300,"indentLevel":1,"foodNutrientId":34440458},{"nutrientId":1180,"nutrientName":"Choline, total","nutrientNumber":"421","unitName":"MG","value":34.2,"rank":7220,"indentLevel":1,"foodNutrientId":34440459},{"nutrientId":1185,"nutrientName":"Vitamin K (phylloquinone)","nutrientNumber":"430","unitName":"UG","value":26.3,"rank":8800,"indentLevel":1,"foodNutrientId":34440460},{"nutrientId":1186,"nutrientName":"Folic acid","nutrientNumber":"431","unitName":"UG","value":20,"rank":7000,"indentLevel":0,"foodNutrientId":34440461},{"nutrientId":1187,"nutrientName":"Folate, food","nutrientNumber":"432","unitName":"UG","value":20,"rank":7100,"indentLevel":1,"foodNutrientId":34440462},{"nutrientId":1190,"nutrientName":"Folate, DFE","nutrientNumber":"435","unitName":"UG","value":54,"rank":7200,"indentLevel":1,"foodNutrientId":34440463},{"nutrientId":1242,"nutrientName":"Vitamin E, added","nutrientNumber":"573","unitName":"MG","value":0,"rank":7920,"indentLevel":0,"foodNutrientId":34440464},{"nutrientId":1246,"nutrientName":"Vitamin B-12, added","nutrientNumber":"578","unitName":"UG","value":0,"rank":7340,"indentLevel":0,"foodNutrientId":34440465},{"nutrientId":1253,"nutrientName":"Cholesterol","nutrientNumber":"601","unitName":"MG","value":38,"rank":15700,"indentLevel":1,"foodNutrientId":34440466},{"nutrientId":1258,"nutrientName":"Fatty acids, total saturated","nutrientNumber":"606","unitName":"G","value":2.317,"rank":9700,"indentLevel":1,"foodNutrientId":34440467},{"nutrientId":1259,"nutrientName":"SFA 4:0","nutrientNumber":"607","unitName":"G","value":0,"rank":9800,"indentLevel":2,"foodNutrientId":34440468},{"nutrientId":1260,"nutrientName":"SFA 6:0","nutrientNumber":"608","unitName":"G","value":0,"rank":9900,"indentLevel":2,"foodNutrientId":34440469},{"nutrientId":1261,"nutrientName":"SFA 8:0","nutrientNumber":"609","unitName":"G","value":0,"rank":10000,"indentLevel":2,"foodNutrientId":34440470},{"nutrientId":1262,"nutrientName":"SFA 10:0","nutrientNumber":"610","unitName":"G","value":0.003,"rank":10100,"indentLevel":2,"foodNutrientId":34440471},{"nutrientId":1263,"nutrientName":"SFA 12:0","nutrientNumber":"611","unitName":"G","value":0.001,"rank":10300,"indentLevel":2,"foodNutrientId":34440472},{"nutrientId":1264,"nutrientName":"SFA 14:0","nutrientNumber":"612","unitName":"G","value":0.011,"rank":10500,"indentLevel":2,"foodNutrientId":34440473},{"nutrientId":1265,"nutrientName":"SFA 16:0","nutrientNumber":"613","unitName":"G","value":1.672,"rank":10700,"indentLevel":2,"foodNutrientId":34440474},{"nutrientId":1266,"nutrientName":"SFA 18:0","nutrientNumber":"614","unitName":"G","value":0.503,"rank":10900,"indentLevel":2,"foodNutrientId":34440475},{"nutrientId":1268,"nutrientName":"MUFA 18:1","nutrientNumber":"617","unitName":"G","value":6.332,"rank":12100,"indentLevel":2,"foodNutrientId":34440476},{"nutrientId":1269,"nutrientName":"PUFA 18:2","nutrientNumber":"618","unitName":"G","value":5.118,"rank":13100,"indentLevel":2,"foodNutrientId":34440477},{"nutrientId":1270,"nutrientName":"PUFA 18:3","nutrientNumber":"619","unitName":"G","value":0.648,"rank":13900,"indentLevel":2,"foodNutrientId":34440478},{"nutrientId":1271,"nutrientName":"PUFA 20:4","nutrientNumber":"620","unitName":"G","value":0.016,"rank":14700,"indentLevel":2,"foodNutrientId":34440479},{"nutrientId":1272,"nutrientName":"PUFA 22:6 n-3 (DHA)","nutrientNumber":"621","unitName":"G","value":0.004,"rank":15300,"indentLevel":2,"foodNutrientId":34440480},{"nutrientId":1275,"nutrientName":"MUFA 16:1","nutrientNumber":"626","unitName":"G","value":0.082,"rank":11700,"indentLevel":2,"foodNutrientId":34440481},{"nutrientId":1276,"nutrientName":"PUFA 18:4","nutrientNumber":"627","unitName":"G","value":0,"rank":14250,"indentLevel":2,"foodNutrientId":34440482},{"nutrientId":1277,"nutrientName":"MUFA 20:1","nutrientNumber":"628","unitName":"G","value":0.1,"rank":12400,"indentLevel":2,"foodNutrientId":34440483},{"nutrientId":1278,"nutrientName":"PUFA 20:5 n-3 (EPA)","nutrientNumber":"629","unitName":"G","value":0,"rank":15000,"indentLevel":2,"foodNutrientId":34440484},{"nutrientId":1279,"nutrientName":"MUFA 22:1","nutrientNumber":"630","unitName":"G","value":0,"rank":12500,"indentLevel":2,"foodNutrientId":34440485},{"nutrientId":1280,"nutrientName":"PUFA 22:5 n-3 (DPA)","nutrientNumber":"631","unitName":"G","value":0,"rank":15200,"indentLevel":2,"foodNutrientId":34440486},{"nutrientId":1292,"nutrientName":"Fatty acids, total monounsaturated","nutrientNumber":"645","unitName":"G","value":6.525,"rank":11400,"indentLevel":1,"foodNutrientId":34440487},{"nutrientId":1293,"nutrientName":"Fatty acids, total polyunsaturated","nutrientNumber":"646","unitName":"G","value":5.79,"rank":12900,"indentLevel":1,"foodNutrientId":34440488}],"finalFoodInputFoods":[{"foodDescription":"Beverages, water, tap, municipal","gramWeight":474,"id":141167,"portionCode":"10205","portionDescription":"1 cup","unit":"C","rank":10,"retentionCode":0,"srCode":14429,"value":2.0},{"foodDescription":"Broccoli, raw","gramWeight":99.338,"id":141159,"portionCode":"0","portionDescription":"NONE","unit":"LB","rank":2,"retentionCode":3780,"srCode":11090,"value":0.219},{"foodDescription":"Squash, summer, zucchini, includes skin, raw","gramWeight":99.338,"id":141164,"portionCode":"0","portionDescription":"NONE","unit":"LB","rank":7,"retentionCode":3780,"srCode":11477,"value":0.219},{"foodDescription":"Peppers, bell, green, raw","gramWeight":99.338,"id":141160,"portionCode":"0","portionDescription":"NONE","unit":"LB","rank":3,"retentionCode":3780,"srCode":11333,"value":0.219},{"foodDescription":"Beans, snap, green, raw","gramWeight":99.338,"id":141162,"portionCode":"0","portionDescription":"NONE","unit":"LB","rank":5,"retentionCode":3780,"srCode":11052,"value":0.219},{"foodDescription":"Flour, wheat, all-purpose, enriched, bleached","gramWeight":312.5,"id":141168,"portionCode":"10205","portionDescription":"1 cup","unit":"C","rank":11,"retentionCode":301,"srCode":20081,"value":2.5},{"foodDescription":"Cauliflower, raw","gramWeight":99.338,"id":141158,"portionCode":"0","portionDescription":"NONE","unit":"LB","rank":1,"retentionCode":3780,"srCode":11135,"value":0.219},{"foodDescription":"Mushrooms, raw","gramWeight":99.338,"id":141163,"portionCode":"0","portionDescription":"NONE","unit":"LB","rank":6,"retentionCode":3780,"srCode":75115000,"value":0.219},{"foodDescription":"Onions, raw","gramWeight":99.338,"id":141165,"portionCode":"0","portionDescription":"NONE","unit":"LB","rank":8,"retentionCode":3465,"srCode":11282,"value":0.219},{"foodDescription":"Sweet potato, raw, unprepared (Includes foods for USDA's Food Distribution Program)","gramWeight":99.338,"id":141161,"portionCode":"0","portionDescription":"NONE","unit":"LB","rank":4,"retentionCode":3465,"srCode":11507,"value":0.219},{"foodDescription":"Vegetable oil, NFS","gramWeight":212.2,"id":141169,"portionCode":"0","portionDescription":"NONE","unit":"GM","rank":12,"retentionCode":0,"srCode":82101000,"value":212},{"foodDescription":"Eggs, Grade A, Large, egg yolk","gramWeight":51,"id":141166,"portionCode":"0","portionDescription":"NONE","unit":"GM","rank":9,"retentionCode":103,"srCode":1125,"value":51.0}],"foodMeasures":[{"disseminationText":"1 piece","gramWeight":7,"id":309114,"modifier":"61667","rank":2,"measureUnitAbbreviation":"undetermined","measureUnitName":"undetermined","measureUnitId":9999},{"disseminationText":"1 fritter","gramWeight":30,"id":309115,"modifier":"60800","rank":3,"measureUnitAbbreviation":"undetermined","measureUnitName":"undetermined","measureUnitId":9999},{"disseminationText":"1 cup","gramWeight":63,"id":309113,"modifier":"10205","rank":1,"measureUnitAbbreviation":"undetermined","measureUnitName":"undetermined","measureUnitId":9999},{"disseminationText":"Quantity not specified","gramWeight":63,"id":309116,"modifier":"90000","rank":4,"measureUnitAbbreviation":"undetermined","measureUnitName":"undetermined","measureUnitId":9999}],"foodAttributes":[{"value":"Moisture change: -20%","id":3323505},{"value":"Fried vegetables","name":"WWEIA Category description","id":3307678},{"value":"6430","name":"WWEIA Category number","id":3307677}],"foodAttributeTypes":[{"name":"Adjustments","description":"Adjustments made to foods, including moisture changes","id":1002,"foodAttributes":[{"value":"Moisture change: -20%","id":3323505}]},{"name":"Attribute","description":"Generic attributes","id":999,"foodAttributes":[{"value":"Fried vegetables","name":"WWEIA Category description","id":3307678},{"value":"6430","name":"WWEIA Category number","id":3307677}]}],"foodVersionIds":[]}],"aggregations":{"dataType":{"Branded":261,"Survey (FNDDS)":2},"nutrients":{}}}
