{"totalHits":51251,"currentPage":1,"totalPages":51251,"pageList":[1,2,3,4,5,6,7,8,9,10],"foodSearchCriteria":{"query":"Baked Salmon","generalSearchInput":"Baked Salmon","pageNumber":1,"numberOfResultsPerPage":50,"pageSize":1,"requireAllWords":false},"foods":[{"fdcId":2706286,"description":"Fish, salmon, baked or broiled","commonNames":"","additionalDescriptions":"NS as to coated;sauteed","dataType":"Survey (FNDDS)","foodCode":26137120,"publishedDate":"2024-10-31","foodCategory":"Fish","foodCategoryId":3300120,"allHighlightFields":"","score":584.4055,"microbes":[],"foodNutrients":[{"nutrientId":1003,"nutrientName":"Protein","nutrientNumber":"203","unitName":"G","value":25.4,"rank":600,"indentLevel":1,"foodNutrientId":34194789},{"nutrientId":1004,"nutrientName":"Total lipid (fat)","nutrientNumber":"204","unitName":"G","value":18.4,"rank":800,"indentLevel":1,"foodNutrientId":34194790},{"nutrientId":1005,"nutrientName":"Carbohydrate, by difference","nutrientNumber":"205","unitName":"G","value":0.01,"rank":1110,"indentLevel":2,"foodNutrientId":34194791},{"nutrientId":1008,"nutrientName":"Energy","nutrientNumber":"208","unitName":"KCAL","value":274,"rank":300,"indentLevel":1,"foodNutrientId":34194792},{"nutrientId":1018,"nutrientName":"Alcohol, ethyl","nutrientNumber":"221","unitName":"G","value":0,"rank":18200,"indentLevel":1,"foodNutrientId":34194793},{"nutrientId":1051,"nutrientName":"Water","nutrientNumber":"255","unitName":"G","value":54.59,"rank":100,"indentLevel":1,"foodNutrientId":34194794},{"nutrientId":1057,"nutrientName":"Caffeine","nutrientNumber":"262","unitName":"MG","value":0,"rank":18300,"indentLevel":0,"foodNutrientId":34194795},{"nutrientId":1058,"nutrientName":"Theobromine","nutrientNumber":"263","unitName":"MG","value":0,"rank":18400,"indentLevel":0,"foodNutrientId":34194796},{"nutrientId":2000,"nutrientName":"Total Sugars","nutrientNumber":"269","unitName":"G","value":0.01,"rank":1510,"indentLevel":3,"foodNutrientId":34194797},{"nutrientId":1079,"nutrientName":"Fiber, total dietary","nutrientNumber":"291","unitName":"G","value":0,"rank":1200,"indentLevel":3,"foodNutrientId":34194798},{"nutrientId":1087,"nutrientName":"Calcium, Ca","nutrientNumber":"301","unitName":"MG","value":11,"rank":5300,"indentLevel":1,"foodNutrientId":34194799},{"nutrientId":1089,"nutrientName":"Iron, Fe","nutrientNumber":"303","unitName":"MG","value":0.44,"rank":5400,"indentLevel":1,"foodNutrientId":34194800},{"nutrientId":1090,"nutrientName":"Magnesium, Mg","nutrientNumber":"304","unitName":"MG","value":34,"rank":5500,"indentLevel":1,"foodNutrientId":34194801},{"nutrientId":1091,"nutrientName":"Phosphorus, P","nutrientNumber":"305","unitName":"MG","value":305,"rank":5600,"indentLevel":1,"foodNutrientId":34194802},{"nutrientId":1092,"nutrientName":"Potassium, K","nutrientNumber":"306","unitName":"MG","value":452,"rank":5700,"indentLevel":1,"foodNutrientId":34194803},{"nutrientId":1093,"nutrientName":"Sodium, Na","nutrientNumber":"307","unitName":"MG","value":294,"rank":5800,"indentLevel":1,"foodNutrientId":34194804},{"nutrientId":1095,"nutrientName":"Zinc, Zn","nutrientNumber":"309","unitName":"MG","value":0.46,"rank":5900,"indentLevel":1,"foodNutrientId":34194805},{"nutrientId":1098,"nutrientName":"Copper, Cu","nutrientNumber":"312","unitName":"MG","value":0.062,"rank":6000,"indentLevel":1,"foodNutrientId":34194806},{"nutrientId":1103,"nutrientName":"Selenium, Se","nutrientNumber":"317","unitName":"UG","value":32.1,"rank":6200,"indentLevel":1,"foodNutrientId":34194807},{"nutrientId":1105,"nutrientName":"Retinol","nutrientNumber":"319","unitName":"UG","value":75,"rank":7430,"indentLevel":2,"foodNutrientId":34194808},{"nutrientId":1106,"nutrientName":"Vitamin A, RAE","nutrientNumber":"320","unitName":"UG","value":75,"rank":7420,"indentLevel":1,"foodNutrientId":34194809},{"nutrientId":1107,"nutrientName":"Carotene, beta","nutrientNumber":"321","unitName":"UG","value":9,"rank":7440,"indentLevel":2,"foodNutrientId":34194810},{"nutrientId":1108,"nutrientName":"Carotene, alpha","nutrientNumber":"322","unitName":"UG","value":0,"rank":7450,"indentLevel":2,"foodNutrientId":34194811},{"nutrientId":1109,"nutrientName":"Vitamin E (alpha-tocopherol)","nutrientNumber":"323","unitName":"MG","value":4.11,"rank":7905,"indentLevel":1,"foodNutrientId":34194812},{"nutrientId":1114,"nutrientName":"Vitamin D (D2 + D3)","nutrientNumber":"328","unitName":"UG","value":13.7,"rank":8700,"indentLevel":1,"foodNutrientId":34194813},{"nutrientId":1120,"nutrientName":"Cryptoxanthin, beta","nutrientNumber":"334","unitName":"UG","value":0,"rank":7460,"indentLevel":2,"foodNutrientId":34194814},{"nutrientId":1122,"nutrientName":"Lycopene","nutrientNumber":"337","unitName":"UG","value":0,"rank":7530,"indentLevel":1,"foodNutrientId":34194815},{"nutrientId":1123,"nutrientName":"Lutein + zeaxanthin","nutrientNumber":"338","unitName":"UG","value":0,"rank":7560,"indentLevel":1,"foodNutrientId":34194816},{"nutrientId":1162,"nutrientName":"Vitamin C, total ascorbic acid","nutrientNumber":"401","unitName":"MG","value":2.9,"rank":6300,"indentLevel":1,"foodNutrientId":34194817},{"nutrientId":1165,"nutrientName":"Thiamin","nutrientNumber":"404","unitName":"MG","value":0.185,"rank":6400,"indentLevel":1,"foodNutrientId":34194818},{"nutrientId":1166,"nutrientName":"Riboflavin","nutrientNumber":"405","unitName":"MG","value":0.168,"rank":6500,"indentLevel":1,"foodNutrientId":34194819},{"nutrientId":1167,"nutrientName":"Niacin","nutrientNumber":"406","unitName":"MG","value":10.559,"rank":6600,"indentLevel":1,"foodNutrientId":34194820},{"nutrientId":1175,"nutrientName":"Vitamin B-6","nutrientNumber":"415","unitName":"MG","value":0.733,"rank":6800,"indentLevel":1,"foodNutrientId":34194821},{"nutrientId":1177,"nutrientName":"Folate, total","nutrientNumber":"417","unitName":"UG","value":23,"rank":6900,"indentLevel":1,"foodNutrientId":34194822},{"nutrientId":1178,"nutrientName":"Vitamin B-12","nutrientNumber":"418","unitName":"UG","value":3.87,"rank":7300,"indentLevel":1,"foodNutrientId":34194823},{"nutrientId":1180,"nutrientName":"Choline, total","nutrientNumber":"421","unitName":"MG","value":102.9,"rank":7220,"indentLevel":1,"foodNutrientId":34194824},{"nutrientId":1185,"nutrientName":"Vitamin K (phylloquinone)","nutrientNumber":"430","unitName":"UG","value":4.3,"rank":8800,"indentLevel":1,"foodNutrientId":34194825},{"nutrientId":1186,"nutrientName":"Folic acid","nutrientNumber":"431","unitName":"UG","value":0,"rank":7000,"indentLevel":0,"foodNutrientId":34194826},{"nutrientId":1187,"nutrientName":"Folate, food","nutrientNumber":"432","unitName":"UG","value":23,"rank":7100,"indentLevel":1,"foodNutrientId":34194827},{"nutrientId":1190,"nutrientName":"Folate, DFE","nutrientNumber":"435","unitName":"UG","value":23,"rank":7200,"indentLevel":1,"foodNutrientId":34194828},{"nutrientId":1242,"nutrientName":"Vitamin E, added","nutrientNumber":"573","unitName":"MG","value":0,"rank":7920,"indentLevel":0,"foodNutrientId":34194829},{"nutrientId":1246,"nutrientName":"Vitamin B-12, added","nutrientNumber":"578","unitName":"UG","value":0,"rank":7340,"indentLevel":0,"foodNutrientId":34194830},{"nutrientId":1253,"nutrientName":"Cholesterol","nutrientNumber":"601","unitName":"MG","value":69,"rank":15700,"indentLevel":1,"foodNutrientId":34194831},{"nutrientId":1258,"nutrientName":"Fatty acids, total saturated","nutrientNumber":"606","unitName":"G","value":4.279,"rank":9700,"indentLevel":1,"foodNutrientId":34194832},{"nutrientId":1259,"nutrientName":"SFA 4:0","nutrientNumber":"607","unitName":"G","value":0.032,"rank":9800,"indentLevel":2,"foodNutrientId":34194833},{"nutrientId":1260,"nutrientName":"SFA 6:0","nutrientNumber":"608","unitName":"G","value":0.022,"rank":9900,"indentLevel":2,"foodNutrientId":34194834},{"nutrientId":1261,"nutrientName":"SFA 8:0","nutrientNumber":"609","unitName":"G","value":0.013,"rank":10000,"indentLevel":2,"foodNutrientId":34194835},{"nutrientId":1262,"nutrientName":"SFA 10:0","nutrientNumber":"610","unitName":"G","value":0.03,"rank":10100,"indentLevel":2,"foodNutrientId":34194836},{"nutrientId":1263,"nutrientName":"SFA 12:0","nutrientNumber":"611","unitName":"G","value":0.037,"rank":10300,"indentLevel":2,"foodNutrientId":34194837},{"nutrientId":1264,"nutrientName":"SFA 14:0","nutrientNumber":"612","unitName":"G","value":0.695,"rank":10500,"indentLevel":2,"foodNutrientId":34194838},{"nutrientId":1265,"nutrientName":"SFA 16:0","nutrientNumber":"613","unitName":"G","value":2.543,"rank":10700,"indentLevel":2,"foodNutrientId":34194839},{"nutrientId":1266,"nutrientName":"SFA 18:0","nutrientNumber":"614","unitName":"G","value":0.735,"rank":10900,"indentLevel":2,"foodNutrientId":34194840},{"nutrientId":1268,"nutrientName":"MUFA 18:1","nutrientNumber":"617","unitName":"G","value":4.273,"rank":12100,"indentLevel":2,"foodNutrientId":34194841},{"nutrientId":1269,"nutrientName":"PUFA 18:2","nutrientNumber":"618","unitName":"G","value":2.02,"rank":13100,"indentLevel":2,"foodNutrientId":34194842},{"nutrientId":1270,"nutrientName":"PUFA 18:3","nutrientNumber":"619","unitName":"G","value":0.315,"rank":13900,"indentLevel":2,"foodNutrientId":34194843},{"nutrientId":1271,"nutrientName":"PUFA 20:4","nutrientNumber":"620","unitName":"G","value":0.092,"rank":14700,"indentLevel":2,"foodNutrientId":34194844},{"nutrientId":1272,"nutrientName":"PUFA 22:6 n-3 (DHA)","nutrientNumber":"621","unitName":"G","value":1.132,"rank":15300,"indentLevel":2,"foodNutrientId":34194845},{"nutrientId":1275,"nutrientName":"MUFA 16:1","nutrientNumber":"626","unitName":"G","value":0.818,"rank":11700,"indentLevel":2,"foodNutrientId":34194846},{"nutrientId":1276,"nutrientName":"PUFA 18:4","nutrientNumber":"627","unitName":"G","value":0.135,"rank":14250,"indentLevel":2,"foodNutrientId":34194847},{"nutrientId":1277,"nutrientName":"MUFA 20:1","nutrientNumber":"628","unitName":"G","value":0.407,"rank":12400,"indentLevel":2,"foodNutrientId":34194848},{"nutrientId":1278,"nutrientName":"PUFA 20:5 n-3 (EPA)","nutrientNumber":"629","unitName":"G","value":0.86,"rank":15000,"indentLevel":2,"foodNutrientId":34194849},{"nutrientId":1279,"nutrientName":"MUFA 22:1","nutrientNumber":"630","unitName":"G","value":0.015,"rank":12500,"indentLevel":2,"foodNutrientId":34194850},{"nutrientId":1280,"nutrientName":"PUFA 22:5 n-3 (DPA)","nutrientNumber":"631","unitName":"G","value":0.381,"rank":15200,"indentLevel":2,"foodNutrientId":34194851},{"nutrientId":1292,"nutrientName":"Fatty acids, total monounsaturated","nutrientNumber":"645","unitName":"G","value":5.539,"rank":11400,"indentLevel":1,"foodNutrientId":34194852},{"nutrientId":1293,"nutrientName":"Fatty acids, total polyunsaturated","nutrientNumber":"646","unitName":"G","value":5.172,"rank":12900,"indentLevel":1,"foodNutrientId":34194853}],"finalFoodInputFoods":[{"foodDescription":"Oil or table fat, NFS","gramWeight":4,"id":126379,"portionCode":"0","portionDescription":"NONE","unit":"GM","rank":3,"retentionCode":0,"srCode":81200100,"value":4.0},{"foodDescription":"Salt, table","gramWeight":0.4,"id":126380,"portionCode":"0","portionDescription":"NONE","unit":"GM","rank":4,"retentionCode":0,"srCode":2047,"value":0.4},{"foodDescription":"Fish, salmon, Atlantic, farmed, raw","gramWeight":72,"id":126377,"portionCode":"0","portionDescription":"NONE","unit":"GM","rank":1,"retentionCode":2309,"srCode":15236,"value":72.0},{"foodDescription":"Fish, salmon, pink, raw","gramWeight":24,"id":126378,"portionCode":"0","portionDescription":"NONE","unit":"GM","rank":2,"retentionCode":2309,"srCode":15083,"value":24.0}],"foodMeasures":[{"disseminationText":"1 large fillet","gramWeight":210,"id":294668,"modifier":"64009","rank":2,"measureUnitAbbreviation":"undetermined","measureUnitName":"undetermined","measureUnitId":9999},{"disseminationText":"1 oz yields","gramWeight":20,"id":294671,"modifier":"40016","rank":5,"measureUnitAbbreviation":"undetermined","measureUnitName":"undetermined","measureUnitId":9999},{"disseminationText":"1 small/regular fillet","gramWeight":140,"id":294667,"modifier":"64761","rank":1,"measureUnitAbbreviation":"undetermined","measureUnitName":"undetermined","measureUnitId":9999},{"disseminationText":"1 cup","gramWeight":135,"id":294670,"modifier":"10205","rank":4,"measureUnitAbbreviation":"undetermined","measureUnitName":"undetermined","measureUnitId":9999},{"disseminationText":"1 steak","gramWeight":210,"id":294669,"modifier":"62898","rank":3,"measureUnitAbbreviation":"undetermined","measureUnitName":"undetermined","measureUnitId":9999},{"disseminationText":"Quantity not specified","gramWeight":140,"id":294673,"modifier":"90000","rank":7,"measureUnitAbbreviation":"undetermined","measureUnitName":"undetermined","measureUnitId":9999},{"disseminationText":"1 cubic inch","gramWeight":17,"id":294672,"modifier":"51000","rank":6,"measureUnitAbbreviation":"undetermined","measureUnitName":"undetermined","measureUnitId":9999}],"foodAttributes":[{"value":"Moisture change: -23%","id":3319726},{"value":"Fish","name":"WWEIA Category description","id":3300120},{"value":"sauteed","id":3310837,"sequenceNumber":1},{"value":"2402","name":"WWEIA Category number","id":3300119},{"value":"NS as to coated","id":3310838,"sequenceNumber":8}],"foodAttributeTypes":[{"name":"Additional Description","description":"Additional descriptions for the food.","id":1001,"foodAttributes":[{"value":"sauteed","id":3310837,"sequenceNumber":1},{"value":"NS as to coated","id":3310838,"sequenceNumber":8}]},{"name":"Adjustments","description":"Adjustments made to foods, including moisture changes","id":1002,"foodAttributes":[{"value":"Moisture change: -23%","id":3319726}]},{"name":"Attribute","description":"Generic attributes","id":999,"foodAttributes":[{"value":"Fish","name":"WWEIA Category description","id":3300120},{"value":"2402","name":"WWEIA Category number","id":3300119}]}],"foodVersionIds":[]}],"aggregations":{"dataType":{"Branded":50406,"SR Legacy":635,"Survey (FNDDS)":202,"Foundation":5,"Experimental":3},"nutrients":{}}}
