{"totalHits":17811,"currentPage":1,"totalPages":17811,"pageList":[1,2,3,4,5,6,7,8,9,10],"foodSearchCriteria":{"query":"Spring Rolls","generalSearchInput":"Spring Rolls","pageNumber":1,"numberOfResultsPerPage":50,"pageSize":1,"requireAllWords":false},"foods":[{"fdcId":2375659,"description":"SPRING ROLL COMBO, SPRING ROLL","dataType":"Branded","gtinUpc":"850014420109","publishedDate":"2022-12-07","brandOwner":"Gavin & Bailey Consulting Firm LLC","brandName":"YUMMI SUSHI","ingredients":"COOKED RICE (MILLED RICE, WATER, SUSHI VINEGAR [SUGAR, WATER, VINEGAR, SALT]), IMITATION CRAB STICK (ALASKA POLILOCK, WATER, SUGAR, WHEAT STARCH, POTATO STARCH, EGG WHITES, SALT,POTASSIUM CHLORIDE, NATURAL FLAVORS [CRAB EXTRACT], SOYFLOUR, COLOR ADDED) [LYCOPENE]), EBI (SHRIMP[FARM RAISED], SALT), SWEET CHILI SAUCE (MAEPLOY), AVOCADO, CUCUMBER, SPRING ROLL SHEET (RICE PAPER (TAPIOCA, FILTERED WATER, RICE FLOUR, SALT}), GREEN LEAF LETTUCE:, CARROTS, YUMMI SUSHI VINEGAR (SUGAR, WATER, VINEGAR, SALT), PICKLED GINGER (GINGER, WATER, SALT, SUGAR, VINEGAR), WASABI (HORSERADISH, MUSTARD, SPIRULINA), SESAME SEEDS (BLACK SESAME SEEDS, WHITE SESAME SEEDS), SEAWEED.","marketCountry":"United States","foodCategory":"Sushi","modifiedDate":"2022-10-31","dataSource":"LI","packageWeight":"13 OZ/539 g","servingSizeUnit":"g","servingSize":539.0,"householdServingFullText":"539 GRM","shortDescription":"","tradeChannels":["NO_TRADE_CHANNEL"],"allHighlightFields":"<b>Ingredients</b>: ), SWEET CHILI SAUCE (MAEPLOY), AVOCADO, CUCUMBER, <em>SPRING</em> <em>ROLL</em> SHEET (RICE PAPER (TAPIOCA, FILTERED","score":341.34518,"microbes":[],"foodNutrients":[{"nutrientId":1003,"nutrientName":"Protein","nutrientNumber":"203","unitName":"G","derivationCode":"LCCS","derivationDescription":"Calculated from value per serving size measure","derivationId":70,"value":3.71,"foodNutrientSourceId":9,"foodNutrientSourceCode":"12","foodNutrientSourceDescription":"Manufacturer's analytical; partial documentation","rank":600,"indentLevel":1,"foodNutrientId":29212265},{"nutrientId":1004,"nutrientName":"Total lipid (fat)","nutrientNumber":"204","unitName":"G","derivationCode":"LCCS","derivationDescription":"Calculated from value per serving size measure","derivationId":70,"value":1.11,"foodNutrientSourceId":9,"foodNutrientSourceCode":"12","foodNutrientSourceDescription":"Manufacturer's analytical; partial documentation","rank":800,"indentLevel":1,"foodNutrientId":29212266,"percentDailyValue":8},{"nutrientId":1005,"nutrientName":"Carbohydrate, by difference","nutrientNumber":"205","unitName":"G","derivationCode":"LCCS","derivationDescription":"Calculated from value per serving size measure","derivationId":70,"value":27.1,"foodNutrientSourceId":9,"foodNutrientSourceCode":"12","foodNutrientSourceDescription":"Manufacturer's analytical; partial documentation","rank":1110,"indentLevel":2,"foodNutrientId":29212267,"percentDailyValue":53},{"nutrientId":1008,"nutrientName":"Energy","nutrientNumber":"208","unitName":"KCAL","derivationCode":"LCCS","derivationDescription":"Calculated from value per serving size measure","derivationId":70,"value":135,"foodNutrientSourceId":9,"foodNutrientSourceCode":"12","foodNutrientSourceDescription":"Manufacturer's analytical; partial documentation","rank":300,"indentLevel":1,"foodNutrientId":29212268},{"nutrientId":1093,"nutrientName":"Sodium, Na","nutrientNumber":"307","unitName":"MG","derivationCode":"LCCS","derivationDescription":"Calculated from value per serving size measure","derivationId":70,"value":280,"foodNutrientSourceId":9,"foodNutrientSourceCode":"12","foodNutrientSourceDescription":"Manufacturer's analytical; partial documentation","rank":5800,"indentLevel":1,"foodNutrientId":29212269,"percentDailyValue":66},{"nutrientId":1257,"nutrientName":"Fatty acids, total trans","nutrientNumber":"605","unitName":"G","derivationCode":"LCCS","derivationDescription":"Calculated from value per serving size measure","derivationId":70,"value":0.0,"foodNutrientSourceId":9,"foodNutrientSourceCode":"12","foodNutrientSourceDescription":"Manufacturer's analytical; partial documentation","rank":15400,"indentLevel":1,"foodNutrientId":29212270},{"nutrientId":1258,"nutrientName":"Fatty acids, total saturated","nutrientNumber":"606","unitName":"G","derivationCode":"LCCS","derivationDescription":"Calculated from value per serving size measure","derivationId":70,"value":0.19,"foodNutrientSourceId":9,"foodNutrientSourceCode":"12","foodNutrientSourceDescription":"Manufacturer's analytical; partial documentation","rank":9700,"indentLevel":1,"foodNutrientId":29212271,"percentDailyValue":5}],"finalFoodInputFoods":[],"foodMeasures":[],"foodAttributes":[],"foodAttributeTypes":[],"foodVersionIds":[]}],"aggregations":{"dataType":{"Branded":17468,"Survey (FNDDS)":274,"SR Legacy":68,"Foundation":1},"nutrients":{}}}
