{"totalHits":64387,"currentPage":1,"totalPages":64387,"pageList":[1,2,3,4,5,6,7,8,9,10],"foodSearchCriteria":{"query":"Paneer (Indian cottage cheese)","generalSearchInput":"Paneer (Indian cottage cheese)","pageNumber":1,"numberOfResultsPerPage":50,"pageSize":1,"requireAllWords":false},"foods":[{"fdcId":2705740,"description":"Cheese, paneer","commonNames":"","additionalDescriptions":"Indian cheese","dataType":"Survey (FNDDS)","foodCode":14110050,"publishedDate":"2024-10-31","foodCategory":"Cheese","foodCategoryId":3299028,"allHighlightFields":"<b>Includes</b>: <em>Indian</em> <em>cheese</em>","score":865.5854,"microbes":[],"foodNutrients":[{"nutrientId":1003,"nutrientName":"Protein","nutrientNumber":"203","unitName":"G","value":15.86,"rank":600,"indentLevel":1,"foodNutrientId":34159299},{"nutrientId":1004,"nutrientName":"Total lipid (fat)","nutrientNumber":"204","unitName":"G","value":15.52,"rank":800,"indentLevel":1,"foodNutrientId":34159300},{"nutrientId":1005,"nutrientName":"Carbohydrate, by difference","nutrientNumber":"205","unitName":"G","value":22.46,"rank":1110,"indentLevel":2,"foodNutrientId":34159301},{"nutrientId":1008,"nutrientName":"Energy","nutrientNumber":"208","unitName":"KCAL","value":299,"rank":300,"indentLevel":1,"foodNutrientId":34159302},{"nutrientId":1018,"nutrientName":"Alcohol, ethyl","nutrientNumber":"221","unitName":"G","value":0,"rank":18200,"indentLevel":1,"foodNutrientId":34159303},{"nutrientId":1051,"nutrientName":"Water","nutrientNumber":"255","unitName":"G","value":41.5,"rank":100,"indentLevel":1,"foodNutrientId":34159304},{"nutrientId":1057,"nutrientName":"Caffeine","nutrientNumber":"262","unitName":"MG","value":0,"rank":18300,"indentLevel":0,"foodNutrientId":34159305},{"nutrientId":1058,"nutrientName":"Theobromine","nutrientNumber":"263","unitName":"MG","value":0,"rank":18400,"indentLevel":0,"foodNutrientId":34159306},{"nutrientId":2000,"nutrientName":"Total Sugars","nutrientNumber":"269","unitName":"G","value":23.33,"rank":1510,"indentLevel":3,"foodNutrientId":34159307},{"nutrientId":1079,"nutrientName":"Fiber, total dietary","nutrientNumber":"291","unitName":"G","value":0,"rank":1200,"indentLevel":3,"foodNutrientId":34159308},{"nutrientId":1087,"nutrientName":"Calcium, Ca","nutrientNumber":"301","unitName":"MG","value":597,"rank":5300,"indentLevel":1,"foodNutrientId":34159309},{"nutrientId":1089,"nutrientName":"Iron, Fe","nutrientNumber":"303","unitName":"MG","value":0,"rank":5400,"indentLevel":1,"foodNutrientId":34159310},{"nutrientId":1090,"nutrientName":"Magnesium, Mg","nutrientNumber":"304","unitName":"MG","value":58,"rank":5500,"indentLevel":1,"foodNutrientId":34159311},{"nutrientId":1091,"nutrientName":"Phosphorus, P","nutrientNumber":"305","unitName":"MG","value":490,"rank":5600,"indentLevel":1,"foodNutrientId":34159312},{"nutrientId":1092,"nutrientName":"Potassium, K","nutrientNumber":"306","unitName":"MG","value":728,"rank":5700,"indentLevel":1,"foodNutrientId":34159313},{"nutrientId":1093,"nutrientName":"Sodium, Na","nutrientNumber":"307","unitName":"MG","value":185,"rank":5800,"indentLevel":1,"foodNutrientId":34159314},{"nutrientId":1095,"nutrientName":"Zinc, Zn","nutrientNumber":"309","unitName":"MG","value":2.04,"rank":5900,"indentLevel":1,"foodNutrientId":34159315},{"nutrientId":1098,"nutrientName":"Copper, Cu","nutrientNumber":"312","unitName":"MG","value":0.006,"rank":6000,"indentLevel":1,"foodNutrientId":34159316},{"nutrientId":1103,"nutrientName":"Selenium, Se","nutrientNumber":"317","unitName":"UG","value":9.3,"rank":6200,"indentLevel":1,"foodNutrientId":34159317},{"nutrientId":1105,"nutrientName":"Retinol","nutrientNumber":"319","unitName":"UG","value":150,"rank":7430,"indentLevel":2,"foodNutrientId":34159318},{"nutrientId":1106,"nutrientName":"Vitamin A, RAE","nutrientNumber":"320","unitName":"UG","value":155,"rank":7420,"indentLevel":1,"foodNutrientId":34159319},{"nutrientId":1107,"nutrientName":"Carotene, beta","nutrientNumber":"321","unitName":"UG","value":34,"rank":7440,"indentLevel":2,"foodNutrientId":34159320},{"nutrientId":1108,"nutrientName":"Carotene, alpha","nutrientNumber":"322","unitName":"UG","value":0,"rank":7450,"indentLevel":2,"foodNutrientId":34159321},{"nutrientId":1109,"nutrientName":"Vitamin E (alpha-tocopherol)","nutrientNumber":"323","unitName":"MG","value":0.24,"rank":7905,"indentLevel":1,"foodNutrientId":34159322},{"nutrientId":1114,"nutrientName":"Vitamin D (D2 + D3)","nutrientNumber":"328","unitName":"UG","value":5.3,"rank":8700,"indentLevel":1,"foodNutrientId":34159323},{"nutrientId":1120,"nutrientName":"Cryptoxanthin, beta","nutrientNumber":"334","unitName":"UG","value":0,"rank":7460,"indentLevel":2,"foodNutrientId":34159324},{"nutrientId":1122,"nutrientName":"Lycopene","nutrientNumber":"337","unitName":"UG","value":0,"rank":7530,"indentLevel":1,"foodNutrientId":34159325},{"nutrientId":1123,"nutrientName":"Lutein + zeaxanthin","nutrientNumber":"338","unitName":"UG","value":0,"rank":7560,"indentLevel":1,"foodNutrientId":34159326},{"nutrientId":1162,"nutrientName":"Vitamin C, total ascorbic acid","nutrientNumber":"401","unitName":"MG","value":0,"rank":6300,"indentLevel":1,"foodNutrientId":34159327},{"nutrientId":1165,"nutrientName":"Thiamin","nutrientNumber":"404","unitName":"MG","value":0.272,"rank":6400,"indentLevel":1,"foodNutrientId":34159328},{"nutrientId":1166,"nutrientName":"Riboflavin","nutrientNumber":"405","unitName":"MG","value":0.669,"rank":6500,"indentLevel":1,"foodNutrientId":34159329},{"nutrientId":1167,"nutrientName":"Niacin","nutrientNumber":"406","unitName":"MG","value":0.509,"rank":6600,"indentLevel":1,"foodNutrientId":34159330},{"nutrientId":1175,"nutrientName":"Vitamin B-6","nutrientNumber":"415","unitName":"MG","value":0.296,"rank":6800,"indentLevel":1,"foodNutrientId":34159331},{"nutrientId":1177,"nutrientName":"Folate, total","nutrientNumber":"417","unitName":"UG","value":0,"rank":6900,"indentLevel":1,"foodNutrientId":34159332},{"nutrientId":1178,"nutrientName":"Vitamin B-12","nutrientNumber":"418","unitName":"UG","value":2.62,"rank":7300,"indentLevel":1,"foodNutrientId":34159333},{"nutrientId":1180,"nutrientName":"Choline, total","nutrientNumber":"421","unitName":"MG","value":86.3,"rank":7220,"indentLevel":1,"foodNutrientId":34159334},{"nutrientId":1185,"nutrientName":"Vitamin K (phylloquinone)","nutrientNumber":"430","unitName":"UG","value":1.5,"rank":8800,"indentLevel":1,"foodNutrientId":34159335},{"nutrientId":1186,"nutrientName":"Folic acid","nutrientNumber":"431","unitName":"UG","value":0,"rank":7000,"indentLevel":0,"foodNutrientId":34159336},{"nutrientId":1187,"nutrientName":"Folate, food","nutrientNumber":"432","unitName":"UG","value":0,"rank":7100,"indentLevel":1,"foodNutrientId":34159337},{"nutrientId":1190,"nutrientName":"Folate, DFE","nutrientNumber":"435","unitName":"UG","value":0,"rank":7200,"indentLevel":1,"foodNutrientId":34159338},{"nutrientId":1242,"nutrientName":"Vitamin E, added","nutrientNumber":"573","unitName":"MG","value":0,"rank":7920,"indentLevel":0,"foodNutrientId":34159339},{"nutrientId":1246,"nutrientName":"Vitamin B-12, added","nutrientNumber":"578","unitName":"UG","value":0,"rank":7340,"indentLevel":0,"foodNutrientId":34159340},{"nutrientId":1253,"nutrientName":"Cholesterol","nutrientNumber":"601","unitName":"MG","value":58,"rank":15700,"indentLevel":1,"foodNutrientId":34159341},{"nutrientId":1258,"nutrientName":"Fatty acids, total saturated","nutrientNumber":"606","unitName":"G","value":9.021,"rank":9700,"indentLevel":1,"foodNutrientId":34159342},{"nutrientId":1259,"nutrientName":"SFA 4:0","nutrientNumber":"607","unitName":"G","value":0.325,"rank":9800,"indentLevel":2,"foodNutrientId":34159343},{"nutrientId":1260,"nutrientName":"SFA 6:0","nutrientNumber":"608","unitName":"G","value":0.262,"rank":9900,"indentLevel":2,"foodNutrientId":34159344},{"nutrientId":1261,"nutrientName":"SFA 8:0","nutrientNumber":"609","unitName":"G","value":0.165,"rank":10000,"indentLevel":2,"foodNutrientId":34159345},{"nutrientId":1262,"nutrientName":"SFA 10:0","nutrientNumber":"610","unitName":"G","value":0.407,"rank":10100,"indentLevel":2,"foodNutrientId":34159346},{"nutrientId":1263,"nutrientName":"SFA 12:0","nutrientNumber":"611","unitName":"G","value":0.47,"rank":10300,"indentLevel":2,"foodNutrientId":34159347},{"nutrientId":1264,"nutrientName":"SFA 14:0","nutrientNumber":"612","unitName":"G","value":1.47,"rank":10500,"indentLevel":2,"foodNutrientId":34159348},{"nutrientId":1265,"nutrientName":"SFA 16:0","nutrientNumber":"613","unitName":"G","value":4.156,"rank":10700,"indentLevel":2,"foodNutrientId":34159349},{"nutrientId":1266,"nutrientName":"SFA 18:0","nutrientNumber":"614","unitName":"G","value":1.499,"rank":10900,"indentLevel":2,"foodNutrientId":34159350},{"nutrientId":1268,"nutrientName":"MUFA 18:1","nutrientNumber":"617","unitName":"G","value":3.366,"rank":12100,"indentLevel":2,"foodNutrientId":34159351},{"nutrientId":1269,"nutrientName":"PUFA 18:2","nutrientNumber":"618","unitName":"G","value":0.558,"rank":13100,"indentLevel":2,"foodNutrientId":34159352},{"nutrientId":1270,"nutrientName":"PUFA 18:3","nutrientNumber":"619","unitName":"G","value":0.063,"rank":13900,"indentLevel":2,"foodNutrientId":34159353},{"nutrientId":1271,"nutrientName":"PUFA 20:4","nutrientNumber":"620","unitName":"G","value":0.019,"rank":14700,"indentLevel":2,"foodNutrientId":34159354},{"nutrientId":1272,"nutrientName":"PUFA 22:6 n-3 (DHA)","nutrientNumber":"621","unitName":"G","value":0,"rank":15300,"indentLevel":2,"foodNutrientId":34159355},{"nutrientId":1275,"nutrientName":"MUFA 16:1","nutrientNumber":"626","unitName":"G","value":0.228,"rank":11700,"indentLevel":2,"foodNutrientId":34159356},{"nutrientId":1276,"nutrientName":"PUFA 18:4","nutrientNumber":"627","unitName":"G","value":0,"rank":14250,"indentLevel":2,"foodNutrientId":34159357},{"nutrientId":1277,"nutrientName":"MUFA 20:1","nutrientNumber":"628","unitName":"G","value":0.019,"rank":12400,"indentLevel":2,"foodNutrientId":34159358},{"nutrientId":1278,"nutrientName":"PUFA 20:5 n-3 (EPA)","nutrientNumber":"629","unitName":"G","value":0.005,"rank":15000,"indentLevel":2,"foodNutrientId":34159359},{"nutrientId":1279,"nutrientName":"MUFA 22:1","nutrientNumber":"630","unitName":"G","value":0,"rank":12500,"indentLevel":2,"foodNutrientId":34159360},{"nutrientId":1280,"nutrientName":"PUFA 22:5 n-3 (DPA)","nutrientNumber":"631","unitName":"G","value":0.01,"rank":15200,"indentLevel":2,"foodNutrientId":34159361},{"nutrientId":1292,"nutrientName":"Fatty acids, total monounsaturated","nutrientNumber":"645","unitName":"G","value":3.337,"rank":11400,"indentLevel":1,"foodNutrientId":34159362},{"nutrientId":1293,"nutrientName":"Fatty acids, total polyunsaturated","nutrientNumber":"646","unitName":"G","value":0.524,"rank":12900,"indentLevel":1,"foodNutrientId":34159363}],"finalFoodInputFoods":[{"foodDescription":"Milk, whole, 3.25% milkfat, with added vitamin D","gramWeight":97,"id":125012,"portionCode":"0","portionDescription":"NONE","unit":"GM","rank":1,"retentionCode":0,"srCode":1077,"value":97.0},{"foodDescription":"Vinegar, distilled","gramWeight":3,"id":125013,"portionCode":"0","portionDescription":"NONE","unit":"GM","rank":2,"retentionCode":0,"srCode":2053,"value":3.0}],"foodMeasures":[{"disseminationText":"1 cup","gramWeight":246,"id":291772,"modifier":"10205","rank":1,"measureUnitAbbreviation":"undetermined","measureUnitName":"undetermined","measureUnitId":9999},{"disseminationText":"Quantity not specified","gramWeight":123,"id":291773,"modifier":"90000","rank":2,"measureUnitAbbreviation":"undetermined","measureUnitName":"undetermined","measureUnitId":9999}],"foodAttributes":[{"value":"1602","name":"WWEIA Category number","id":3299027},{"value":"Indian cheese","id":3309829,"sequenceNumber":1},{"value":"Moisture change: -80%","id":3319180},{"value":"Cheese","name":"WWEIA Category description","id":3299028}],"foodAttributeTypes":[{"name":"Additional Description","description":"Additional descriptions for the food.","id":1001,"foodAttributes":[{"value":"Indian cheese","id":3309829,"sequenceNumber":1}]},{"name":"Adjustments","description":"Adjustments made to foods, including moisture changes","id":1002,"foodAttributes":[{"value":"Moisture change: -80%","id":3319180}]},{"name":"Attribute","description":"Generic attributes","id":999,"foodAttributes":[{"value":"1602","name":"WWEIA Category number","id":3299027},{"value":"Cheese","name":"WWEIA Category description","id":3299028}]}],"foodVersionIds":[]}],"aggregations":{"dataType":{"Branded":63111,"Survey (FNDDS)":808,"SR Legacy":448,"Foundation":19,"Experimental":1},"nutrients":{}}}
