{"totalHits":17121,"currentPage":1,"totalPages":17121,"pageList":[1,2,3,4,5,6,7,8,9,10],"foodSearchCriteria":{"query":"Pasta Alfredo","generalSearchInput":"Pasta Alfredo","pageNumber":1,"numberOfResultsPerPage":50,"pageSize":1,"requireAllWords":false},"foods":[{"fdcId":2315360,"description":"PASTA ALFREDO","dataType":"Branded","gtinUpc":"851238005066","publishedDate":"2022-05-23","brandOwner":"Wise  Company, Inc.","brandName":"WISE COMPANY","ingredients":"PASTA (DURUM SEMOLINA FLOUR [WHEAT], NIACIN, FERROUS SULFATE [IRON], THIAMINE MONONITRATE, RIBOFLAVIN, FOLIC ACID), FOOD STARCH - MODIFIED, NONDAIRY CREAMER (COCONUT OIL, CORN SYRUP SOLIDS, SODIUM CASEINATE [FROM MILK], MONO AND DIGLYCERIDES, DIPOTASSIUM PHOSPHATE, SILICON DIOXIDE), NONDAIRY CREAMER (HIGH OLEIC SUNFLOWER OIL, CORN SYRUP SOLIDS, SODIUM CASEINATE [FROM MILK], DIPOTASSIUM PHOSPHATE, MONO AND DIGLYCERIDES, SILICON DIOXIDE, MIXED TOCOPHEROLS [TO PRESERVE FRESHNESS]), MALTODEXTRIN, BLEACHED WHEAT FLOUR (WHEAT FLOUR, NIACIN, REDUCED IRON, THIAMINE MONONITRATE, RIBOFLAVIN, ENZYME, FOLIC ACID), HYDROLYZED SOY PROTEIN, PARMESAN FLAVOR (SALT, YEAST EXTRACT, POTATO MALTODEXTRIN, COCONUT OIL), PARTIALLY HYDROGENATED SOYBEAN OIL, SALT, GARLIC POWDER, SPICES, DRIED ONION, DISODIUM INOSINATE AND DISODIUM GUANYLATE, DISODIUM PHOSPHATE, NATURAL FLAVOR.","marketCountry":"United States","foodCategory":"Pasta Dinners","modifiedDate":"2018-09-21","dataSource":"LI","packageWeight":"9.2 oz/260 g","servingSizeUnit":"g","servingSize":65.0,"householdServingFullText":"0.25 POUCH","shortDescription":"","tradeChannels":["NO_TRADE_CHANNEL"],"allHighlightFields":"<b>Ingredients</b>: <em>PASTA</em> (DURUM SEMOLINA FLOUR [WHEAT], NIACIN, FERROUS SULFATE [IRON], THIAMINE MONONITRATE","score":1590.047,"microbes":[],"foodNutrients":[{"nutrientId":1003,"nutrientName":"Protein","nutrientNumber":"203","unitName":"G","derivationCode":"LCCS","derivationDescription":"Calculated from value per serving size measure","derivationId":70,"value":7.69,"foodNutrientSourceId":9,"foodNutrientSourceCode":"12","foodNutrientSourceDescription":"Manufacturer's analytical; partial documentation","rank":600,"indentLevel":1,"foodNutrientId":28286929},{"nutrientId":1004,"nutrientName":"Total lipid (fat)","nutrientNumber":"204","unitName":"G","derivationCode":"LCCS","derivationDescription":"Calculated from value per serving size measure","derivationId":70,"value":13.8,"foodNutrientSourceId":9,"foodNutrientSourceCode":"12","foodNutrientSourceDescription":"Manufacturer's analytical; partial documentation","rank":800,"indentLevel":1,"foodNutrientId":28286930,"percentDailyValue":14},{"nutrientId":1005,"nutrientName":"Carbohydrate, by difference","nutrientNumber":"205","unitName":"G","derivationCode":"LCCS","derivationDescription":"Calculated from value per serving size measure","derivationId":70,"value":66.2,"foodNutrientSourceId":9,"foodNutrientSourceCode":"12","foodNutrientSourceDescription":"Manufacturer's analytical; partial documentation","rank":1110,"indentLevel":2,"foodNutrientId":28286931,"percentDailyValue":14},{"nutrientId":1008,"nutrientName":"Energy","nutrientNumber":"208","unitName":"KCAL","derivationCode":"LCCS","derivationDescription":"Calculated from value per serving size measure","derivationId":70,"value":431,"foodNutrientSourceId":9,"foodNutrientSourceCode":"12","foodNutrientSourceDescription":"Manufacturer's analytical; partial documentation","rank":300,"indentLevel":1,"foodNutrientId":28286932},{"nutrientId":2000,"nutrientName":"Total Sugars","nutrientNumber":"269","unitName":"G","derivationCode":"LCCS","derivationDescription":"Calculated from value per serving size measure","derivationId":70,"value":3.08,"foodNutrientSourceId":9,"foodNutrientSourceCode":"12","foodNutrientSourceDescription":"Manufacturer's analytical; partial documentation","rank":1510,"indentLevel":3,"foodNutrientId":28286933},{"nutrientId":1079,"nutrientName":"Fiber, total dietary","nutrientNumber":"291","unitName":"G","derivationCode":"LCCS","derivationDescription":"Calculated from value per serving size measure","derivationId":70,"value":1.5,"foodNutrientSourceId":9,"foodNutrientSourceCode":"12","foodNutrientSourceDescription":"Manufacturer's analytical; partial documentation","rank":1200,"indentLevel":3,"foodNutrientId":28286934,"percentDailyValue":4},{"nutrientId":1087,"nutrientName":"Calcium, Ca","nutrientNumber":"301","unitName":"MG","derivationCode":"LCCD","derivationDescription":"Calculated from a daily value percentage per serving size measure","derivationId":75,"value":31.0,"foodNutrientSourceId":9,"foodNutrientSourceCode":"12","foodNutrientSourceDescription":"Manufacturer's analytical; partial documentation","rank":5300,"indentLevel":1,"foodNutrientId":28286935,"percentDailyValue":2},{"nutrientId":1089,"nutrientName":"Iron, Fe","nutrientNumber":"303","unitName":"MG","derivationCode":"LCCD","derivationDescription":"Calculated from a daily value percentage per serving size measure","derivationId":75,"value":2.22,"foodNutrientSourceId":9,"foodNutrientSourceCode":"12","foodNutrientSourceDescription":"Manufacturer's analytical; partial documentation","rank":5400,"indentLevel":1,"foodNutrientId":28286936,"percentDailyValue":8},{"nutrientId":1093,"nutrientName":"Sodium, Na","nutrientNumber":"307","unitName":"MG","derivationCode":"LCCS","derivationDescription":"Calculated from value per serving size measure","derivationId":70,"value":1180.0,"foodNutrientSourceId":9,"foodNutrientSourceCode":"12","foodNutrientSourceDescription":"Manufacturer's analytical; partial documentation","rank":5800,"indentLevel":1,"foodNutrientId":28286937,"percentDailyValue":32},{"nutrientId":1104,"nutrientName":"Vitamin A, IU","nutrientNumber":"318","unitName":"IU","derivationCode":"LCCD","derivationDescription":"Calculated from a daily value percentage per serving size measure","derivationId":75,"value":0.0,"foodNutrientSourceId":9,"foodNutrientSourceCode":"12","foodNutrientSourceDescription":"Manufacturer's analytical; partial documentation","rank":7500,"indentLevel":1,"foodNutrientId":28286938,"percentDailyValue":0},{"nutrientId":1162,"nutrientName":"Vitamin C, total ascorbic acid","nutrientNumber":"401","unitName":"MG","derivationCode":"LCCD","derivationDescription":"Calculated from a daily value percentage per serving size measure","derivationId":75,"value":1.8,"foodNutrientSourceId":9,"foodNutrientSourceCode":"12","foodNutrientSourceDescription":"Manufacturer's analytical; partial documentation","rank":6300,"indentLevel":1,"foodNutrientId":28286939,"percentDailyValue":2},{"nutrientId":1253,"nutrientName":"Cholesterol","nutrientNumber":"601","unitName":"MG","derivationCode":"LCCD","derivationDescription":"Calculated from a daily value percentage per serving size measure","derivationId":75,"value":0.0,"foodNutrientSourceId":9,"foodNutrientSourceCode":"12","foodNutrientSourceDescription":"Manufacturer's analytical; partial documentation","rank":15700,"indentLevel":1,"foodNutrientId":28286940,"percentDailyValue":0},{"nutrientId":1257,"nutrientName":"Fatty acids, total trans","nutrientNumber":"605","unitName":"G","derivationCode":"LCCS","derivationDescription":"Calculated from value per serving size measure","derivationId":70,"value":0.0,"foodNutrientSourceId":9,"foodNutrientSourceCode":"12","foodNutrientSourceDescription":"Manufacturer's analytical; partial documentation","rank":15400,"indentLevel":1,"foodNutrientId":28286941},{"nutrientId":1258,"nutrientName":"Fatty acids, total saturated","nutrientNumber":"606","unitName":"G","derivationCode":"LCCS","derivationDescription":"Calculated from value per serving size measure","derivationId":70,"value":6.15,"foodNutrientSourceId":9,"foodNutrientSourceCode":"12","foodNutrientSourceDescription":"Manufacturer's analytical; partial documentation","rank":9700,"indentLevel":1,"foodNutrientId":28286942,"percentDailyValue":20}],"finalFoodInputFoods":[],"foodMeasures":[],"foodAttributes":[],"foodAttributeTypes":[],"foodVersionIds":[]}],"aggregations":{"dataType":{"Branded":16660,"Survey (FNDDS)":223,"SR Legacy":195,"Foundation":42,"Experimental":1},"nutrients":{}}}
