{"totalHits":40,"currentPage":1,"totalPages":40,"pageList":[1,2,3,4,5,6,7,8,9,10],"foodSearchCriteria":{"query":"Carbonara","generalSearchInput":"Carbonara","pageNumber":1,"numberOfResultsPerPage":50,"pageSize":1,"requireAllWords":false},"foods":[{"fdcId":2605732,"description":"CARBONARA RAVIOLI, CARBONARA","dataType":"Branded","gtinUpc":"085239098639","publishedDate":"2023-07-13","brandOwner":"Target Stores","brandName":"GOOD & GATHER","ingredients":"FILLING: RICOTTA CHEESE (PASTEURIZED MILK, WHEY, VINEGAR, SALT, STABILIZERS [GUAR GUM, XANTHAN GUM, LOCUST BEAN GUM]), WHITE CHEDDAR CHEESE (PASTEURIZED MILK, CULTURE, SALT, ENZYMES), PEAS, BACON (PORK, SEA SALT, SUGAR, SPICES), PARMESAN CHEESE (PASTEURIZED PART SKIM COW'S MILK, CHEESE CULTURE, SALT, ENZYMES), PARMESAN FLAVOR (PARMESAN CHEESE [GRANULAR CHEESE & PARMESAN CHEESE {PASTEURIZED MILK, CULTURES, SALT, ENZYMES}, WATER, SALT, NATURAL FLAVOR, CITRIC ACID], SEA SALT, CANOLA OIL, YEAST EXTRACT, ORGANIC BUTTER [CREAM], SWEET CREAM, SUGAR, WATER, ORGANIC ONION POWDER, ORGANIC GARLIC POWDER, NATURAL FLAVOR), PARSLEY, HEAVY CREAM, EGGS, BLACK PEPPER, BETA-CAROTENE (COLOR). PASTA: WHEAT FLOUR, WATER, EGGS, BETA-CAROTENE (COLOR).","marketCountry":"United States","foodCategory":"Pasta by Shape & Type","modifiedDate":"2023-06-30","dataSource":"LI","packageWeight":"9 oz/255 g","servingSizeUnit":"GRM","servingSize":100.0,"householdServingFullText":"1 cup","shortDescription":"","tradeChannels":["NO_TRADE_CHANNEL"],"allHighlightFields":"","score":352.8167,"microbes":[],"foodNutrients":[{"nutrientId":1003,"nutrientName":"Protein","nutrientNumber":"203","unitName":"G","derivationCode":"LCCS","derivationDescription":"Calculated from value per serving size measure","derivationId":70,"value":12.0,"foodNutrientSourceId":9,"foodNutrientSourceCode":"12","foodNutrientSourceDescription":"Manufacturer's analytical; partial documentation","rank":600,"indentLevel":1,"foodNutrientId":32558068},{"nutrientId":1004,"nutrientName":"Total lipid (fat)","nutrientNumber":"204","unitName":"G","derivationCode":"LCCS","derivationDescription":"Calculated from value per serving size measure","derivationId":70,"value":11.0,"foodNutrientSourceId":9,"foodNutrientSourceCode":"12","foodNutrientSourceDescription":"Manufacturer's analytical; partial documentation","rank":800,"indentLevel":1,"foodNutrientId":32558069,"percentDailyValue":14},{"nutrientId":1005,"nutrientName":"Carbohydrate, by difference","nutrientNumber":"205","unitName":"G","derivationCode":"LCCS","derivationDescription":"Calculated from value per serving size measure","derivationId":70,"value":26.0,"foodNutrientSourceId":9,"foodNutrientSourceCode":"12","foodNutrientSourceDescription":"Manufacturer's analytical; partial documentation","rank":1110,"indentLevel":2,"foodNutrientId":32558070,"percentDailyValue":9},{"nutrientId":1008,"nutrientName":"Energy","nutrientNumber":"208","unitName":"KCAL","derivationCode":"LCCS","derivationDescription":"Calculated from value per serving size measure","derivationId":70,"value":260,"foodNutrientSourceId":9,"foodNutrientSourceCode":"12","foodNutrientSourceDescription":"Manufacturer's analytical; partial documentation","rank":300,"indentLevel":1,"foodNutrientId":32558071},{"nutrientId":2000,"nutrientName":"Total Sugars","nutrientNumber":"269","unitName":"G","derivationCode":"LCCS","derivationDescription":"Calculated from value per serving size measure","derivationId":70,"value":1.0,"foodNutrientSourceId":9,"foodNutrientSourceCode":"12","foodNutrientSourceDescription":"Manufacturer's analytical; partial documentation","rank":1510,"indentLevel":3,"foodNutrientId":32558072},{"nutrientId":1079,"nutrientName":"Fiber, total dietary","nutrientNumber":"291","unitName":"G","derivationCode":"LCCS","derivationDescription":"Calculated from value per serving size measure","derivationId":70,"value":0.0,"foodNutrientSourceId":9,"foodNutrientSourceCode":"12","foodNutrientSourceDescription":"Manufacturer's analytical; partial documentation","rank":1200,"indentLevel":3,"foodNutrientId":32558073,"percentDailyValue":0},{"nutrientId":1087,"nutrientName":"Calcium, Ca","nutrientNumber":"301","unitName":"MG","derivationCode":"LCCS","derivationDescription":"Calculated from value per serving size measure","derivationId":70,"value":210,"foodNutrientSourceId":9,"foodNutrientSourceCode":"12","foodNutrientSourceDescription":"Manufacturer's analytical; partial documentation","rank":5300,"indentLevel":1,"foodNutrientId":32558074,"percentDailyValue":15},{"nutrientId":1089,"nutrientName":"Iron, Fe","nutrientNumber":"303","unitName":"MG","derivationCode":"LCCS","derivationDescription":"Calculated from value per serving size measure","derivationId":70,"value":1.0,"foodNutrientSourceId":9,"foodNutrientSourceCode":"12","foodNutrientSourceDescription":"Manufacturer's analytical; partial documentation","rank":5400,"indentLevel":1,"foodNutrientId":32558075,"percentDailyValue":6},{"nutrientId":1092,"nutrientName":"Potassium, K","nutrientNumber":"306","unitName":"MG","derivationCode":"LCCS","derivationDescription":"Calculated from value per serving size measure","derivationId":70,"value":130,"foodNutrientSourceId":9,"foodNutrientSourceCode":"12","foodNutrientSourceDescription":"Manufacturer's analytical; partial documentation","rank":5700,"indentLevel":1,"foodNutrientId":32558076,"percentDailyValue":2},{"nutrientId":1093,"nutrientName":"Sodium, Na","nutrientNumber":"307","unitName":"MG","derivationCode":"LCCS","derivationDescription":"Calculated from value per serving size measure","derivationId":70,"value":310,"foodNutrientSourceId":9,"foodNutrientSourceCode":"12","foodNutrientSourceDescription":"Manufacturer's analytical; partial documentation","rank":5800,"indentLevel":1,"foodNutrientId":32558077,"percentDailyValue":13},{"nutrientId":1114,"nutrientName":"Vitamin D (D2 + D3)","nutrientNumber":"328","unitName":"UG","derivationCode":"LCCS","derivationDescription":"Calculated from value per serving size measure","derivationId":70,"value":0.0,"foodNutrientSourceId":9,"foodNutrientSourceCode":"12","foodNutrientSourceDescription":"Manufacturer's analytical; partial documentation","rank":8700,"indentLevel":1,"foodNutrientId":32558078,"percentDailyValue":0},{"nutrientId":1235,"nutrientName":"Sugars, added","nutrientNumber":"539","unitName":"G","derivationCode":"LCCS","derivationDescription":"Calculated from value per serving size measure","derivationId":70,"value":0.0,"foodNutrientSourceId":9,"foodNutrientSourceCode":"12","foodNutrientSourceDescription":"Manufacturer's analytical; partial documentation","rank":1540,"indentLevel":0,"foodNutrientId":32558079,"percentDailyValue":0},{"nutrientId":1253,"nutrientName":"Cholesterol","nutrientNumber":"601","unitName":"MG","derivationCode":"LCCS","derivationDescription":"Calculated from value per serving size measure","derivationId":70,"value":40.0,"foodNutrientSourceId":9,"foodNutrientSourceCode":"12","foodNutrientSourceDescription":"Manufacturer's analytical; partial documentation","rank":15700,"indentLevel":1,"foodNutrientId":32558080,"percentDailyValue":13},{"nutrientId":1257,"nutrientName":"Fatty acids, total trans","nutrientNumber":"605","unitName":"G","derivationCode":"LCCS","derivationDescription":"Calculated from value per serving size measure","derivationId":70,"value":0.0,"foodNutrientSourceId":9,"foodNutrientSourceCode":"12","foodNutrientSourceDescription":"Manufacturer's analytical; partial documentation","rank":15400,"indentLevel":1,"foodNutrientId":32558081},{"nutrientId":1258,"nutrientName":"Fatty acids, total saturated","nutrientNumber":"606","unitName":"G","derivationCode":"LCCS","derivationDescription":"Calculated from value per serving size measure","derivationId":70,"value":6.0,"foodNutrientSourceId":9,"foodNutrientSourceCode":"12","foodNutrientSourceDescription":"Manufacturer's analytical; partial documentation","rank":9700,"indentLevel":1,"foodNutrientId":32558082,"percentDailyValue":30}],"finalFoodInputFoods":[],"foodMeasures":[],"foodAttributes":[],"foodAttributeTypes":[],"foodVersionIds":[]}],"aggregations":{"dataType":{"Branded":40},"nutrients":{}}}
