{"totalHits":20986,"currentPage":1,"totalPages":20986,"pageList":[1,2,3,4,5,6,7,8,9,10],"foodSearchCriteria":{"query":"Tandoori Chicken","generalSearchInput":"Tandoori Chicken","pageNumber":1,"numberOfResultsPerPage":50,"pageSize":1,"requireAllWords":false},"foods":[{"fdcId":2031571,"description":"TANDOORI CHICKEN SEASONING MIX, TANDOORI CHICKEN","dataType":"Branded","gtinUpc":"041390042249","publishedDate":"2021-10-28","brandOwner":"Kikkoman Sales USA, Inc.","brandName":"KIKKOMAN","ingredients":"WHEY (MILK), SPICES, SALT, PAPRIKA, GARLIC POWDER, CORN SYRUP SOLIDS, BROWN SUGAR, TURMERIC, YEAST EXTRACT, SILICON DIOXIDE, EXTRACTIVES OF PAPRIKA, GUAR GUM, LEMON JUICE, LACTIC ACID, NATURAL FLAVOR, RED 40, DISODIUM INOSINATE, DISODIUM GUANYLATE, LEMON OIL.","marketCountry":"United States","foodCategory":"Seasoning Mixes, Salts, Marinades & Tenderizers","modifiedDate":"2019-10-07","dataSource":"LI","packageWeight":"1 oz/28.3 g","servingSizeUnit":"g","servingSize":7.0,"householdServingFullText":"1 Tbsp","tradeChannels":["NO_TRADE_CHANNEL"],"allHighlightFields":"","score":427.49585,"microbes":[],"foodNutrients":[{"nutrientId":1003,"nutrientName":"Protein","nutrientNumber":"203","unitName":"G","derivationCode":"LCSL","derivationDescription":"Calculated from a less than value per serving size measure","derivationId":73,"value":14.3,"foodNutrientSourceId":9,"foodNutrientSourceCode":"12","foodNutrientSourceDescription":"Manufacturer's analytical; partial documentation","rank":600,"indentLevel":1,"foodNutrientId":24899501},{"nutrientId":1004,"nutrientName":"Total lipid (fat)","nutrientNumber":"204","unitName":"G","derivationCode":"LCCD","derivationDescription":"Calculated from a daily value percentage per serving size measure","derivationId":75,"value":0.0,"foodNutrientSourceId":9,"foodNutrientSourceCode":"12","foodNutrientSourceDescription":"Manufacturer's analytical; partial documentation","rank":800,"indentLevel":1,"foodNutrientId":24899502,"percentDailyValue":0},{"nutrientId":1005,"nutrientName":"Carbohydrate, by difference","nutrientNumber":"205","unitName":"G","derivationCode":"LCCS","derivationDescription":"Calculated from value per serving size measure","derivationId":70,"value":57.1,"foodNutrientSourceId":9,"foodNutrientSourceCode":"12","foodNutrientSourceDescription":"Manufacturer's analytical; partial documentation","rank":1110,"indentLevel":2,"foodNutrientId":24899503,"percentDailyValue":1},{"nutrientId":1008,"nutrientName":"Energy","nutrientNumber":"208","unitName":"KCAL","derivationCode":"LCCS","derivationDescription":"Calculated from value per serving size measure","derivationId":70,"value":286,"foodNutrientSourceId":9,"foodNutrientSourceCode":"12","foodNutrientSourceDescription":"Manufacturer's analytical; partial documentation","rank":300,"indentLevel":1,"foodNutrientId":24899504},{"nutrientId":2000,"nutrientName":"Total Sugars","nutrientNumber":"269","unitName":"G","derivationCode":"LCCS","derivationDescription":"Calculated from value per serving size measure","derivationId":70,"value":28.6,"foodNutrientSourceId":9,"foodNutrientSourceCode":"12","foodNutrientSourceDescription":"Manufacturer's analytical; partial documentation","rank":1510,"indentLevel":3,"foodNutrientId":24899505},{"nutrientId":1089,"nutrientName":"Iron, Fe","nutrientNumber":"303","unitName":"MG","derivationCode":"LCCS","derivationDescription":"Calculated from value per serving size measure","derivationId":70,"value":7.14,"foodNutrientSourceId":9,"foodNutrientSourceCode":"12","foodNutrientSourceDescription":"Manufacturer's analytical; partial documentation","rank":5400,"indentLevel":1,"foodNutrientId":24899506,"percentDailyValue":2},{"nutrientId":1092,"nutrientName":"Potassium, K","nutrientNumber":"306","unitName":"MG","derivationCode":"LCCS","derivationDescription":"Calculated from value per serving size measure","derivationId":70,"value":2430.0,"foodNutrientSourceId":9,"foodNutrientSourceCode":"12","foodNutrientSourceDescription":"Manufacturer's analytical; partial documentation","rank":5700,"indentLevel":1,"foodNutrientId":24899507,"percentDailyValue":4},{"nutrientId":1093,"nutrientName":"Sodium, Na","nutrientNumber":"307","unitName":"MG","derivationCode":"LCCS","derivationDescription":"Calculated from value per serving size measure","derivationId":70,"value":5710.0,"foodNutrientSourceId":9,"foodNutrientSourceCode":"12","foodNutrientSourceDescription":"Manufacturer's analytical; partial documentation","rank":5800,"indentLevel":1,"foodNutrientId":24899508,"percentDailyValue":17}],"finalFoodInputFoods":[],"foodMeasures":[],"foodAttributes":[],"foodAttributeTypes":[],"foodVersionIds":[]}],"aggregations":{"dataType":{"Branded":20140,"Survey (FNDDS)":445,"SR Legacy":392,"Foundation":9},"nutrients":{}}}
