{"totalHits":127,"currentPage":1,"totalPages":127,"pageList":[1,2,3,4,5,6,7,8,9,10],"foodSearchCriteria":{"query":"Falafel","generalSearchInput":"Falafel","pageNumber":1,"numberOfResultsPerPage":50,"pageSize":1,"requireAllWords":false},"foods":[{"fdcId":2707408,"description":"Falafel","commonNames":"","additionalDescriptions":"","dataType":"Survey (FNDDS)","foodCode":41209000,"publishedDate":"2024-10-31","foodCategory":"Bean, pea, legume dishes","foodCategoryId":3302364,"allHighlightFields":"","score":1777.1284,"microbes":[],"foodNutrients":[{"nutrientId":1003,"nutrientName":"Protein","nutrientNumber":"203","unitName":"G","value":8.28,"rank":600,"indentLevel":1,"foodNutrientId":34267719},{"nutrientId":1004,"nutrientName":"Total lipid (fat)","nutrientNumber":"204","unitName":"G","value":41.19,"rank":800,"indentLevel":1,"foodNutrientId":34267720},{"nutrientId":1005,"nutrientName":"Carbohydrate, by difference","nutrientNumber":"205","unitName":"G","value":28.96,"rank":1110,"indentLevel":2,"foodNutrientId":34267721},{"nutrientId":1008,"nutrientName":"Energy","nutrientNumber":"208","unitName":"KCAL","value":514,"rank":300,"indentLevel":1,"foodNutrientId":34267722},{"nutrientId":1018,"nutrientName":"Alcohol, ethyl","nutrientNumber":"221","unitName":"G","value":0,"rank":18200,"indentLevel":1,"foodNutrientId":34267723},{"nutrientId":1051,"nutrientName":"Water","nutrientNumber":"255","unitName":"G","value":18.73,"rank":100,"indentLevel":1,"foodNutrientId":34267724},{"nutrientId":1057,"nutrientName":"Caffeine","nutrientNumber":"262","unitName":"MG","value":0,"rank":18300,"indentLevel":0,"foodNutrientId":34267725},{"nutrientId":1058,"nutrientName":"Theobromine","nutrientNumber":"263","unitName":"MG","value":0,"rank":18400,"indentLevel":0,"foodNutrientId":34267726},{"nutrientId":2000,"nutrientName":"Total Sugars","nutrientNumber":"269","unitName":"G","value":4.52,"rank":1510,"indentLevel":3,"foodNutrientId":34267727},{"nutrientId":1079,"nutrientName":"Fiber, total dietary","nutrientNumber":"291","unitName":"G","value":4.8,"rank":1200,"indentLevel":3,"foodNutrientId":34267728},{"nutrientId":1087,"nutrientName":"Calcium, Ca","nutrientNumber":"301","unitName":"MG","value":86,"rank":5300,"indentLevel":1,"foodNutrientId":34267729},{"nutrientId":1089,"nutrientName":"Iron, Fe","nutrientNumber":"303","unitName":"MG","value":2.31,"rank":5400,"indentLevel":1,"foodNutrientId":34267730},{"nutrientId":1090,"nutrientName":"Magnesium, Mg","nutrientNumber":"304","unitName":"MG","value":31,"rank":5500,"indentLevel":1,"foodNutrientId":34267731},{"nutrientId":1091,"nutrientName":"Phosphorus, P","nutrientNumber":"305","unitName":"MG","value":112,"rank":5600,"indentLevel":1,"foodNutrientId":34267732},{"nutrientId":1092,"nutrientName":"Potassium, K","nutrientNumber":"306","unitName":"MG","value":259,"rank":5700,"indentLevel":1,"foodNutrientId":34267733},{"nutrientId":1093,"nutrientName":"Sodium, Na","nutrientNumber":"307","unitName":"MG","value":499,"rank":5800,"indentLevel":1,"foodNutrientId":34267734},{"nutrientId":1095,"nutrientName":"Zinc, Zn","nutrientNumber":"309","unitName":"MG","value":1.02,"rank":5900,"indentLevel":1,"foodNutrientId":34267735},{"nutrientId":1098,"nutrientName":"Copper, Cu","nutrientNumber":"312","unitName":"MG","value":0.178,"rank":6000,"indentLevel":1,"foodNutrientId":34267736},{"nutrientId":1103,"nutrientName":"Selenium, Se","nutrientNumber":"317","unitName":"UG","value":1.4,"rank":6200,"indentLevel":1,"foodNutrientId":34267737},{"nutrientId":1105,"nutrientName":"Retinol","nutrientNumber":"319","unitName":"UG","value":0,"rank":7430,"indentLevel":2,"foodNutrientId":34267738},{"nutrientId":1106,"nutrientName":"Vitamin A, RAE","nutrientNumber":"320","unitName":"UG","value":12,"rank":7420,"indentLevel":1,"foodNutrientId":34267739},{"nutrientId":1107,"nutrientName":"Carotene, beta","nutrientNumber":"321","unitName":"UG","value":136,"rank":7440,"indentLevel":2,"foodNutrientId":34267740},{"nutrientId":1108,"nutrientName":"Carotene, alpha","nutrientNumber":"322","unitName":"UG","value":0,"rank":7450,"indentLevel":2,"foodNutrientId":34267741},{"nutrientId":1109,"nutrientName":"Vitamin E (alpha-tocopherol)","nutrientNumber":"323","unitName":"MG","value":7.74,"rank":7905,"indentLevel":1,"foodNutrientId":34267742},{"nutrientId":1114,"nutrientName":"Vitamin D (D2 + D3)","nutrientNumber":"328","unitName":"UG","value":0,"rank":8700,"indentLevel":1,"foodNutrientId":34267743},{"nutrientId":1120,"nutrientName":"Cryptoxanthin, beta","nutrientNumber":"334","unitName":"UG","value":11,"rank":7460,"indentLevel":2,"foodNutrientId":34267744},{"nutrientId":1122,"nutrientName":"Lycopene","nutrientNumber":"337","unitName":"UG","value":0,"rank":7530,"indentLevel":1,"foodNutrientId":34267745},{"nutrientId":1123,"nutrientName":"Lutein + zeaxanthin","nutrientNumber":"338","unitName":"UG","value":111,"rank":7560,"indentLevel":1,"foodNutrientId":34267746},{"nutrientId":1162,"nutrientName":"Vitamin C, total ascorbic acid","nutrientNumber":"401","unitName":"MG","value":7.3,"rank":6300,"indentLevel":1,"foodNutrientId":34267747},{"nutrientId":1165,"nutrientName":"Thiamin","nutrientNumber":"404","unitName":"MG","value":0.134,"rank":6400,"indentLevel":1,"foodNutrientId":34267748},{"nutrientId":1166,"nutrientName":"Riboflavin","nutrientNumber":"405","unitName":"MG","value":0.099,"rank":6500,"indentLevel":1,"foodNutrientId":34267749},{"nutrientId":1167,"nutrientName":"Niacin","nutrientNumber":"406","unitName":"MG","value":0.8,"rank":6600,"indentLevel":1,"foodNutrientId":34267750},{"nutrientId":1175,"nutrientName":"Vitamin B-6","nutrientNumber":"415","unitName":"MG","value":0.159,"rank":6800,"indentLevel":1,"foodNutrientId":34267751},{"nutrientId":1177,"nutrientName":"Folate, total","nutrientNumber":"417","unitName":"UG","value":79,"rank":6900,"indentLevel":1,"foodNutrientId":34267752},{"nutrientId":1178,"nutrientName":"Vitamin B-12","nutrientNumber":"418","unitName":"UG","value":0,"rank":7300,"indentLevel":1,"foodNutrientId":34267753},{"nutrientId":1180,"nutrientName":"Choline, total","nutrientNumber":"421","unitName":"MG","value":37.5,"rank":7220,"indentLevel":1,"foodNutrientId":34267754},{"nutrientId":1185,"nutrientName":"Vitamin K (phylloquinone)","nutrientNumber":"430","unitName":"UG","value":72.2,"rank":8800,"indentLevel":1,"foodNutrientId":34267755},{"nutrientId":1186,"nutrientName":"Folic acid","nutrientNumber":"431","unitName":"UG","value":5,"rank":7000,"indentLevel":0,"foodNutrientId":34267756},{"nutrientId":1187,"nutrientName":"Folate, food","nutrientNumber":"432","unitName":"UG","value":75,"rank":7100,"indentLevel":1,"foodNutrientId":34267757},{"nutrientId":1190,"nutrientName":"Folate, DFE","nutrientNumber":"435","unitName":"UG","value":83,"rank":7200,"indentLevel":1,"foodNutrientId":34267758},{"nutrientId":1242,"nutrientName":"Vitamin E, added","nutrientNumber":"573","unitName":"MG","value":0,"rank":7920,"indentLevel":0,"foodNutrientId":34267759},{"nutrientId":1246,"nutrientName":"Vitamin B-12, added","nutrientNumber":"578","unitName":"UG","value":0,"rank":7340,"indentLevel":0,"foodNutrientId":34267760},{"nutrientId":1253,"nutrientName":"Cholesterol","nutrientNumber":"601","unitName":"MG","value":0,"rank":15700,"indentLevel":1,"foodNutrientId":34267761},{"nutrientId":1258,"nutrientName":"Fatty acids, total saturated","nutrientNumber":"606","unitName":"G","value":5.427,"rank":9700,"indentLevel":1,"foodNutrientId":34267762},{"nutrientId":1259,"nutrientName":"SFA 4:0","nutrientNumber":"607","unitName":"G","value":0,"rank":9800,"indentLevel":2,"foodNutrientId":34267763},{"nutrientId":1260,"nutrientName":"SFA 6:0","nutrientNumber":"608","unitName":"G","value":0,"rank":9900,"indentLevel":2,"foodNutrientId":34267764},{"nutrientId":1261,"nutrientName":"SFA 8:0","nutrientNumber":"609","unitName":"G","value":0,"rank":10000,"indentLevel":2,"foodNutrientId":34267765},{"nutrientId":1262,"nutrientName":"SFA 10:0","nutrientNumber":"610","unitName":"G","value":0,"rank":10100,"indentLevel":2,"foodNutrientId":34267766},{"nutrientId":1263,"nutrientName":"SFA 12:0","nutrientNumber":"611","unitName":"G","value":0,"rank":10300,"indentLevel":2,"foodNutrientId":34267767},{"nutrientId":1264,"nutrientName":"SFA 14:0","nutrientNumber":"612","unitName":"G","value":0.023,"rank":10500,"indentLevel":2,"foodNutrientId":34267768},{"nutrientId":1265,"nutrientName":"SFA 16:0","nutrientNumber":"613","unitName":"G","value":3.926,"rank":10700,"indentLevel":2,"foodNutrientId":34267769},{"nutrientId":1266,"nutrientName":"SFA 18:0","nutrientNumber":"614","unitName":"G","value":1.151,"rank":10900,"indentLevel":2,"foodNutrientId":34267770},{"nutrientId":1268,"nutrientName":"MUFA 18:1","nutrientNumber":"617","unitName":"G","value":16.586,"rank":12100,"indentLevel":2,"foodNutrientId":34267771},{"nutrientId":1269,"nutrientName":"PUFA 18:2","nutrientNumber":"618","unitName":"G","value":14.177,"rank":13100,"indentLevel":2,"foodNutrientId":34267772},{"nutrientId":1270,"nutrientName":"PUFA 18:3","nutrientNumber":"619","unitName":"G","value":1.736,"rank":13900,"indentLevel":2,"foodNutrientId":34267773},{"nutrientId":1271,"nutrientName":"PUFA 20:4","nutrientNumber":"620","unitName":"G","value":0.001,"rank":14700,"indentLevel":2,"foodNutrientId":34267774},{"nutrientId":1272,"nutrientName":"PUFA 22:6 n-3 (DHA)","nutrientNumber":"621","unitName":"G","value":0,"rank":15300,"indentLevel":2,"foodNutrientId":34267775},{"nutrientId":1275,"nutrientName":"MUFA 16:1","nutrientNumber":"626","unitName":"G","value":0.141,"rank":11700,"indentLevel":2,"foodNutrientId":34267776},{"nutrientId":1276,"nutrientName":"PUFA 18:4","nutrientNumber":"627","unitName":"G","value":0,"rank":14250,"indentLevel":2,"foodNutrientId":34267777},{"nutrientId":1277,"nutrientName":"MUFA 20:1","nutrientNumber":"628","unitName":"G","value":0.262,"rank":12400,"indentLevel":2,"foodNutrientId":34267778},{"nutrientId":1278,"nutrientName":"PUFA 20:5 n-3 (EPA)","nutrientNumber":"629","unitName":"G","value":0,"rank":15000,"indentLevel":2,"foodNutrientId":34267779},{"nutrientId":1279,"nutrientName":"MUFA 22:1","nutrientNumber":"630","unitName":"G","value":0,"rank":12500,"indentLevel":2,"foodNutrientId":34267780},{"nutrientId":1280,"nutrientName":"PUFA 22:5 n-3 (DPA)","nutrientNumber":"631","unitName":"G","value":0,"rank":15200,"indentLevel":2,"foodNutrientId":34267781},{"nutrientId":1292,"nutrientName":"Fatty acids, total monounsaturated","nutrientNumber":"645","unitName":"G","value":17.014,"rank":11400,"indentLevel":1,"foodNutrientId":34267782},{"nutrientId":1293,"nutrientName":"Fatty acids, total polyunsaturated","nutrientNumber":"646","unitName":"G","value":15.928,"rank":12900,"indentLevel":1,"foodNutrientId":34267783}],"finalFoodInputFoods":[{"foodDescription":"Salt, table","gramWeight":6,"id":132060,"portionCode":"10205","portionDescription":"1 cup","unit":"TS","rank":5,"retentionCode":0,"srCode":2047,"value":1.0},{"foodDescription":"Leavening agents, baking powder, double-acting, sodium aluminum sulfate","gramWeight":4.6,"id":132064,"portionCode":"22000","portionDescription":"1 teaspoon","unit":"TS","rank":9,"retentionCode":0,"srCode":18369,"value":1.0},{"foodDescription":"Chickpeas (garbanzo beans, bengal gram), mature seeds, raw","gramWeight":200,"id":132056,"portionCode":"10205","portionDescription":"1 cup","unit":"C","rank":1,"retentionCode":542,"srCode":16056,"value":1.0},{"foodDescription":"Spices, cumin seed","gramWeight":2,"id":132063,"portionCode":"21000","portionDescription":"1 tablespoon","unit":"TS","rank":8,"retentionCode":0,"srCode":2014,"value":1.0},{"foodDescription":"Vegetable oil, NFS","gramWeight":224,"id":132066,"portionCode":"10205","portionDescription":"1 cup","unit":"C","rank":11,"retentionCode":0,"srCode":82101000,"value":1.0},{"foodDescription":"Flour, wheat, all-purpose, enriched, bleached","gramWeight":31.25,"id":132065,"portionCode":"10205","portionDescription":"1 cup","unit":"TB","rank":10,"retentionCode":305,"srCode":20081,"value":4.0},{"foodDescription":"Onions, cooked, boiled, drained, without salt","gramWeight":85,"id":132057,"portionCode":"60919","portionDescription":"1 large","unit":"","rank":2,"retentionCode":0,"srCode":11283,"value":0.5},{"foodDescription":"Garlic, raw","gramWeight":12,"id":132062,"portionCode":"60581","portionDescription":"1 clove","unit":"","rank":7,"retentionCode":3460,"srCode":11215,"value":4.0},{"foodDescription":"Parsley, fresh","gramWeight":7.5,"id":132058,"portionCode":"10205","portionDescription":"1 cup","unit":"TB","rank":3,"retentionCode":0,"srCode":11297,"value":2.0},{"foodDescription":"Spices, coriander leaf, dried","gramWeight":3.6,"id":132059,"portionCode":"21000","portionDescription":"1 tablespoon","unit":"TB","rank":4,"retentionCode":0,"srCode":2012,"value":2.0},{"foodDescription":"Spices, pepper, red or cayenne","gramWeight":0.883,"id":132061,"portionCode":"21000","portionDescription":"1 tablespoon","unit":"TS","rank":6,"retentionCode":0,"srCode":2031,"value":0.5}],"foodMeasures":[{"disseminationText":"Quantity not specified","gramWeight":28,"id":298038,"modifier":"90000","rank":2,"measureUnitAbbreviation":"undetermined","measureUnitName":"undetermined","measureUnitId":9999},{"disseminationText":"1 patty","gramWeight":17,"id":298037,"modifier":"61633","rank":1,"measureUnitAbbreviation":"undetermined","measureUnitName":"undetermined","measureUnitId":9999}],"foodAttributes":[{"value":"Moisture change: 0%","id":3320848},{"value":"3102","name":"WWEIA Category number","id":3302363},{"value":"Bean, pea, legume dishes","name":"WWEIA Category description","id":3302364}],"foodAttributeTypes":[{"name":"Adjustments","description":"Adjustments made to foods, including moisture changes","id":1002,"foodAttributes":[{"value":"Moisture change: 0%","id":3320848}]},{"name":"Attribute","description":"Generic attributes","id":999,"foodAttributes":[{"value":"3102","name":"WWEIA Category number","id":3302363},{"value":"Bean, pea, legume dishes","name":"WWEIA Category description","id":3302364}]}],"foodVersionIds":[]}],"aggregations":{"dataType":{"Branded":124,"Survey (FNDDS)":2,"SR Legacy":1},"nutrients":{}}}
