{"totalHits":8204,"currentPage":1,"totalPages":8204,"pageList":[1,2,3,4,5,6,7,8,9,10],"foodSearchCriteria":{"query":"Salsa","generalSearchInput":"Salsa","pageNumber":1,"numberOfResultsPerPage":50,"pageSize":1,"requireAllWords":false},"foods":[{"fdcId":2026298,"description":"SALSA","dataType":"Branded","gtinUpc":"187283000009","publishedDate":"2021-10-28","brandOwner":"D.A.M. Salsa","brandName":"D.A.M. SALSA","ingredients":"TOMATOES, ONIONS, JALAPENO PEPPERS, SERRANO PEPPER, CILANTRO, LIME JUICE, GARLIC, SPICES, SALT.","marketCountry":"United States","foodCategory":"Dips & Salsa","modifiedDate":"2017-06-24","dataSource":"LI","packageWeight":"454 g/16 oz","servingSizeUnit":"g","servingSize":30.0,"householdServingFullText":"2 Tbsp","tradeChannels":["NO_TRADE_CHANNEL"],"allHighlightFields":"<b>Brand Owner</b>: D.A.M. <em>Salsa</em>","score":888.3762,"microbes":[],"foodNutrients":[{"nutrientId":1003,"nutrientName":"Protein","nutrientNumber":"203","unitName":"G","derivationCode":"LCCS","derivationDescription":"Calculated from value per serving size measure","derivationId":70,"value":0.0,"foodNutrientSourceId":9,"foodNutrientSourceCode":"12","foodNutrientSourceDescription":"Manufacturer's analytical; partial documentation","rank":600,"indentLevel":1,"foodNutrientId":25753248},{"nutrientId":1004,"nutrientName":"Total lipid (fat)","nutrientNumber":"204","unitName":"G","derivationCode":"LCCD","derivationDescription":"Calculated from a daily value percentage per serving size measure","derivationId":75,"value":0.0,"foodNutrientSourceId":9,"foodNutrientSourceCode":"12","foodNutrientSourceDescription":"Manufacturer's analytical; partial documentation","rank":800,"indentLevel":1,"foodNutrientId":25753249,"percentDailyValue":0},{"nutrientId":1005,"nutrientName":"Carbohydrate, by difference","nutrientNumber":"205","unitName":"G","derivationCode":"LCCS","derivationDescription":"Calculated from value per serving size measure","derivationId":70,"value":6.67,"foodNutrientSourceId":9,"foodNutrientSourceCode":"12","foodNutrientSourceDescription":"Manufacturer's analytical; partial documentation","rank":1110,"indentLevel":2,"foodNutrientId":25753250,"percentDailyValue":1},{"nutrientId":1008,"nutrientName":"Energy","nutrientNumber":"208","unitName":"KCAL","derivationCode":"LCCS","derivationDescription":"Calculated from value per serving size measure","derivationId":70,"value":33.0,"foodNutrientSourceId":9,"foodNutrientSourceCode":"12","foodNutrientSourceDescription":"Manufacturer's analytical; partial documentation","rank":300,"indentLevel":1,"foodNutrientId":25753251},{"nutrientId":2000,"nutrientName":"Total Sugars","nutrientNumber":"269","unitName":"G","derivationCode":"LCSL","derivationDescription":"Calculated from a less than value per serving size measure","derivationId":73,"value":3.33,"foodNutrientSourceId":9,"foodNutrientSourceCode":"12","foodNutrientSourceDescription":"Manufacturer's analytical; partial documentation","rank":1510,"indentLevel":3,"foodNutrientId":25753252},{"nutrientId":1079,"nutrientName":"Fiber, total dietary","nutrientNumber":"291","unitName":"G","derivationCode":"LCCD","derivationDescription":"Calculated from a daily value percentage per serving size measure","derivationId":75,"value":0.0,"foodNutrientSourceId":9,"foodNutrientSourceCode":"12","foodNutrientSourceDescription":"Manufacturer's analytical; partial documentation","rank":1200,"indentLevel":3,"foodNutrientId":25753253,"percentDailyValue":0},{"nutrientId":1087,"nutrientName":"Calcium, Ca","nutrientNumber":"301","unitName":"MG","derivationCode":"LCCD","derivationDescription":"Calculated from a daily value percentage per serving size measure","derivationId":75,"value":0.0,"foodNutrientSourceId":9,"foodNutrientSourceCode":"12","foodNutrientSourceDescription":"Manufacturer's analytical; partial documentation","rank":5300,"indentLevel":1,"foodNutrientId":25753254,"percentDailyValue":0},{"nutrientId":1089,"nutrientName":"Iron, Fe","nutrientNumber":"303","unitName":"MG","derivationCode":"LCCD","derivationDescription":"Calculated from a daily value percentage per serving size measure","derivationId":75,"value":0.0,"foodNutrientSourceId":9,"foodNutrientSourceCode":"12","foodNutrientSourceDescription":"Manufacturer's analytical; partial documentation","rank":5400,"indentLevel":1,"foodNutrientId":25753255,"percentDailyValue":0},{"nutrientId":1093,"nutrientName":"Sodium, Na","nutrientNumber":"307","unitName":"MG","derivationCode":"LCCS","derivationDescription":"Calculated from value per serving size measure","derivationId":70,"value":150,"foodNutrientSourceId":9,"foodNutrientSourceCode":"12","foodNutrientSourceDescription":"Manufacturer's analytical; partial documentation","rank":5800,"indentLevel":1,"foodNutrientId":25753256,"percentDailyValue":2},{"nutrientId":1104,"nutrientName":"Vitamin A, IU","nutrientNumber":"318","unitName":"IU","derivationCode":"LCCD","derivationDescription":"Calculated from a daily value percentage per serving size measure","derivationId":75,"value":667,"foodNutrientSourceId":9,"foodNutrientSourceCode":"12","foodNutrientSourceDescription":"Manufacturer's analytical; partial documentation","rank":7500,"indentLevel":1,"foodNutrientId":25753257,"percentDailyValue":4},{"nutrientId":1162,"nutrientName":"Vitamin C, total ascorbic acid","nutrientNumber":"401","unitName":"MG","derivationCode":"LCCD","derivationDescription":"Calculated from a daily value percentage per serving size measure","derivationId":75,"value":20.0,"foodNutrientSourceId":9,"foodNutrientSourceCode":"12","foodNutrientSourceDescription":"Manufacturer's analytical; partial documentation","rank":6300,"indentLevel":1,"foodNutrientId":25753258,"percentDailyValue":10},{"nutrientId":1253,"nutrientName":"Cholesterol","nutrientNumber":"601","unitName":"MG","derivationCode":"LCCD","derivationDescription":"Calculated from a daily value percentage per serving size measure","derivationId":75,"value":0.0,"foodNutrientSourceId":9,"foodNutrientSourceCode":"12","foodNutrientSourceDescription":"Manufacturer's analytical; partial documentation","rank":15700,"indentLevel":1,"foodNutrientId":25753259,"percentDailyValue":0},{"nutrientId":1257,"nutrientName":"Fatty acids, total trans","nutrientNumber":"605","unitName":"G","derivationCode":"LCCS","derivationDescription":"Calculated from value per serving size measure","derivationId":70,"value":0.0,"foodNutrientSourceId":9,"foodNutrientSourceCode":"12","foodNutrientSourceDescription":"Manufacturer's analytical; partial documentation","rank":15400,"indentLevel":1,"foodNutrientId":25753260},{"nutrientId":1258,"nutrientName":"Fatty acids, total saturated","nutrientNumber":"606","unitName":"G","derivationCode":"LCCD","derivationDescription":"Calculated from a daily value percentage per serving size measure","derivationId":75,"value":0.0,"foodNutrientSourceId":9,"foodNutrientSourceCode":"12","foodNutrientSourceDescription":"Manufacturer's analytical; partial documentation","rank":9700,"indentLevel":1,"foodNutrientId":25753261,"percentDailyValue":0}],"finalFoodInputFoods":[],"foodMeasures":[],"foodAttributes":[],"foodAttributeTypes":[],"foodVersionIds":[]}],"aggregations":{"dataType":{"Branded":8187,"Survey (FNDDS)":12,"SR Legacy":4,"Foundation":1},"nutrients":{}}}
