{"totalHits":30942,"currentPage":1,"totalPages":30942,"pageList":[1,2,3,4,5,6,7,8,9,10],"foodSearchCriteria":{"query":"Green Curry (Thai)","generalSearchInput":"Green Curry (Thai)","pageNumber":1,"numberOfResultsPerPage":50,"pageSize":1,"requireAllWords":false},"foods":[{"fdcId":171183,"description":"SMART SOUP, Thai Coconut Curry","commonNames":"","additionalDescriptions":"","dataType":"SR Legacy","ndbNumber":6624,"publishedDate":"2019-04-01","foodCategory":"Soups, Sauces, and Gravies","allHighlightFields":"","score":665.6051,"microbes":[],"foodNutrients":[{"nutrientId":1004,"nutrientName":"Total lipid (fat)","nutrientNumber":"204","unitName":"G","derivationCode":"MC","derivationDescription":"Manufacturer supplied; Calculated by manufacturer or unknown if analytical or calculated","derivationId":47,"value":1.06,"foodNutrientSourceId":7,"foodNutrientSourceCode":"9","foodNutrientSourceDescription":"Calculated by manufacturer, not adjusted or rounded for NLEA","rank":800,"indentLevel":1,"foodNutrientId":1587620,"dataPoints":1},{"nutrientId":1005,"nutrientName":"Carbohydrate, by difference","nutrientNumber":"205","unitName":"G","derivationCode":"MC","derivationDescription":"Manufacturer supplied; Calculated by manufacturer or unknown if analytical or calculated","derivationId":47,"value":6.5,"foodNutrientSourceId":7,"foodNutrientSourceCode":"9","foodNutrientSourceDescription":"Calculated by manufacturer, not adjusted or rounded for NLEA","rank":1110,"indentLevel":2,"foodNutrientId":1587621,"dataPoints":1},{"nutrientId":1008,"nutrientName":"Energy","nutrientNumber":"208","unitName":"KCAL","derivationCode":"MC","derivationDescription":"Manufacturer supplied; Calculated by manufacturer or unknown if analytical or calculated","derivationId":47,"value":36.0,"foodNutrientSourceId":7,"foodNutrientSourceCode":"9","foodNutrientSourceDescription":"Calculated by manufacturer, not adjusted or rounded for NLEA","rank":300,"indentLevel":1,"foodNutrientId":1587622,"dataPoints":1},{"nutrientId":1051,"nutrientName":"Water","nutrientNumber":"255","unitName":"G","derivationCode":"MC","derivationDescription":"Manufacturer supplied; Calculated by manufacturer or unknown if analytical or calculated","derivationId":47,"value":91.0,"foodNutrientSourceId":7,"foodNutrientSourceCode":"9","foodNutrientSourceDescription":"Calculated by manufacturer, not adjusted or rounded for NLEA","rank":100,"indentLevel":1,"foodNutrientId":1587623,"dataPoints":1},{"nutrientId":2000,"nutrientName":"Total Sugars","nutrientNumber":"269","unitName":"G","derivationCode":"MC","derivationDescription":"Manufacturer supplied; Calculated by manufacturer or unknown if analytical or calculated","derivationId":47,"value":3.7,"foodNutrientSourceId":7,"foodNutrientSourceCode":"9","foodNutrientSourceDescription":"Calculated by manufacturer, not adjusted or rounded for NLEA","rank":1510,"indentLevel":3,"foodNutrientId":1587624,"dataPoints":1},{"nutrientId":1087,"nutrientName":"Calcium, Ca","nutrientNumber":"301","unitName":"MG","derivationCode":"MC","derivationDescription":"Manufacturer supplied; Calculated by manufacturer or unknown if analytical or calculated","derivationId":47,"value":19.0,"foodNutrientSourceId":7,"foodNutrientSourceCode":"9","foodNutrientSourceDescription":"Calculated by manufacturer, not adjusted or rounded for NLEA","rank":5300,"indentLevel":1,"foodNutrientId":1587625,"dataPoints":1},{"nutrientId":1003,"nutrientName":"Protein","nutrientNumber":"203","unitName":"G","derivationCode":"MC","derivationDescription":"Manufacturer supplied; Calculated by manufacturer or unknown if analytical or calculated","derivationId":47,"value":0.8,"foodNutrientSourceId":7,"foodNutrientSourceCode":"9","foodNutrientSourceDescription":"Calculated by manufacturer, not adjusted or rounded for NLEA","rank":600,"indentLevel":1,"foodNutrientId":1587626,"dataPoints":1},{"nutrientId":1007,"nutrientName":"Ash","nutrientNumber":"207","unitName":"G","derivationCode":"MC","derivationDescription":"Manufacturer supplied; Calculated by manufacturer or unknown if analytical or calculated","derivationId":47,"value":0.7,"foodNutrientSourceId":7,"foodNutrientSourceCode":"9","foodNutrientSourceDescription":"Calculated by manufacturer, not adjusted or rounded for NLEA","rank":1000,"indentLevel":1,"foodNutrientId":1587627,"dataPoints":1},{"nutrientId":1062,"nutrientName":"Energy","nutrientNumber":"268","unitName":"kJ","derivationCode":"MC","derivationDescription":"Manufacturer supplied; Calculated by manufacturer or unknown if analytical or calculated","derivationId":47,"value":151,"foodNutrientSourceId":7,"foodNutrientSourceCode":"9","foodNutrientSourceDescription":"Calculated by manufacturer, not adjusted or rounded for NLEA","rank":400,"indentLevel":1,"foodNutrientId":1587628,"dataPoints":0},{"nutrientId":1079,"nutrientName":"Fiber, total dietary","nutrientNumber":"291","unitName":"G","derivationCode":"MC","derivationDescription":"Manufacturer supplied; Calculated by manufacturer or unknown if analytical or calculated","derivationId":47,"value":1.0,"foodNutrientSourceId":7,"foodNutrientSourceCode":"9","foodNutrientSourceDescription":"Calculated by manufacturer, not adjusted or rounded for NLEA","rank":1200,"indentLevel":3,"foodNutrientId":1587629,"dataPoints":1},{"nutrientId":1089,"nutrientName":"Iron, Fe","nutrientNumber":"303","unitName":"MG","derivationCode":"MC","derivationDescription":"Manufacturer supplied; Calculated by manufacturer or unknown if analytical or calculated","derivationId":47,"value":0.0,"foodNutrientSourceId":7,"foodNutrientSourceCode":"9","foodNutrientSourceDescription":"Calculated by manufacturer, not adjusted or rounded for NLEA","rank":5400,"indentLevel":1,"foodNutrientId":1587630,"dataPoints":1},{"nutrientId":1093,"nutrientName":"Sodium, Na","nutrientNumber":"307","unitName":"MG","derivationCode":"MC","derivationDescription":"Manufacturer supplied; Calculated by manufacturer or unknown if analytical or calculated","derivationId":47,"value":141,"foodNutrientSourceId":7,"foodNutrientSourceCode":"9","foodNutrientSourceDescription":"Calculated by manufacturer, not adjusted or rounded for NLEA","rank":5800,"indentLevel":1,"foodNutrientId":1587631,"dataPoints":1},{"nutrientId":1105,"nutrientName":"Retinol","nutrientNumber":"319","unitName":"UG","derivationCode":"MC","derivationDescription":"Manufacturer supplied; Calculated by manufacturer or unknown if analytical or calculated","derivationId":47,"value":0.0,"foodNutrientSourceId":7,"foodNutrientSourceCode":"9","foodNutrientSourceDescription":"Calculated by manufacturer, not adjusted or rounded for NLEA","rank":7430,"indentLevel":2,"foodNutrientId":1587632,"dataPoints":1},{"nutrientId":1107,"nutrientName":"Carotene, beta","nutrientNumber":"321","unitName":"UG","derivationCode":"MC","derivationDescription":"Manufacturer supplied; Calculated by manufacturer or unknown if analytical or calculated","derivationId":47,"value":179,"foodNutrientSourceId":7,"foodNutrientSourceCode":"9","foodNutrientSourceDescription":"Calculated by manufacturer, not adjusted or rounded for NLEA","rank":7440,"indentLevel":2,"foodNutrientId":1587633,"dataPoints":1},{"nutrientId":1162,"nutrientName":"Vitamin C, total ascorbic acid","nutrientNumber":"401","unitName":"MG","derivationCode":"MC","derivationDescription":"Manufacturer supplied; Calculated by manufacturer or unknown if analytical or calculated","derivationId":47,"value":0.0,"foodNutrientSourceId":7,"foodNutrientSourceCode":"9","foodNutrientSourceDescription":"Calculated by manufacturer, not adjusted or rounded for NLEA","rank":6300,"indentLevel":1,"foodNutrientId":1587634,"dataPoints":1},{"nutrientId":1253,"nutrientName":"Cholesterol","nutrientNumber":"601","unitName":"MG","derivationCode":"MC","derivationDescription":"Manufacturer supplied; Calculated by manufacturer or unknown if analytical or calculated","derivationId":47,"value":0.0,"foodNutrientSourceId":7,"foodNutrientSourceCode":"9","foodNutrientSourceDescription":"Calculated by manufacturer, not adjusted or rounded for NLEA","rank":15700,"indentLevel":1,"foodNutrientId":1587635,"dataPoints":1},{"nutrientId":1257,"nutrientName":"Fatty acids, total trans","nutrientNumber":"605","unitName":"G","derivationCode":"MC","derivationDescription":"Manufacturer supplied; Calculated by manufacturer or unknown if analytical or calculated","derivationId":47,"value":0.0,"foodNutrientSourceId":7,"foodNutrientSourceCode":"9","foodNutrientSourceDescription":"Calculated by manufacturer, not adjusted or rounded for NLEA","rank":15400,"indentLevel":1,"foodNutrientId":1587636,"dataPoints":1},{"nutrientId":1258,"nutrientName":"Fatty acids, total saturated","nutrientNumber":"606","unitName":"G","derivationCode":"MC","derivationDescription":"Manufacturer supplied; Calculated by manufacturer or unknown if analytical or calculated","derivationId":47,"value":0.35,"foodNutrientSourceId":7,"foodNutrientSourceCode":"9","foodNutrientSourceDescription":"Calculated by manufacturer, not adjusted or rounded for NLEA","rank":9700,"indentLevel":1,"foodNutrientId":1587637,"dataPoints":1}],"finalFoodInputFoods":[],"foodMeasures":[],"foodAttributes":[],"foodAttributeTypes":[],"foodVersionIds":[]}],"aggregations":{"dataType":{"Branded":30380,"Survey (FNDDS)":437,"SR Legacy":107,"Foundation":16,"Experimental":2},"nutrients":{}}}
