{"totalHits":22069,"currentPage":1,"totalPages":22069,"pageList":[1,2,3,4,5,6,7,8,9,10],"foodSearchCriteria":{"query":"Chicken Curry","generalSearchInput":"Chicken Curry","pageNumber":1,"numberOfResultsPerPage":50,"pageSize":1,"requireAllWords":false},"foods":[{"fdcId":2706437,"description":"Chicken curry","commonNames":"","additionalDescriptions":"other poultry","dataType":"Survey (FNDDS)","foodCode":27146150,"publishedDate":"2024-10-31","foodCategory":"Poultry mixed dishes","foodCategoryId":3300422,"allHighlightFields":"","score":1848.9963,"microbes":[],"foodNutrients":[{"nutrientId":1003,"nutrientName":"Protein","nutrientNumber":"203","unitName":"G","value":6.48,"rank":600,"indentLevel":1,"foodNutrientId":34204604},{"nutrientId":1004,"nutrientName":"Total lipid (fat)","nutrientNumber":"204","unitName":"G","value":6.48,"rank":800,"indentLevel":1,"foodNutrientId":34204605},{"nutrientId":1005,"nutrientName":"Carbohydrate, by difference","nutrientNumber":"205","unitName":"G","value":6.54,"rank":1110,"indentLevel":2,"foodNutrientId":34204606},{"nutrientId":1008,"nutrientName":"Energy","nutrientNumber":"208","unitName":"KCAL","value":107,"rank":300,"indentLevel":1,"foodNutrientId":34204607},{"nutrientId":1018,"nutrientName":"Alcohol, ethyl","nutrientNumber":"221","unitName":"G","value":0,"rank":18200,"indentLevel":1,"foodNutrientId":34204608},{"nutrientId":1051,"nutrientName":"Water","nutrientNumber":"255","unitName":"G","value":79,"rank":100,"indentLevel":1,"foodNutrientId":34204609},{"nutrientId":1057,"nutrientName":"Caffeine","nutrientNumber":"262","unitName":"MG","value":0,"rank":18300,"indentLevel":0,"foodNutrientId":34204610},{"nutrientId":1058,"nutrientName":"Theobromine","nutrientNumber":"263","unitName":"MG","value":0,"rank":18400,"indentLevel":0,"foodNutrientId":34204611},{"nutrientId":2000,"nutrientName":"Total Sugars","nutrientNumber":"269","unitName":"G","value":2.56,"rank":1510,"indentLevel":3,"foodNutrientId":34204612},{"nutrientId":1079,"nutrientName":"Fiber, total dietary","nutrientNumber":"291","unitName":"G","value":1.4,"rank":1200,"indentLevel":3,"foodNutrientId":34204613},{"nutrientId":1087,"nutrientName":"Calcium, Ca","nutrientNumber":"301","unitName":"MG","value":20,"rank":5300,"indentLevel":1,"foodNutrientId":34204614},{"nutrientId":1089,"nutrientName":"Iron, Fe","nutrientNumber":"303","unitName":"MG","value":0.71,"rank":5400,"indentLevel":1,"foodNutrientId":34204615},{"nutrientId":1090,"nutrientName":"Magnesium, Mg","nutrientNumber":"304","unitName":"MG","value":18,"rank":5500,"indentLevel":1,"foodNutrientId":34204616},{"nutrientId":1091,"nutrientName":"Phosphorus, P","nutrientNumber":"305","unitName":"MG","value":78,"rank":5600,"indentLevel":1,"foodNutrientId":34204617},{"nutrientId":1092,"nutrientName":"Potassium, K","nutrientNumber":"306","unitName":"MG","value":280,"rank":5700,"indentLevel":1,"foodNutrientId":34204618},{"nutrientId":1093,"nutrientName":"Sodium, Na","nutrientNumber":"307","unitName":"MG","value":376,"rank":5800,"indentLevel":1,"foodNutrientId":34204619},{"nutrientId":1095,"nutrientName":"Zinc, Zn","nutrientNumber":"309","unitName":"MG","value":0.52,"rank":5900,"indentLevel":1,"foodNutrientId":34204620},{"nutrientId":1098,"nutrientName":"Copper, Cu","nutrientNumber":"312","unitName":"MG","value":0.086,"rank":6000,"indentLevel":1,"foodNutrientId":34204621},{"nutrientId":1103,"nutrientName":"Selenium, Se","nutrientNumber":"317","unitName":"UG","value":5.2,"rank":6200,"indentLevel":1,"foodNutrientId":34204622},{"nutrientId":1105,"nutrientName":"Retinol","nutrientNumber":"319","unitName":"UG","value":3,"rank":7430,"indentLevel":2,"foodNutrientId":34204623},{"nutrientId":1106,"nutrientName":"Vitamin A, RAE","nutrientNumber":"320","unitName":"UG","value":48,"rank":7420,"indentLevel":1,"foodNutrientId":34204624},{"nutrientId":1107,"nutrientName":"Carotene, beta","nutrientNumber":"321","unitName":"UG","value":469,"rank":7440,"indentLevel":2,"foodNutrientId":34204625},{"nutrientId":1108,"nutrientName":"Carotene, alpha","nutrientNumber":"322","unitName":"UG","value":144,"rank":7450,"indentLevel":2,"foodNutrientId":34204626},{"nutrientId":1109,"nutrientName":"Vitamin E (alpha-tocopherol)","nutrientNumber":"323","unitName":"MG","value":1.44,"rank":7905,"indentLevel":1,"foodNutrientId":34204627},{"nutrientId":1114,"nutrientName":"Vitamin D (D2 + D3)","nutrientNumber":"328","unitName":"UG","value":0,"rank":8700,"indentLevel":1,"foodNutrientId":34204628},{"nutrientId":1120,"nutrientName":"Cryptoxanthin, beta","nutrientNumber":"334","unitName":"UG","value":1,"rank":7460,"indentLevel":2,"foodNutrientId":34204629},{"nutrientId":1122,"nutrientName":"Lycopene","nutrientNumber":"337","unitName":"UG","value":4521,"rank":7530,"indentLevel":1,"foodNutrientId":34204630},{"nutrientId":1123,"nutrientName":"Lutein + zeaxanthin","nutrientNumber":"338","unitName":"UG","value":95,"rank":7560,"indentLevel":1,"foodNutrientId":34204631},{"nutrientId":1162,"nutrientName":"Vitamin C, total ascorbic acid","nutrientNumber":"401","unitName":"MG","value":8.9,"rank":6300,"indentLevel":1,"foodNutrientId":34204632},{"nutrientId":1165,"nutrientName":"Thiamin","nutrientNumber":"404","unitName":"MG","value":0.048,"rank":6400,"indentLevel":1,"foodNutrientId":34204633},{"nutrientId":1166,"nutrientName":"Riboflavin","nutrientNumber":"405","unitName":"MG","value":0.083,"rank":6500,"indentLevel":1,"foodNutrientId":34204634},{"nutrientId":1167,"nutrientName":"Niacin","nutrientNumber":"406","unitName":"MG","value":2.139,"rank":6600,"indentLevel":1,"foodNutrientId":34204635},{"nutrientId":1175,"nutrientName":"Vitamin B-6","nutrientNumber":"415","unitName":"MG","value":0.151,"rank":6800,"indentLevel":1,"foodNutrientId":34204636},{"nutrientId":1177,"nutrientName":"Folate, total","nutrientNumber":"417","unitName":"UG","value":16,"rank":6900,"indentLevel":1,"foodNutrientId":34204637},{"nutrientId":1178,"nutrientName":"Vitamin B-12","nutrientNumber":"418","unitName":"UG","value":0.08,"rank":7300,"indentLevel":1,"foodNutrientId":34204638},{"nutrientId":1180,"nutrientName":"Choline, total","nutrientNumber":"421","unitName":"MG","value":22.4,"rank":7220,"indentLevel":1,"foodNutrientId":34204639},{"nutrientId":1185,"nutrientName":"Vitamin K (phylloquinone)","nutrientNumber":"430","unitName":"UG","value":8.7,"rank":8800,"indentLevel":1,"foodNutrientId":34204640},{"nutrientId":1186,"nutrientName":"Folic acid","nutrientNumber":"431","unitName":"UG","value":0,"rank":7000,"indentLevel":0,"foodNutrientId":34204641},{"nutrientId":1187,"nutrientName":"Folate, food","nutrientNumber":"432","unitName":"UG","value":16,"rank":7100,"indentLevel":1,"foodNutrientId":34204642},{"nutrientId":1190,"nutrientName":"Folate, DFE","nutrientNumber":"435","unitName":"UG","value":16,"rank":7200,"indentLevel":1,"foodNutrientId":34204643},{"nutrientId":1242,"nutrientName":"Vitamin E, added","nutrientNumber":"573","unitName":"MG","value":0,"rank":7920,"indentLevel":0,"foodNutrientId":34204644},{"nutrientId":1246,"nutrientName":"Vitamin B-12, added","nutrientNumber":"578","unitName":"UG","value":0,"rank":7340,"indentLevel":0,"foodNutrientId":34204645},{"nutrientId":1253,"nutrientName":"Cholesterol","nutrientNumber":"601","unitName":"MG","value":22,"rank":15700,"indentLevel":1,"foodNutrientId":34204646},{"nutrientId":1258,"nutrientName":"Fatty acids, total saturated","nutrientNumber":"606","unitName":"G","value":1.557,"rank":9700,"indentLevel":1,"foodNutrientId":34204647},{"nutrientId":1259,"nutrientName":"SFA 4:0","nutrientNumber":"607","unitName":"G","value":0.003,"rank":9800,"indentLevel":2,"foodNutrientId":34204648},{"nutrientId":1260,"nutrientName":"SFA 6:0","nutrientNumber":"608","unitName":"G","value":0.005,"rank":9900,"indentLevel":2,"foodNutrientId":34204649},{"nutrientId":1261,"nutrientName":"SFA 8:0","nutrientNumber":"609","unitName":"G","value":0.047,"rank":10000,"indentLevel":2,"foodNutrientId":34204650},{"nutrientId":1262,"nutrientName":"SFA 10:0","nutrientNumber":"610","unitName":"G","value":0.039,"rank":10100,"indentLevel":2,"foodNutrientId":34204651},{"nutrientId":1263,"nutrientName":"SFA 12:0","nutrientNumber":"611","unitName":"G","value":0.293,"rank":10300,"indentLevel":2,"foodNutrientId":34204652},{"nutrientId":1264,"nutrientName":"SFA 14:0","nutrientNumber":"612","unitName":"G","value":0.134,"rank":10500,"indentLevel":2,"foodNutrientId":34204653},{"nutrientId":1265,"nutrientName":"SFA 16:0","nutrientNumber":"613","unitName":"G","value":0.768,"rank":10700,"indentLevel":2,"foodNutrientId":34204654},{"nutrientId":1266,"nutrientName":"SFA 18:0","nutrientNumber":"614","unitName":"G","value":0.227,"rank":10900,"indentLevel":2,"foodNutrientId":34204655},{"nutrientId":1268,"nutrientName":"MUFA 18:1","nutrientNumber":"617","unitName":"G","value":2.278,"rank":12100,"indentLevel":2,"foodNutrientId":34204656},{"nutrientId":1269,"nutrientName":"PUFA 18:2","nutrientNumber":"618","unitName":"G","value":1.694,"rank":13100,"indentLevel":2,"foodNutrientId":34204657},{"nutrientId":1270,"nutrientName":"PUFA 18:3","nutrientNumber":"619","unitName":"G","value":0.205,"rank":13900,"indentLevel":2,"foodNutrientId":34204658},{"nutrientId":1271,"nutrientName":"PUFA 20:4","nutrientNumber":"620","unitName":"G","value":0.004,"rank":14700,"indentLevel":2,"foodNutrientId":34204659},{"nutrientId":1272,"nutrientName":"PUFA 22:6 n-3 (DHA)","nutrientNumber":"621","unitName":"G","value":0,"rank":15300,"indentLevel":2,"foodNutrientId":34204660},{"nutrientId":1275,"nutrientName":"MUFA 16:1","nutrientNumber":"626","unitName":"G","value":0.107,"rank":11700,"indentLevel":2,"foodNutrientId":34204661},{"nutrientId":1276,"nutrientName":"PUFA 18:4","nutrientNumber":"627","unitName":"G","value":0,"rank":14250,"indentLevel":2,"foodNutrientId":34204662},{"nutrientId":1277,"nutrientName":"MUFA 20:1","nutrientNumber":"628","unitName":"G","value":0.032,"rank":12400,"indentLevel":2,"foodNutrientId":34204663},{"nutrientId":1278,"nutrientName":"PUFA 20:5 n-3 (EPA)","nutrientNumber":"629","unitName":"G","value":0,"rank":15000,"indentLevel":2,"foodNutrientId":34204664},{"nutrientId":1279,"nutrientName":"MUFA 22:1","nutrientNumber":"630","unitName":"G","value":0,"rank":12500,"indentLevel":2,"foodNutrientId":34204665},{"nutrientId":1280,"nutrientName":"PUFA 22:5 n-3 (DPA)","nutrientNumber":"631","unitName":"G","value":0,"rank":15200,"indentLevel":2,"foodNutrientId":34204666},{"nutrientId":1292,"nutrientName":"Fatty acids, total monounsaturated","nutrientNumber":"645","unitName":"G","value":2.422,"rank":11400,"indentLevel":1,"foodNutrientId":34204667},{"nutrientId":1293,"nutrientName":"Fatty acids, total polyunsaturated","nutrientNumber":"646","unitName":"G","value":1.906,"rank":12900,"indentLevel":1,"foodNutrientId":34204668}],"finalFoodInputFoods":[{"foodDescription":"Chicken, NS as to part and cooking method, NS as to skin eaten","gramWeight":20,"id":126971,"portionCode":"0","portionDescription":"NONE","unit":"GM","rank":3,"retentionCode":0,"srCode":24100000,"value":20.0},{"foodDescription":"Vegetables as ingredient in curry","gramWeight":40,"id":126970,"portionCode":"0","portionDescription":"NONE","unit":"GM","rank":2,"retentionCode":0,"srCode":99997810,"value":40.0},{"foodDescription":"Vegetable oil, NFS","gramWeight":2,"id":126972,"portionCode":"0","portionDescription":"NONE","unit":"GM","rank":4,"retentionCode":0,"srCode":82101000,"value":2.0},{"foodDescription":"Curry sauce","gramWeight":40,"id":126969,"portionCode":"0","portionDescription":"NONE","unit":"GM","rank":1,"retentionCode":0,"srCode":81312100,"value":40.0},{"foodDescription":"Salt, table","gramWeight":0.4,"id":126973,"portionCode":"0","portionDescription":"NONE","unit":"GM","rank":5,"retentionCode":0,"srCode":2047,"value":0.4}],"foodMeasures":[{"disseminationText":"Quantity not specified","gramWeight":240,"id":295308,"modifier":"90000","rank":2,"measureUnitAbbreviation":"undetermined","measureUnitName":"undetermined","measureUnitId":9999},{"disseminationText":"1 cup","gramWeight":240,"id":295307,"modifier":"10205","rank":1,"measureUnitAbbreviation":"undetermined","measureUnitName":"undetermined","measureUnitId":9999}],"foodAttributes":[{"value":"other poultry","id":3310975,"sequenceNumber":1},{"value":"Poultry mixed dishes","name":"WWEIA Category description","id":3300422},{"value":"3004","name":"WWEIA Category number","id":3300421},{"value":"Moisture change: 0%","id":3319877}],"foodAttributeTypes":[{"name":"Additional Description","description":"Additional descriptions for the food.","id":1001,"foodAttributes":[{"value":"other poultry","id":3310975,"sequenceNumber":1}]},{"name":"Adjustments","description":"Adjustments made to foods, including moisture changes","id":1002,"foodAttributes":[{"value":"Moisture change: 0%","id":3319877}]},{"name":"Attribute","description":"Generic attributes","id":999,"foodAttributes":[{"value":"Poultry mixed dishes","name":"WWEIA Category description","id":3300422},{"value":"3004","name":"WWEIA Category number","id":3300421}]}],"foodVersionIds":[]}],"aggregations":{"dataType":{"Branded":21211,"Survey (FNDDS)":455,"SR Legacy":394,"Foundation":9},"nutrients":{}}}
