{"totalHits":44913,"currentPage":1,"totalPages":44913,"pageList":[1,2,3,4,5,6,7,8,9,10],"foodSearchCriteria":{"query":"Plain Rice","generalSearchInput":"Plain Rice","pageNumber":1,"numberOfResultsPerPage":50,"pageSize":1,"requireAllWords":false},"foods":[{"fdcId":2708455,"description":"Cereal, rice crispy, plain","commonNames":"","additionalDescriptions":"Rice Krispies","dataType":"Survey (FNDDS)","foodCode":57151000,"publishedDate":"2024-10-31","foodCategory":"Ready-to-eat cereal, lower sugar (=<21.2g/100g)","foodCategoryId":3304458,"allHighlightFields":"<b>Includes</b>: <em>Rice</em> Krispies","score":574.4462,"microbes":[],"foodNutrients":[{"nutrientId":1003,"nutrientName":"Protein","nutrientNumber":"203","unitName":"G","value":6.96,"rank":600,"indentLevel":1,"foodNutrientId":34335774},{"nutrientId":1004,"nutrientName":"Total lipid (fat)","nutrientNumber":"204","unitName":"G","value":1.21,"rank":800,"indentLevel":1,"foodNutrientId":34335775},{"nutrientId":1005,"nutrientName":"Carbohydrate, by difference","nutrientNumber":"205","unitName":"G","value":79.81,"rank":1110,"indentLevel":2,"foodNutrientId":34335776},{"nutrientId":1008,"nutrientName":"Energy","nutrientNumber":"208","unitName":"KCAL","value":358,"rank":300,"indentLevel":1,"foodNutrientId":34335777},{"nutrientId":1018,"nutrientName":"Alcohol, ethyl","nutrientNumber":"221","unitName":"G","value":0,"rank":18200,"indentLevel":1,"foodNutrientId":34335778},{"nutrientId":1051,"nutrientName":"Water","nutrientNumber":"255","unitName":"G","value":10.24,"rank":100,"indentLevel":1,"foodNutrientId":34335779},{"nutrientId":1057,"nutrientName":"Caffeine","nutrientNumber":"262","unitName":"MG","value":0,"rank":18300,"indentLevel":0,"foodNutrientId":34335780},{"nutrientId":1058,"nutrientName":"Theobromine","nutrientNumber":"263","unitName":"MG","value":0,"rank":18400,"indentLevel":0,"foodNutrientId":34335781},{"nutrientId":2000,"nutrientName":"Total Sugars","nutrientNumber":"269","unitName":"G","value":9.85,"rank":1510,"indentLevel":3,"foodNutrientId":34335782},{"nutrientId":1079,"nutrientName":"Fiber, total dietary","nutrientNumber":"291","unitName":"G","value":0.4,"rank":1200,"indentLevel":3,"foodNutrientId":34335783},{"nutrientId":1087,"nutrientName":"Calcium, Ca","nutrientNumber":"301","unitName":"MG","value":8,"rank":5300,"indentLevel":1,"foodNutrientId":34335784},{"nutrientId":1089,"nutrientName":"Iron, Fe","nutrientNumber":"303","unitName":"MG","value":26.69,"rank":5400,"indentLevel":1,"foodNutrientId":34335785},{"nutrientId":1090,"nutrientName":"Magnesium, Mg","nutrientNumber":"304","unitName":"MG","value":21,"rank":5500,"indentLevel":1,"foodNutrientId":34335786},{"nutrientId":1091,"nutrientName":"Phosphorus, P","nutrientNumber":"305","unitName":"MG","value":90,"rank":5600,"indentLevel":1,"foodNutrientId":34335787},{"nutrientId":1092,"nutrientName":"Potassium, K","nutrientNumber":"306","unitName":"MG","value":67,"rank":5700,"indentLevel":1,"foodNutrientId":34335788},{"nutrientId":1093,"nutrientName":"Sodium, Na","nutrientNumber":"307","unitName":"MG","value":505,"rank":5800,"indentLevel":1,"foodNutrientId":34335789},{"nutrientId":1095,"nutrientName":"Zinc, Zn","nutrientNumber":"309","unitName":"MG","value":1.09,"rank":5900,"indentLevel":1,"foodNutrientId":34335790},{"nutrientId":1098,"nutrientName":"Copper, Cu","nutrientNumber":"312","unitName":"MG","value":0.2,"rank":6000,"indentLevel":1,"foodNutrientId":34335791},{"nutrientId":1103,"nutrientName":"Selenium, Se","nutrientNumber":"317","unitName":"UG","value":4.7,"rank":6200,"indentLevel":1,"foodNutrientId":34335792},{"nutrientId":1105,"nutrientName":"Retinol","nutrientNumber":"319","unitName":"UG","value":0,"rank":7430,"indentLevel":2,"foodNutrientId":34335793},{"nutrientId":1106,"nutrientName":"Vitamin A, RAE","nutrientNumber":"320","unitName":"UG","value":0,"rank":7420,"indentLevel":1,"foodNutrientId":34335794},{"nutrientId":1107,"nutrientName":"Carotene, beta","nutrientNumber":"321","unitName":"UG","value":0,"rank":7440,"indentLevel":2,"foodNutrientId":34335795},{"nutrientId":1108,"nutrientName":"Carotene, alpha","nutrientNumber":"322","unitName":"UG","value":0,"rank":7450,"indentLevel":2,"foodNutrientId":34335796},{"nutrientId":1109,"nutrientName":"Vitamin E (alpha-tocopherol)","nutrientNumber":"323","unitName":"MG","value":0.1,"rank":7905,"indentLevel":1,"foodNutrientId":34335797},{"nutrientId":1114,"nutrientName":"Vitamin D (D2 + D3)","nutrientNumber":"328","unitName":"UG","value":4.9,"rank":8700,"indentLevel":1,"foodNutrientId":34335798},{"nutrientId":1120,"nutrientName":"Cryptoxanthin, beta","nutrientNumber":"334","unitName":"UG","value":0,"rank":7460,"indentLevel":2,"foodNutrientId":34335799},{"nutrientId":1122,"nutrientName":"Lycopene","nutrientNumber":"337","unitName":"UG","value":0,"rank":7530,"indentLevel":1,"foodNutrientId":34335800},{"nutrientId":1123,"nutrientName":"Lutein + zeaxanthin","nutrientNumber":"338","unitName":"UG","value":0,"rank":7560,"indentLevel":1,"foodNutrientId":34335801},{"nutrientId":1162,"nutrientName":"Vitamin C, total ascorbic acid","nutrientNumber":"401","unitName":"MG","value":0,"rank":6300,"indentLevel":1,"foodNutrientId":34335802},{"nutrientId":1165,"nutrientName":"Thiamin","nutrientNumber":"404","unitName":"MG","value":0.959,"rank":6400,"indentLevel":1,"foodNutrientId":34335803},{"nutrientId":1166,"nutrientName":"Riboflavin","nutrientNumber":"405","unitName":"MG","value":0.954,"rank":6500,"indentLevel":1,"foodNutrientId":34335804},{"nutrientId":1167,"nutrientName":"Niacin","nutrientNumber":"406","unitName":"MG","value":12.823,"rank":6600,"indentLevel":1,"foodNutrientId":34335805},{"nutrientId":1175,"nutrientName":"Vitamin B-6","nutrientNumber":"415","unitName":"MG","value":1.291,"rank":6800,"indentLevel":1,"foodNutrientId":34335806},{"nutrientId":1177,"nutrientName":"Folate, total","nutrientNumber":"417","unitName":"UG","value":592,"rank":6900,"indentLevel":1,"foodNutrientId":34335807},{"nutrientId":1178,"nutrientName":"Vitamin B-12","nutrientNumber":"418","unitName":"UG","value":1.76,"rank":7300,"indentLevel":1,"foodNutrientId":34335808},{"nutrientId":1180,"nutrientName":"Choline, total","nutrientNumber":"421","unitName":"MG","value":7,"rank":7220,"indentLevel":1,"foodNutrientId":34335809},{"nutrientId":1185,"nutrientName":"Vitamin K (phylloquinone)","nutrientNumber":"430","unitName":"UG","value":0,"rank":8800,"indentLevel":1,"foodNutrientId":34335810},{"nutrientId":1186,"nutrientName":"Folic acid","nutrientNumber":"431","unitName":"UG","value":576,"rank":7000,"indentLevel":0,"foodNutrientId":34335811},{"nutrientId":1187,"nutrientName":"Folate, food","nutrientNumber":"432","unitName":"UG","value":16,"rank":7100,"indentLevel":1,"foodNutrientId":34335812},{"nutrientId":1190,"nutrientName":"Folate, DFE","nutrientNumber":"435","unitName":"UG","value":995,"rank":7200,"indentLevel":1,"foodNutrientId":34335813},{"nutrientId":1242,"nutrientName":"Vitamin E, added","nutrientNumber":"573","unitName":"MG","value":0,"rank":7920,"indentLevel":0,"foodNutrientId":34335814},{"nutrientId":1246,"nutrientName":"Vitamin B-12, added","nutrientNumber":"578","unitName":"UG","value":1.76,"rank":7340,"indentLevel":0,"foodNutrientId":34335815},{"nutrientId":1253,"nutrientName":"Cholesterol","nutrientNumber":"601","unitName":"MG","value":0,"rank":15700,"indentLevel":1,"foodNutrientId":34335816},{"nutrientId":1258,"nutrientName":"Fatty acids, total saturated","nutrientNumber":"606","unitName":"G","value":0.343,"rank":9700,"indentLevel":1,"foodNutrientId":34335817},{"nutrientId":1259,"nutrientName":"SFA 4:0","nutrientNumber":"607","unitName":"G","value":0,"rank":9800,"indentLevel":2,"foodNutrientId":34335818},{"nutrientId":1260,"nutrientName":"SFA 6:0","nutrientNumber":"608","unitName":"G","value":0,"rank":9900,"indentLevel":2,"foodNutrientId":34335819},{"nutrientId":1261,"nutrientName":"SFA 8:0","nutrientNumber":"609","unitName":"G","value":0,"rank":10000,"indentLevel":2,"foodNutrientId":34335820},{"nutrientId":1262,"nutrientName":"SFA 10:0","nutrientNumber":"610","unitName":"G","value":0,"rank":10100,"indentLevel":2,"foodNutrientId":34335821},{"nutrientId":1263,"nutrientName":"SFA 12:0","nutrientNumber":"611","unitName":"G","value":0,"rank":10300,"indentLevel":2,"foodNutrientId":34335822},{"nutrientId":1264,"nutrientName":"SFA 14:0","nutrientNumber":"612","unitName":"G","value":0.007,"rank":10500,"indentLevel":2,"foodNutrientId":34335823},{"nutrientId":1265,"nutrientName":"SFA 16:0","nutrientNumber":"613","unitName":"G","value":0.306,"rank":10700,"indentLevel":2,"foodNutrientId":34335824},{"nutrientId":1266,"nutrientName":"SFA 18:0","nutrientNumber":"614","unitName":"G","value":0.024,"rank":10900,"indentLevel":2,"foodNutrientId":34335825},{"nutrientId":1268,"nutrientName":"MUFA 18:1","nutrientNumber":"617","unitName":"G","value":0.389,"rank":12100,"indentLevel":2,"foodNutrientId":34335826},{"nutrientId":1269,"nutrientName":"PUFA 18:2","nutrientNumber":"618","unitName":"G","value":0.289,"rank":13100,"indentLevel":2,"foodNutrientId":34335827},{"nutrientId":1270,"nutrientName":"PUFA 18:3","nutrientNumber":"619","unitName":"G","value":0.061,"rank":13900,"indentLevel":2,"foodNutrientId":34335828},{"nutrientId":1271,"nutrientName":"PUFA 20:4","nutrientNumber":"620","unitName":"G","value":0,"rank":14700,"indentLevel":2,"foodNutrientId":34335829},{"nutrientId":1272,"nutrientName":"PUFA 22:6 n-3 (DHA)","nutrientNumber":"621","unitName":"G","value":0,"rank":15300,"indentLevel":2,"foodNutrientId":34335830},{"nutrientId":1275,"nutrientName":"MUFA 16:1","nutrientNumber":"626","unitName":"G","value":0.004,"rank":11700,"indentLevel":2,"foodNutrientId":34335831},{"nutrientId":1276,"nutrientName":"PUFA 18:4","nutrientNumber":"627","unitName":"G","value":0,"rank":14250,"indentLevel":2,"foodNutrientId":34335832},{"nutrientId":1277,"nutrientName":"MUFA 20:1","nutrientNumber":"628","unitName":"G","value":0,"rank":12400,"indentLevel":2,"foodNutrientId":34335833},{"nutrientId":1278,"nutrientName":"PUFA 20:5 n-3 (EPA)","nutrientNumber":"629","unitName":"G","value":0,"rank":15000,"indentLevel":2,"foodNutrientId":34335834},{"nutrientId":1279,"nutrientName":"MUFA 22:1","nutrientNumber":"630","unitName":"G","value":0,"rank":12500,"indentLevel":2,"foodNutrientId":34335835},{"nutrientId":1280,"nutrientName":"PUFA 22:5 n-3 (DPA)","nutrientNumber":"631","unitName":"G","value":0,"rank":15200,"indentLevel":2,"foodNutrientId":34335836},{"nutrientId":1292,"nutrientName":"Fatty acids, total monounsaturated","nutrientNumber":"645","unitName":"G","value":0.395,"rank":11400,"indentLevel":1,"foodNutrientId":34335837},{"nutrientId":1293,"nutrientName":"Fatty acids, total polyunsaturated","nutrientNumber":"646","unitName":"G","value":0.349,"rank":12900,"indentLevel":1,"foodNutrientId":34335838}],"finalFoodInputFoods":[{"foodDescription":"Folic acid as ingredient","gramWeight":0.059,"id":134953,"portionCode":"0","portionDescription":"NONE","unit":"GM","rank":6,"retentionCode":0,"srCode":999431,"value":0.059},{"foodDescription":"Salt, table","gramWeight":1.3,"id":134950,"portionCode":"0","portionDescription":"NONE","unit":"GM","rank":3,"retentionCode":0,"srCode":2047,"value":1.3},{"foodDescription":"Iron as ingredient","gramWeight":0.027,"id":134954,"portionCode":"0","portionDescription":"NONE","unit":"GM","rank":7,"retentionCode":0,"srCode":999303,"value":0.027},{"foodDescription":"Flour, rice, white, unenriched","gramWeight":90,"id":134948,"portionCode":"0","portionDescription":"NONE","unit":"GM","rank":1,"retentionCode":0,"srCode":20061,"value":90.0},{"foodDescription":"Soy protein isolate","gramWeight":1,"id":134951,"portionCode":"0","portionDescription":"NONE","unit":"GM","rank":4,"retentionCode":0,"srCode":16122,"value":1.0},{"foodDescription":"Vitamin B composite in cereals","gramWeight":0.03,"id":134952,"portionCode":"0","portionDescription":"NONE","unit":"GM","rank":5,"retentionCode":0,"srCode":999001,"value":0.03},{"foodDescription":"Sugars, granulated","gramWeight":10,"id":134949,"portionCode":"0","portionDescription":"NONE","unit":"GM","rank":2,"retentionCode":0,"srCode":19335,"value":10.0},{"foodDescription":"Vitamin D as ingredient","gramWeight":0.05,"id":134955,"portionCode":"0","portionDescription":"NONE","unit":"GM","rank":8,"retentionCode":0,"srCode":999328,"value":0.05}],"foodMeasures":[{"disseminationText":"1 cup","gramWeight":25,"id":303024,"modifier":"10205","rank":1,"measureUnitAbbreviation":"undetermined","measureUnitName":"undetermined","measureUnitId":9999},{"disseminationText":"1 prepackaged single serving","gramWeight":30,"id":303025,"modifier":"64235","rank":2,"measureUnitAbbreviation":"undetermined","measureUnitName":"undetermined","measureUnitId":9999},{"disseminationText":"Quantity not specified","gramWeight":25,"id":303026,"modifier":"90000","rank":3,"measureUnitAbbreviation":"undetermined","measureUnitName":"undetermined","measureUnitId":9999}],"foodAttributes":[{"value":"Ready-to-eat cereal, lower sugar (=<21.2g/100g)","name":"WWEIA Category description","id":3304458},{"value":"Rice Krispies","id":3314210,"sequenceNumber":4},{"value":"Moisture change: 0%","id":3321895},{"value":"4604","name":"WWEIA Category number","id":3304457}],"foodAttributeTypes":[{"name":"Additional Description","description":"Additional descriptions for the food.","id":1001,"foodAttributes":[{"value":"Rice Krispies","id":3314210,"sequenceNumber":4}]},{"name":"Adjustments","description":"Adjustments made to foods, including moisture changes","id":1002,"foodAttributes":[{"value":"Moisture change: 0%","id":3321895}]},{"name":"Attribute","description":"Generic attributes","id":999,"foodAttributes":[{"value":"Ready-to-eat cereal, lower sugar (=<21.2g/100g)","name":"WWEIA Category description","id":3304458},{"value":"4604","name":"WWEIA Category number","id":3304457}]}],"foodVersionIds":[]}],"aggregations":{"dataType":{"Branded":44084,"Survey (FNDDS)":552,"SR Legacy":257,"Foundation":18,"Experimental":2},"nutrients":{}}}
