{"totalHits":9689,"currentPage":1,"totalPages":9689,"pageList":[1,2,3,4,5,6,7,8,9,10],"foodSearchCriteria":{"query":"Club Sandwich","generalSearchInput":"Club Sandwich","pageNumber":1,"numberOfResultsPerPage":50,"pageSize":1,"requireAllWords":false},"foods":[{"fdcId":2706995,"description":"Club sandwich on wheat","commonNames":"","additionalDescriptions":"turkey, chicken or other meats;multigrain, whole grain, whole wheat;bread, bun or roll","dataType":"Survey (FNDDS)","foodCode":27540125,"publishedDate":"2024-10-31","foodCategory":"Deli and cured meat sandwiches","foodCategoryId":3301538,"allHighlightFields":"","score":743.0591,"microbes":[],"foodNutrients":[{"nutrientId":1003,"nutrientName":"Protein","nutrientNumber":"203","unitName":"G","value":15.98,"rank":600,"indentLevel":1,"foodNutrientId":34240874},{"nutrientId":1004,"nutrientName":"Total lipid (fat)","nutrientNumber":"204","unitName":"G","value":7.65,"rank":800,"indentLevel":1,"foodNutrientId":34240875},{"nutrientId":1005,"nutrientName":"Carbohydrate, by difference","nutrientNumber":"205","unitName":"G","value":21.38,"rank":1110,"indentLevel":2,"foodNutrientId":34240876},{"nutrientId":1008,"nutrientName":"Energy","nutrientNumber":"208","unitName":"KCAL","value":220,"rank":300,"indentLevel":1,"foodNutrientId":34240877},{"nutrientId":1018,"nutrientName":"Alcohol, ethyl","nutrientNumber":"221","unitName":"G","value":0,"rank":18200,"indentLevel":1,"foodNutrientId":34240878},{"nutrientId":1051,"nutrientName":"Water","nutrientNumber":"255","unitName":"G","value":51.84,"rank":100,"indentLevel":1,"foodNutrientId":34240879},{"nutrientId":1057,"nutrientName":"Caffeine","nutrientNumber":"262","unitName":"MG","value":0,"rank":18300,"indentLevel":0,"foodNutrientId":34240880},{"nutrientId":1058,"nutrientName":"Theobromine","nutrientNumber":"263","unitName":"MG","value":0,"rank":18400,"indentLevel":0,"foodNutrientId":34240881},{"nutrientId":2000,"nutrientName":"Total Sugars","nutrientNumber":"269","unitName":"G","value":2.56,"rank":1510,"indentLevel":3,"foodNutrientId":34240882},{"nutrientId":1079,"nutrientName":"Fiber, total dietary","nutrientNumber":"291","unitName":"G","value":2.4,"rank":1200,"indentLevel":3,"foodNutrientId":34240883},{"nutrientId":1087,"nutrientName":"Calcium, Ca","nutrientNumber":"301","unitName":"MG","value":79,"rank":5300,"indentLevel":1,"foodNutrientId":34240884},{"nutrientId":1089,"nutrientName":"Iron, Fe","nutrientNumber":"303","unitName":"MG","value":1.76,"rank":5400,"indentLevel":1,"foodNutrientId":34240885},{"nutrientId":1090,"nutrientName":"Magnesium, Mg","nutrientNumber":"304","unitName":"MG","value":38,"rank":5500,"indentLevel":1,"foodNutrientId":34240886},{"nutrientId":1091,"nutrientName":"Phosphorus, P","nutrientNumber":"305","unitName":"MG","value":231,"rank":5600,"indentLevel":1,"foodNutrientId":34240887},{"nutrientId":1092,"nutrientName":"Potassium, K","nutrientNumber":"306","unitName":"MG","value":315,"rank":5700,"indentLevel":1,"foodNutrientId":34240888},{"nutrientId":1093,"nutrientName":"Sodium, Na","nutrientNumber":"307","unitName":"MG","value":765,"rank":5800,"indentLevel":1,"foodNutrientId":34240889},{"nutrientId":1095,"nutrientName":"Zinc, Zn","nutrientNumber":"309","unitName":"MG","value":1.51,"rank":5900,"indentLevel":1,"foodNutrientId":34240890},{"nutrientId":1098,"nutrientName":"Copper, Cu","nutrientNumber":"312","unitName":"MG","value":0.115,"rank":6000,"indentLevel":1,"foodNutrientId":34240891},{"nutrientId":1103,"nutrientName":"Selenium, Se","nutrientNumber":"317","unitName":"UG","value":28.2,"rank":6200,"indentLevel":1,"foodNutrientId":34240892},{"nutrientId":1105,"nutrientName":"Retinol","nutrientNumber":"319","unitName":"UG","value":1,"rank":7430,"indentLevel":2,"foodNutrientId":34240893},{"nutrientId":1106,"nutrientName":"Vitamin A, RAE","nutrientNumber":"320","unitName":"UG","value":1,"rank":7420,"indentLevel":1,"foodNutrientId":34240894},{"nutrientId":1107,"nutrientName":"Carotene, beta","nutrientNumber":"321","unitName":"UG","value":1,"rank":7440,"indentLevel":2,"foodNutrientId":34240895},{"nutrientId":1108,"nutrientName":"Carotene, alpha","nutrientNumber":"322","unitName":"UG","value":0,"rank":7450,"indentLevel":2,"foodNutrientId":34240896},{"nutrientId":1109,"nutrientName":"Vitamin E (alpha-tocopherol)","nutrientNumber":"323","unitName":"MG","value":0.3,"rank":7905,"indentLevel":1,"foodNutrientId":34240897},{"nutrientId":1114,"nutrientName":"Vitamin D (D2 + D3)","nutrientNumber":"328","unitName":"UG","value":0.2,"rank":8700,"indentLevel":1,"foodNutrientId":34240898},{"nutrientId":1120,"nutrientName":"Cryptoxanthin, beta","nutrientNumber":"334","unitName":"UG","value":0,"rank":7460,"indentLevel":2,"foodNutrientId":34240899},{"nutrientId":1122,"nutrientName":"Lycopene","nutrientNumber":"337","unitName":"UG","value":0,"rank":7530,"indentLevel":1,"foodNutrientId":34240900},{"nutrientId":1123,"nutrientName":"Lutein + zeaxanthin","nutrientNumber":"338","unitName":"UG","value":29,"rank":7560,"indentLevel":1,"foodNutrientId":34240901},{"nutrientId":1162,"nutrientName":"Vitamin C, total ascorbic acid","nutrientNumber":"401","unitName":"MG","value":0.1,"rank":6300,"indentLevel":1,"foodNutrientId":34240902},{"nutrientId":1165,"nutrientName":"Thiamin","nutrientNumber":"404","unitName":"MG","value":0.328,"rank":6400,"indentLevel":1,"foodNutrientId":34240903},{"nutrientId":1166,"nutrientName":"Riboflavin","nutrientNumber":"405","unitName":"MG","value":0.213,"rank":6500,"indentLevel":1,"foodNutrientId":34240904},{"nutrientId":1167,"nutrientName":"Niacin","nutrientNumber":"406","unitName":"MG","value":6.212,"rank":6600,"indentLevel":1,"foodNutrientId":34240905},{"nutrientId":1175,"nutrientName":"Vitamin B-6","nutrientNumber":"415","unitName":"MG","value":0.308,"rank":6800,"indentLevel":1,"foodNutrientId":34240906},{"nutrientId":1177,"nutrientName":"Folate, total","nutrientNumber":"417","unitName":"UG","value":34,"rank":6900,"indentLevel":1,"foodNutrientId":34240907},{"nutrientId":1178,"nutrientName":"Vitamin B-12","nutrientNumber":"418","unitName":"UG","value":0.29,"rank":7300,"indentLevel":1,"foodNutrientId":34240908},{"nutrientId":1180,"nutrientName":"Choline, total","nutrientNumber":"421","unitName":"MG","value":40.1,"rank":7220,"indentLevel":1,"foodNutrientId":34240909},{"nutrientId":1185,"nutrientName":"Vitamin K (phylloquinone)","nutrientNumber":"430","unitName":"UG","value":2.5,"rank":8800,"indentLevel":1,"foodNutrientId":34240910},{"nutrientId":1186,"nutrientName":"Folic acid","nutrientNumber":"431","unitName":"UG","value":7,"rank":7000,"indentLevel":0,"foodNutrientId":34240911},{"nutrientId":1187,"nutrientName":"Folate, food","nutrientNumber":"432","unitName":"UG","value":27,"rank":7100,"indentLevel":1,"foodNutrientId":34240912},{"nutrientId":1190,"nutrientName":"Folate, DFE","nutrientNumber":"435","unitName":"UG","value":38,"rank":7200,"indentLevel":1,"foodNutrientId":34240913},{"nutrientId":1242,"nutrientName":"Vitamin E, added","nutrientNumber":"573","unitName":"MG","value":0,"rank":7920,"indentLevel":0,"foodNutrientId":34240914},{"nutrientId":1246,"nutrientName":"Vitamin B-12, added","nutrientNumber":"578","unitName":"UG","value":0,"rank":7340,"indentLevel":0,"foodNutrientId":34240915},{"nutrientId":1253,"nutrientName":"Cholesterol","nutrientNumber":"601","unitName":"MG","value":31,"rank":15700,"indentLevel":1,"foodNutrientId":34240916},{"nutrientId":1258,"nutrientName":"Fatty acids, total saturated","nutrientNumber":"606","unitName":"G","value":2.207,"rank":9700,"indentLevel":1,"foodNutrientId":34240917},{"nutrientId":1259,"nutrientName":"SFA 4:0","nutrientNumber":"607","unitName":"G","value":0,"rank":9800,"indentLevel":2,"foodNutrientId":34240918},{"nutrientId":1260,"nutrientName":"SFA 6:0","nutrientNumber":"608","unitName":"G","value":0,"rank":9900,"indentLevel":2,"foodNutrientId":34240919},{"nutrientId":1261,"nutrientName":"SFA 8:0","nutrientNumber":"609","unitName":"G","value":0,"rank":10000,"indentLevel":2,"foodNutrientId":34240920},{"nutrientId":1262,"nutrientName":"SFA 10:0","nutrientNumber":"610","unitName":"G","value":0.003,"rank":10100,"indentLevel":2,"foodNutrientId":34240921},{"nutrientId":1263,"nutrientName":"SFA 12:0","nutrientNumber":"611","unitName":"G","value":0.005,"rank":10300,"indentLevel":2,"foodNutrientId":34240922},{"nutrientId":1264,"nutrientName":"SFA 14:0","nutrientNumber":"612","unitName":"G","value":0.071,"rank":10500,"indentLevel":2,"foodNutrientId":34240923},{"nutrientId":1265,"nutrientName":"SFA 16:0","nutrientNumber":"613","unitName":"G","value":1.406,"rank":10700,"indentLevel":2,"foodNutrientId":34240924},{"nutrientId":1266,"nutrientName":"SFA 18:0","nutrientNumber":"614","unitName":"G","value":0.678,"rank":10900,"indentLevel":2,"foodNutrientId":34240925},{"nutrientId":1268,"nutrientName":"MUFA 18:1","nutrientNumber":"617","unitName":"G","value":2.525,"rank":12100,"indentLevel":2,"foodNutrientId":34240926},{"nutrientId":1269,"nutrientName":"PUFA 18:2","nutrientNumber":"618","unitName":"G","value":1.569,"rank":13100,"indentLevel":2,"foodNutrientId":34240927},{"nutrientId":1270,"nutrientName":"PUFA 18:3","nutrientNumber":"619","unitName":"G","value":0.109,"rank":13900,"indentLevel":2,"foodNutrientId":34240928},{"nutrientId":1271,"nutrientName":"PUFA 20:4","nutrientNumber":"620","unitName":"G","value":0.044,"rank":14700,"indentLevel":2,"foodNutrientId":34240929},{"nutrientId":1272,"nutrientName":"PUFA 22:6 n-3 (DHA)","nutrientNumber":"621","unitName":"G","value":0.002,"rank":15300,"indentLevel":2,"foodNutrientId":34240930},{"nutrientId":1275,"nutrientName":"MUFA 16:1","nutrientNumber":"626","unitName":"G","value":0.145,"rank":11700,"indentLevel":2,"foodNutrientId":34240931},{"nutrientId":1276,"nutrientName":"PUFA 18:4","nutrientNumber":"627","unitName":"G","value":0,"rank":14250,"indentLevel":2,"foodNutrientId":34240932},{"nutrientId":1277,"nutrientName":"MUFA 20:1","nutrientNumber":"628","unitName":"G","value":0.051,"rank":12400,"indentLevel":2,"foodNutrientId":34240933},{"nutrientId":1278,"nutrientName":"PUFA 20:5 n-3 (EPA)","nutrientNumber":"629","unitName":"G","value":0.002,"rank":15000,"indentLevel":2,"foodNutrientId":34240934},{"nutrientId":1279,"nutrientName":"MUFA 22:1","nutrientNumber":"630","unitName":"G","value":0.001,"rank":12500,"indentLevel":2,"foodNutrientId":34240935},{"nutrientId":1280,"nutrientName":"PUFA 22:5 n-3 (DPA)","nutrientNumber":"631","unitName":"G","value":0.005,"rank":15200,"indentLevel":2,"foodNutrientId":34240936},{"nutrientId":1292,"nutrientName":"Fatty acids, total monounsaturated","nutrientNumber":"645","unitName":"G","value":2.733,"rank":11400,"indentLevel":1,"foodNutrientId":34240937},{"nutrientId":1293,"nutrientName":"Fatty acids, total polyunsaturated","nutrientNumber":"646","unitName":"G","value":1.785,"rank":12900,"indentLevel":1,"foodNutrientId":34240938}],"finalFoodInputFoods":[{"foodDescription":"Ham, sliced, pre-packaged, deli meat (96%fat free, water added)","gramWeight":28,"id":130376,"portionCode":"0","portionDescription":"NONE","unit":"GM","rank":3,"retentionCode":0,"srCode":7028,"value":28.0},{"foodDescription":"Pork, cured, bacon, pre-sliced, cooked, pan-fried","gramWeight":16,"id":130377,"portionCode":"40040","portionDescription":"1 oz, cooked","unit":"GM","rank":4,"retentionCode":0,"srCode":10862,"value":16.0},{"foodDescription":"Wheat bread as ingredient in sandwiches","gramWeight":60,"id":130374,"portionCode":"0","portionDescription":"NONE","unit":"GM","rank":1,"retentionCode":0,"srCode":99995130,"value":60.0},{"foodDescription":"Turkey breast, sliced, prepackaged","gramWeight":28,"id":130375,"portionCode":"0","portionDescription":"NONE","unit":"GM","rank":2,"retentionCode":0,"srCode":7081,"value":28.0}],"foodMeasures":[{"disseminationText":"Quantity not specified","gramWeight":130,"id":296743,"modifier":"90000","rank":2,"measureUnitAbbreviation":"undetermined","measureUnitName":"undetermined","measureUnitId":9999},{"disseminationText":"1 sandwich, any size","gramWeight":130,"id":296742,"modifier":"64736","rank":1,"measureUnitAbbreviation":"undetermined","measureUnitName":"undetermined","measureUnitId":9999}],"foodAttributes":[{"value":"bread, bun or roll","id":3311510,"sequenceNumber":1},{"value":"turkey, chicken or other meats","id":3311512,"sequenceNumber":3},{"value":"3740","name":"WWEIA Category number","id":3301537},{"value":"Moisture change: 0%","id":3320435},{"value":"Deli and cured meat sandwiches","name":"WWEIA Category description","id":3301538},{"value":"multigrain, whole grain, whole wheat","id":3311511,"sequenceNumber":2}],"foodAttributeTypes":[{"name":"Additional Description","description":"Additional descriptions for the food.","id":1001,"foodAttributes":[{"value":"bread, bun or roll","id":3311510,"sequenceNumber":1},{"value":"turkey, chicken or other meats","id":3311512,"sequenceNumber":3},{"value":"multigrain, whole grain, whole wheat","id":3311511,"sequenceNumber":2}]},{"name":"Adjustments","description":"Adjustments made to foods, including moisture changes","id":1002,"foodAttributes":[{"value":"Moisture change: 0%","id":3320435}]},{"name":"Attribute","description":"Generic attributes","id":999,"foodAttributes":[{"value":"3740","name":"WWEIA Category number","id":3301537},{"value":"Deli and cured meat sandwiches","name":"WWEIA Category description","id":3301538}]}],"foodVersionIds":[]}],"aggregations":{"dataType":{"Branded":9279,"Survey (FNDDS)":300,"SR Legacy":109,"Foundation":1},"nutrients":{}}}
