{"totalHits":108926,"currentPage":1,"totalPages":108926,"pageList":[1,2,3,4,5,6,7,8,9,10],"foodSearchCriteria":{"query":"Vegetable Curry (Thai)","generalSearchInput":"Vegetable Curry (Thai)","pageNumber":1,"numberOfResultsPerPage":50,"pageSize":1,"requireAllWords":false},"foods":[{"fdcId":2710067,"description":"Vegetable curry","commonNames":"","additionalDescriptions":"","dataType":"Survey (FNDDS)","foodCode":75440600,"publishedDate":"2024-10-31","foodCategory":"Vegetable dishes","foodCategoryId":3307682,"allHighlightFields":"","score":733.61053,"microbes":[],"foodNutrients":[{"nutrientId":1003,"nutrientName":"Protein","nutrientNumber":"203","unitName":"G","value":1.6,"rank":600,"indentLevel":1,"foodNutrientId":34440554},{"nutrientId":1004,"nutrientName":"Total lipid (fat)","nutrientNumber":"204","unitName":"G","value":5.27,"rank":800,"indentLevel":1,"foodNutrientId":34440555},{"nutrientId":1005,"nutrientName":"Carbohydrate, by difference","nutrientNumber":"205","unitName":"G","value":8.81,"rank":1110,"indentLevel":2,"foodNutrientId":34440556},{"nutrientId":1008,"nutrientName":"Energy","nutrientNumber":"208","unitName":"KCAL","value":86,"rank":300,"indentLevel":1,"foodNutrientId":34440557},{"nutrientId":1018,"nutrientName":"Alcohol, ethyl","nutrientNumber":"221","unitName":"G","value":0,"rank":18200,"indentLevel":1,"foodNutrientId":34440558},{"nutrientId":1051,"nutrientName":"Water","nutrientNumber":"255","unitName":"G","value":82.65,"rank":100,"indentLevel":1,"foodNutrientId":34440559},{"nutrientId":1057,"nutrientName":"Caffeine","nutrientNumber":"262","unitName":"MG","value":0,"rank":18300,"indentLevel":0,"foodNutrientId":34440560},{"nutrientId":1058,"nutrientName":"Theobromine","nutrientNumber":"263","unitName":"MG","value":0,"rank":18400,"indentLevel":0,"foodNutrientId":34440561},{"nutrientId":2000,"nutrientName":"Total Sugars","nutrientNumber":"269","unitName":"G","value":3.18,"rank":1510,"indentLevel":3,"foodNutrientId":34440562},{"nutrientId":1079,"nutrientName":"Fiber, total dietary","nutrientNumber":"291","unitName":"G","value":1.8,"rank":1200,"indentLevel":3,"foodNutrientId":34440563},{"nutrientId":1087,"nutrientName":"Calcium, Ca","nutrientNumber":"301","unitName":"MG","value":21,"rank":5300,"indentLevel":1,"foodNutrientId":34440564},{"nutrientId":1089,"nutrientName":"Iron, Fe","nutrientNumber":"303","unitName":"MG","value":0.68,"rank":5400,"indentLevel":1,"foodNutrientId":34440565},{"nutrientId":1090,"nutrientName":"Magnesium, Mg","nutrientNumber":"304","unitName":"MG","value":16,"rank":5500,"indentLevel":1,"foodNutrientId":34440566},{"nutrientId":1091,"nutrientName":"Phosphorus, P","nutrientNumber":"305","unitName":"MG","value":41,"rank":5600,"indentLevel":1,"foodNutrientId":34440567},{"nutrientId":1092,"nutrientName":"Potassium, K","nutrientNumber":"306","unitName":"MG","value":286,"rank":5700,"indentLevel":1,"foodNutrientId":34440568},{"nutrientId":1093,"nutrientName":"Sodium, Na","nutrientNumber":"307","unitName":"MG","value":388,"rank":5800,"indentLevel":1,"foodNutrientId":34440569},{"nutrientId":1095,"nutrientName":"Zinc, Zn","nutrientNumber":"309","unitName":"MG","value":0.26,"rank":5900,"indentLevel":1,"foodNutrientId":34440570},{"nutrientId":1098,"nutrientName":"Copper, Cu","nutrientNumber":"312","unitName":"MG","value":0.088,"rank":6000,"indentLevel":1,"foodNutrientId":34440571},{"nutrientId":1103,"nutrientName":"Selenium, Se","nutrientNumber":"317","unitName":"UG","value":0.6,"rank":6200,"indentLevel":1,"foodNutrientId":34440572},{"nutrientId":1105,"nutrientName":"Retinol","nutrientNumber":"319","unitName":"UG","value":1,"rank":7430,"indentLevel":2,"foodNutrientId":34440573},{"nutrientId":1106,"nutrientName":"Vitamin A, RAE","nutrientNumber":"320","unitName":"UG","value":66,"rank":7420,"indentLevel":1,"foodNutrientId":34440574},{"nutrientId":1107,"nutrientName":"Carotene, beta","nutrientNumber":"321","unitName":"UG","value":662,"rank":7440,"indentLevel":2,"foodNutrientId":34440575},{"nutrientId":1108,"nutrientName":"Carotene, alpha","nutrientNumber":"322","unitName":"UG","value":215,"rank":7450,"indentLevel":2,"foodNutrientId":34440576},{"nutrientId":1109,"nutrientName":"Vitamin E (alpha-tocopherol)","nutrientNumber":"323","unitName":"MG","value":1.41,"rank":7905,"indentLevel":1,"foodNutrientId":34440577},{"nutrientId":1114,"nutrientName":"Vitamin D (D2 + D3)","nutrientNumber":"328","unitName":"UG","value":0,"rank":8700,"indentLevel":1,"foodNutrientId":34440578},{"nutrientId":1120,"nutrientName":"Cryptoxanthin, beta","nutrientNumber":"334","unitName":"UG","value":1,"rank":7460,"indentLevel":2,"foodNutrientId":34440579},{"nutrientId":1122,"nutrientName":"Lycopene","nutrientNumber":"337","unitName":"UG","value":4602,"rank":7530,"indentLevel":1,"foodNutrientId":34440580},{"nutrientId":1123,"nutrientName":"Lutein + zeaxanthin","nutrientNumber":"338","unitName":"UG","value":139,"rank":7560,"indentLevel":1,"foodNutrientId":34440581},{"nutrientId":1162,"nutrientName":"Vitamin C, total ascorbic acid","nutrientNumber":"401","unitName":"MG","value":12.3,"rank":6300,"indentLevel":1,"foodNutrientId":34440582},{"nutrientId":1165,"nutrientName":"Thiamin","nutrientNumber":"404","unitName":"MG","value":0.047,"rank":6400,"indentLevel":1,"foodNutrientId":34440583},{"nutrientId":1166,"nutrientName":"Riboflavin","nutrientNumber":"405","unitName":"MG","value":0.058,"rank":6500,"indentLevel":1,"foodNutrientId":34440584},{"nutrientId":1167,"nutrientName":"Niacin","nutrientNumber":"406","unitName":"MG","value":0.815,"rank":6600,"indentLevel":1,"foodNutrientId":34440585},{"nutrientId":1175,"nutrientName":"Vitamin B-6","nutrientNumber":"415","unitName":"MG","value":0.137,"rank":6800,"indentLevel":1,"foodNutrientId":34440586},{"nutrientId":1177,"nutrientName":"Folate, total","nutrientNumber":"417","unitName":"UG","value":19,"rank":6900,"indentLevel":1,"foodNutrientId":34440587},{"nutrientId":1178,"nutrientName":"Vitamin B-12","nutrientNumber":"418","unitName":"UG","value":0.01,"rank":7300,"indentLevel":1,"foodNutrientId":34440588},{"nutrientId":1180,"nutrientName":"Choline, total","nutrientNumber":"421","unitName":"MG","value":12.3,"rank":7220,"indentLevel":1,"foodNutrientId":34440589},{"nutrientId":1185,"nutrientName":"Vitamin K (phylloquinone)","nutrientNumber":"430","unitName":"UG","value":10.4,"rank":8800,"indentLevel":1,"foodNutrientId":34440590},{"nutrientId":1186,"nutrientName":"Folic acid","nutrientNumber":"431","unitName":"UG","value":0,"rank":7000,"indentLevel":0,"foodNutrientId":34440591},{"nutrientId":1187,"nutrientName":"Folate, food","nutrientNumber":"432","unitName":"UG","value":19,"rank":7100,"indentLevel":1,"foodNutrientId":34440592},{"nutrientId":1190,"nutrientName":"Folate, DFE","nutrientNumber":"435","unitName":"UG","value":19,"rank":7200,"indentLevel":1,"foodNutrientId":34440593},{"nutrientId":1242,"nutrientName":"Vitamin E, added","nutrientNumber":"573","unitName":"MG","value":0,"rank":7920,"indentLevel":0,"foodNutrientId":34440594},{"nutrientId":1246,"nutrientName":"Vitamin B-12, added","nutrientNumber":"578","unitName":"UG","value":0,"rank":7340,"indentLevel":0,"foodNutrientId":34440595},{"nutrientId":1253,"nutrientName":"Cholesterol","nutrientNumber":"601","unitName":"MG","value":0,"rank":15700,"indentLevel":1,"foodNutrientId":34440596},{"nutrientId":1258,"nutrientName":"Fatty acids, total saturated","nutrientNumber":"606","unitName":"G","value":1.256,"rank":9700,"indentLevel":1,"foodNutrientId":34440597},{"nutrientId":1259,"nutrientName":"SFA 4:0","nutrientNumber":"607","unitName":"G","value":0.003,"rank":9800,"indentLevel":2,"foodNutrientId":34440598},{"nutrientId":1260,"nutrientName":"SFA 6:0","nutrientNumber":"608","unitName":"G","value":0.005,"rank":9900,"indentLevel":2,"foodNutrientId":34440599},{"nutrientId":1261,"nutrientName":"SFA 8:0","nutrientNumber":"609","unitName":"G","value":0.047,"rank":10000,"indentLevel":2,"foodNutrientId":34440600},{"nutrientId":1262,"nutrientName":"SFA 10:0","nutrientNumber":"610","unitName":"G","value":0.04,"rank":10100,"indentLevel":2,"foodNutrientId":34440601},{"nutrientId":1263,"nutrientName":"SFA 12:0","nutrientNumber":"611","unitName":"G","value":0.292,"rank":10300,"indentLevel":2,"foodNutrientId":34440602},{"nutrientId":1264,"nutrientName":"SFA 14:0","nutrientNumber":"612","unitName":"G","value":0.128,"rank":10500,"indentLevel":2,"foodNutrientId":34440603},{"nutrientId":1265,"nutrientName":"SFA 16:0","nutrientNumber":"613","unitName":"G","value":0.528,"rank":10700,"indentLevel":2,"foodNutrientId":34440604},{"nutrientId":1266,"nutrientName":"SFA 18:0","nutrientNumber":"614","unitName":"G","value":0.174,"rank":10900,"indentLevel":2,"foodNutrientId":34440605},{"nutrientId":1268,"nutrientName":"MUFA 18:1","nutrientNumber":"617","unitName":"G","value":1.842,"rank":12100,"indentLevel":2,"foodNutrientId":34440606},{"nutrientId":1269,"nutrientName":"PUFA 18:2","nutrientNumber":"618","unitName":"G","value":1.534,"rank":13100,"indentLevel":2,"foodNutrientId":34440607},{"nutrientId":1270,"nutrientName":"PUFA 18:3","nutrientNumber":"619","unitName":"G","value":0.197,"rank":13900,"indentLevel":2,"foodNutrientId":34440608},{"nutrientId":1271,"nutrientName":"PUFA 20:4","nutrientNumber":"620","unitName":"G","value":0,"rank":14700,"indentLevel":2,"foodNutrientId":34440609},{"nutrientId":1272,"nutrientName":"PUFA 22:6 n-3 (DHA)","nutrientNumber":"621","unitName":"G","value":0,"rank":15300,"indentLevel":2,"foodNutrientId":34440610},{"nutrientId":1275,"nutrientName":"MUFA 16:1","nutrientNumber":"626","unitName":"G","value":0.018,"rank":11700,"indentLevel":2,"foodNutrientId":34440611},{"nutrientId":1276,"nutrientName":"PUFA 18:4","nutrientNumber":"627","unitName":"G","value":0,"rank":14250,"indentLevel":2,"foodNutrientId":34440612},{"nutrientId":1277,"nutrientName":"MUFA 20:1","nutrientNumber":"628","unitName":"G","value":0.029,"rank":12400,"indentLevel":2,"foodNutrientId":34440613},{"nutrientId":1278,"nutrientName":"PUFA 20:5 n-3 (EPA)","nutrientNumber":"629","unitName":"G","value":0,"rank":15000,"indentLevel":2,"foodNutrientId":34440614},{"nutrientId":1279,"nutrientName":"MUFA 22:1","nutrientNumber":"630","unitName":"G","value":0,"rank":12500,"indentLevel":2,"foodNutrientId":34440615},{"nutrientId":1280,"nutrientName":"PUFA 22:5 n-3 (DPA)","nutrientNumber":"631","unitName":"G","value":0,"rank":15200,"indentLevel":2,"foodNutrientId":34440616},{"nutrientId":1292,"nutrientName":"Fatty acids, total monounsaturated","nutrientNumber":"645","unitName":"G","value":1.893,"rank":11400,"indentLevel":1,"foodNutrientId":34440617},{"nutrientId":1293,"nutrientName":"Fatty acids, total polyunsaturated","nutrientNumber":"646","unitName":"G","value":1.732,"rank":12900,"indentLevel":1,"foodNutrientId":34440618}],"finalFoodInputFoods":[{"foodDescription":"Vegetables as ingredient in curry","gramWeight":60,"id":141183,"portionCode":"0","portionDescription":"NONE","unit":"GM","rank":2,"retentionCode":0,"srCode":99997810,"value":60.0},{"foodDescription":"Vegetable oil, NFS","gramWeight":2,"id":141184,"portionCode":"0","portionDescription":"NONE","unit":"GM","rank":3,"retentionCode":0,"srCode":82101000,"value":2.0},{"foodDescription":"Salt, table","gramWeight":0.6,"id":141185,"portionCode":"0","portionDescription":"NONE","unit":"GM","rank":4,"retentionCode":0,"srCode":2047,"value":0.6},{"foodDescription":"Curry sauce","gramWeight":40,"id":141182,"portionCode":"0","portionDescription":"NONE","unit":"GM","rank":1,"retentionCode":0,"srCode":81312100,"value":40.0}],"foodMeasures":[{"disseminationText":"1 cup","gramWeight":240,"id":309119,"modifier":"10205","rank":1,"measureUnitAbbreviation":"undetermined","measureUnitName":"undetermined","measureUnitId":9999},{"disseminationText":"Quantity not specified","gramWeight":240,"id":309120,"modifier":"90000","rank":2,"measureUnitAbbreviation":"undetermined","measureUnitName":"undetermined","measureUnitId":9999}],"foodAttributes":[{"value":"Moisture change: 0%","id":3323507},{"value":"Vegetable dishes","name":"WWEIA Category description","id":3307682},{"value":"3104","name":"WWEIA Category number","id":3307681}],"foodAttributeTypes":[{"name":"Adjustments","description":"Adjustments made to foods, including moisture changes","id":1002,"foodAttributes":[{"value":"Moisture change: 0%","id":3323507}]},{"name":"Attribute","description":"Generic attributes","id":999,"foodAttributes":[{"value":"Vegetable dishes","name":"WWEIA Category description","id":3307682},{"value":"3104","name":"WWEIA Category number","id":3307681}]}],"foodVersionIds":[]}],"aggregations":{"dataType":{"Branded":106934,"Survey (FNDDS)":972,"SR Legacy":940,"Foundation":78,"Experimental":2},"nutrients":{}}}
