{"totalHits":13254,"currentPage":1,"totalPages":13254,"pageList":[1,2,3,4,5,6,7,8,9,10],"foodSearchCriteria":{"query":"Garden Salad","generalSearchInput":"Garden Salad","pageNumber":1,"numberOfResultsPerPage":50,"pageSize":1,"requireAllWords":false},"foods":[{"fdcId":2291154,"description":"GARDEN SALAD","dataType":"Branded","gtinUpc":"846379013766","publishedDate":"2022-05-23","brandOwner":"The CLH Group USA, Inc.","brandName":"TAYLOR","ingredients":"ICEBERG LETTUCE, BUTTERMILK RANCH DRESSING (SOYBEAN OIL, BUTTERMILK [CULTURED PASTEURIZED SKIM MILK AND MILK. SODIUM CITRATE ANS SALT], WATER, DISTILLED VINEGAR, HIGH FRUCTOSE CORN SYRUP, SALT. CONTAINS LESS THAN 2% OF: EGG YOLK, DEHYDRATED GARLIC, DEHYDRATED ONION, MONOSODIUM GLUTAMATE, POLYSORBATE 60, TORULA YEAST, SODIUM BENZOATE AND POTASSIUM SORBATE, [AS PRESERVATIVES], XANTHAN GUM, SWEET CREAM [CREAM, SOY LECITHIN], SPICE, LACTIC ACID, DEHYDRATED PARSLEY, PHOSPHORIC ACID, DISODIUM INOSINATE AND DISODIUM GUANYLATE, CALCIUM DISODIUM EDTA ADDED TO PROTECT FLAVOR), GRAPE TOMATO, CHEDDAR CHEESE (MILK, CHEESE CULTURES, SALT, ENZYMES AND ANNATTO COLOR), HARD COOKED EGGS (EGGS, WATER, CITRIC ACID, SODIUM BENZOATE), CUCUMBER, CARROT.","marketCountry":"United States","foodCategory":"Pickles, Olives, Peppers & Relishes","modifiedDate":"2017-07-14","dataSource":"LI","packageWeight":"12.5 oz/354 g","servingSizeUnit":"g","servingSize":354.0,"householdServingFullText":"1 CONTAINER","shortDescription":"","tradeChannels":["NO_TRADE_CHANNEL"],"allHighlightFields":"","score":1369.3656,"microbes":[],"foodNutrients":[{"nutrientId":1257,"nutrientName":"Fatty acids, total trans","nutrientNumber":"605","unitName":"G","derivationCode":"LCCS","derivationDescription":"Calculated from value per serving size measure","derivationId":70,"value":0.0,"foodNutrientSourceId":9,"foodNutrientSourceCode":"12","foodNutrientSourceDescription":"Manufacturer's analytical; partial documentation","rank":15400,"indentLevel":1,"foodNutrientId":28142652}],"finalFoodInputFoods":[],"foodMeasures":[],"foodAttributes":[],"foodAttributeTypes":[],"foodVersionIds":[]}],"aggregations":{"dataType":{"Branded":12901,"Survey (FNDDS)":256,"SR Legacy":96,"Experimental":1},"nutrients":{}}}
