{"totalHits":10470,"currentPage":1,"totalPages":10470,"pageList":[1,2,3,4,5,6,7,8,9,10],"foodSearchCriteria":{"query":"Fish Stew","generalSearchInput":"Fish Stew","pageNumber":1,"numberOfResultsPerPage":50,"pageSize":1,"requireAllWords":false},"foods":[{"fdcId":2706466,"description":"Stew, fish","commonNames":"","additionalDescriptions":"guisada;goulash","dataType":"Survey (FNDDS)","foodCode":27151070,"publishedDate":"2024-10-31","foodCategory":"Seafood mixed dishes","foodCategoryId":3300480,"allHighlightFields":"","score":873.9072,"microbes":[],"foodNutrients":[{"nutrientId":1003,"nutrientName":"Protein","nutrientNumber":"203","unitName":"G","value":7.63,"rank":600,"indentLevel":1,"foodNutrientId":34206489},{"nutrientId":1004,"nutrientName":"Total lipid (fat)","nutrientNumber":"204","unitName":"G","value":0.42,"rank":800,"indentLevel":1,"foodNutrientId":34206490},{"nutrientId":1005,"nutrientName":"Carbohydrate, by difference","nutrientNumber":"205","unitName":"G","value":2.75,"rank":1110,"indentLevel":2,"foodNutrientId":34206491},{"nutrientId":1008,"nutrientName":"Energy","nutrientNumber":"208","unitName":"KCAL","value":46,"rank":300,"indentLevel":1,"foodNutrientId":34206492},{"nutrientId":1018,"nutrientName":"Alcohol, ethyl","nutrientNumber":"221","unitName":"G","value":0,"rank":18200,"indentLevel":1,"foodNutrientId":34206493},{"nutrientId":1051,"nutrientName":"Water","nutrientNumber":"255","unitName":"G","value":88.08,"rank":100,"indentLevel":1,"foodNutrientId":34206494},{"nutrientId":1057,"nutrientName":"Caffeine","nutrientNumber":"262","unitName":"MG","value":0,"rank":18300,"indentLevel":0,"foodNutrientId":34206495},{"nutrientId":1058,"nutrientName":"Theobromine","nutrientNumber":"263","unitName":"MG","value":0,"rank":18400,"indentLevel":0,"foodNutrientId":34206496},{"nutrientId":2000,"nutrientName":"Total Sugars","nutrientNumber":"269","unitName":"G","value":0.63,"rank":1510,"indentLevel":3,"foodNutrientId":34206497},{"nutrientId":1079,"nutrientName":"Fiber, total dietary","nutrientNumber":"291","unitName":"G","value":0.5,"rank":1200,"indentLevel":3,"foodNutrientId":34206498},{"nutrientId":1087,"nutrientName":"Calcium, Ca","nutrientNumber":"301","unitName":"MG","value":22,"rank":5300,"indentLevel":1,"foodNutrientId":34206499},{"nutrientId":1089,"nutrientName":"Iron, Fe","nutrientNumber":"303","unitName":"MG","value":0.19,"rank":5400,"indentLevel":1,"foodNutrientId":34206500},{"nutrientId":1090,"nutrientName":"Magnesium, Mg","nutrientNumber":"304","unitName":"MG","value":15,"rank":5500,"indentLevel":1,"foodNutrientId":34206501},{"nutrientId":1091,"nutrientName":"Phosphorus, P","nutrientNumber":"305","unitName":"MG","value":132,"rank":5600,"indentLevel":1,"foodNutrientId":34206502},{"nutrientId":1092,"nutrientName":"Potassium, K","nutrientNumber":"306","unitName":"MG","value":157,"rank":5700,"indentLevel":1,"foodNutrientId":34206503},{"nutrientId":1093,"nutrientName":"Sodium, Na","nutrientNumber":"307","unitName":"MG","value":273,"rank":5800,"indentLevel":1,"foodNutrientId":34206504},{"nutrientId":1095,"nutrientName":"Zinc, Zn","nutrientNumber":"309","unitName":"MG","value":0.4,"rank":5900,"indentLevel":1,"foodNutrientId":34206505},{"nutrientId":1098,"nutrientName":"Copper, Cu","nutrientNumber":"312","unitName":"MG","value":0.074,"rank":6000,"indentLevel":1,"foodNutrientId":34206506},{"nutrientId":1103,"nutrientName":"Selenium, Se","nutrientNumber":"317","unitName":"UG","value":13.4,"rank":6200,"indentLevel":1,"foodNutrientId":34206507},{"nutrientId":1105,"nutrientName":"Retinol","nutrientNumber":"319","unitName":"UG","value":16,"rank":7430,"indentLevel":2,"foodNutrientId":34206508},{"nutrientId":1106,"nutrientName":"Vitamin A, RAE","nutrientNumber":"320","unitName":"UG","value":67,"rank":7420,"indentLevel":1,"foodNutrientId":34206509},{"nutrientId":1107,"nutrientName":"Carotene, beta","nutrientNumber":"321","unitName":"UG","value":515,"rank":7440,"indentLevel":2,"foodNutrientId":34206510},{"nutrientId":1108,"nutrientName":"Carotene, alpha","nutrientNumber":"322","unitName":"UG","value":207,"rank":7450,"indentLevel":2,"foodNutrientId":34206511},{"nutrientId":1109,"nutrientName":"Vitamin E (alpha-tocopherol)","nutrientNumber":"323","unitName":"MG","value":0.52,"rank":7905,"indentLevel":1,"foodNutrientId":34206512},{"nutrientId":1114,"nutrientName":"Vitamin D (D2 + D3)","nutrientNumber":"328","unitName":"UG","value":0.1,"rank":8700,"indentLevel":1,"foodNutrientId":34206513},{"nutrientId":1120,"nutrientName":"Cryptoxanthin, beta","nutrientNumber":"334","unitName":"UG","value":1,"rank":7460,"indentLevel":2,"foodNutrientId":34206514},{"nutrientId":1122,"nutrientName":"Lycopene","nutrientNumber":"337","unitName":"UG","value":217,"rank":7530,"indentLevel":1,"foodNutrientId":34206515},{"nutrientId":1123,"nutrientName":"Lutein + zeaxanthin","nutrientNumber":"338","unitName":"UG","value":63,"rank":7560,"indentLevel":1,"foodNutrientId":34206516},{"nutrientId":1162,"nutrientName":"Vitamin C, total ascorbic acid","nutrientNumber":"401","unitName":"MG","value":2.8,"rank":6300,"indentLevel":1,"foodNutrientId":34206517},{"nutrientId":1165,"nutrientName":"Thiamin","nutrientNumber":"404","unitName":"MG","value":0.022,"rank":6400,"indentLevel":1,"foodNutrientId":34206518},{"nutrientId":1166,"nutrientName":"Riboflavin","nutrientNumber":"405","unitName":"MG","value":0.032,"rank":6500,"indentLevel":1,"foodNutrientId":34206519},{"nutrientId":1167,"nutrientName":"Niacin","nutrientNumber":"406","unitName":"MG","value":1.34,"rank":6600,"indentLevel":1,"foodNutrientId":34206520},{"nutrientId":1175,"nutrientName":"Vitamin B-6","nutrientNumber":"415","unitName":"MG","value":0.115,"rank":6800,"indentLevel":1,"foodNutrientId":34206521},{"nutrientId":1177,"nutrientName":"Folate, total","nutrientNumber":"417","unitName":"UG","value":11,"rank":6900,"indentLevel":1,"foodNutrientId":34206522},{"nutrientId":1178,"nutrientName":"Vitamin B-12","nutrientNumber":"418","unitName":"UG","value":0.64,"rank":7300,"indentLevel":1,"foodNutrientId":34206523},{"nutrientId":1180,"nutrientName":"Choline, total","nutrientNumber":"421","unitName":"MG","value":39.2,"rank":7220,"indentLevel":1,"foodNutrientId":34206524},{"nutrientId":1185,"nutrientName":"Vitamin K (phylloquinone)","nutrientNumber":"430","unitName":"UG","value":2.3,"rank":8800,"indentLevel":1,"foodNutrientId":34206525},{"nutrientId":1186,"nutrientName":"Folic acid","nutrientNumber":"431","unitName":"UG","value":0,"rank":7000,"indentLevel":0,"foodNutrientId":34206526},{"nutrientId":1187,"nutrientName":"Folate, food","nutrientNumber":"432","unitName":"UG","value":11,"rank":7100,"indentLevel":1,"foodNutrientId":34206527},{"nutrientId":1190,"nutrientName":"Folate, DFE","nutrientNumber":"435","unitName":"UG","value":11,"rank":7200,"indentLevel":1,"foodNutrientId":34206528},{"nutrientId":1242,"nutrientName":"Vitamin E, added","nutrientNumber":"573","unitName":"MG","value":0,"rank":7920,"indentLevel":0,"foodNutrientId":34206529},{"nutrientId":1246,"nutrientName":"Vitamin B-12, added","nutrientNumber":"578","unitName":"UG","value":0,"rank":7340,"indentLevel":0,"foodNutrientId":34206530},{"nutrientId":1253,"nutrientName":"Cholesterol","nutrientNumber":"601","unitName":"MG","value":45,"rank":15700,"indentLevel":1,"foodNutrientId":34206531},{"nutrientId":1258,"nutrientName":"Fatty acids, total saturated","nutrientNumber":"606","unitName":"G","value":0.099,"rank":9700,"indentLevel":1,"foodNutrientId":34206532},{"nutrientId":1259,"nutrientName":"SFA 4:0","nutrientNumber":"607","unitName":"G","value":0,"rank":9800,"indentLevel":2,"foodNutrientId":34206533},{"nutrientId":1260,"nutrientName":"SFA 6:0","nutrientNumber":"608","unitName":"G","value":0,"rank":9900,"indentLevel":2,"foodNutrientId":34206534},{"nutrientId":1261,"nutrientName":"SFA 8:0","nutrientNumber":"609","unitName":"G","value":0,"rank":10000,"indentLevel":2,"foodNutrientId":34206535},{"nutrientId":1262,"nutrientName":"SFA 10:0","nutrientNumber":"610","unitName":"G","value":0,"rank":10100,"indentLevel":2,"foodNutrientId":34206536},{"nutrientId":1263,"nutrientName":"SFA 12:0","nutrientNumber":"611","unitName":"G","value":0.002,"rank":10300,"indentLevel":2,"foodNutrientId":34206537},{"nutrientId":1264,"nutrientName":"SFA 14:0","nutrientNumber":"612","unitName":"G","value":0.004,"rank":10500,"indentLevel":2,"foodNutrientId":34206538},{"nutrientId":1265,"nutrientName":"SFA 16:0","nutrientNumber":"613","unitName":"G","value":0.06,"rank":10700,"indentLevel":2,"foodNutrientId":34206539},{"nutrientId":1266,"nutrientName":"SFA 18:0","nutrientNumber":"614","unitName":"G","value":0.026,"rank":10900,"indentLevel":2,"foodNutrientId":34206540},{"nutrientId":1268,"nutrientName":"MUFA 18:1","nutrientNumber":"617","unitName":"G","value":0.042,"rank":12100,"indentLevel":2,"foodNutrientId":34206541},{"nutrientId":1269,"nutrientName":"PUFA 18:2","nutrientNumber":"618","unitName":"G","value":0.043,"rank":13100,"indentLevel":2,"foodNutrientId":34206542},{"nutrientId":1270,"nutrientName":"PUFA 18:3","nutrientNumber":"619","unitName":"G","value":0.005,"rank":13900,"indentLevel":2,"foodNutrientId":34206543},{"nutrientId":1271,"nutrientName":"PUFA 20:4","nutrientNumber":"620","unitName":"G","value":0.011,"rank":14700,"indentLevel":2,"foodNutrientId":34206544},{"nutrientId":1272,"nutrientName":"PUFA 22:6 n-3 (DHA)","nutrientNumber":"621","unitName":"G","value":0.042,"rank":15300,"indentLevel":2,"foodNutrientId":34206545},{"nutrientId":1275,"nutrientName":"MUFA 16:1","nutrientNumber":"626","unitName":"G","value":0.006,"rank":11700,"indentLevel":2,"foodNutrientId":34206546},{"nutrientId":1276,"nutrientName":"PUFA 18:4","nutrientNumber":"627","unitName":"G","value":0,"rank":14250,"indentLevel":2,"foodNutrientId":34206547},{"nutrientId":1277,"nutrientName":"MUFA 20:1","nutrientNumber":"628","unitName":"G","value":0.002,"rank":12400,"indentLevel":2,"foodNutrientId":34206548},{"nutrientId":1278,"nutrientName":"PUFA 20:5 n-3 (EPA)","nutrientNumber":"629","unitName":"G","value":0.028,"rank":15000,"indentLevel":2,"foodNutrientId":34206549},{"nutrientId":1279,"nutrientName":"MUFA 22:1","nutrientNumber":"630","unitName":"G","value":0,"rank":12500,"indentLevel":2,"foodNutrientId":34206550},{"nutrientId":1280,"nutrientName":"PUFA 22:5 n-3 (DPA)","nutrientNumber":"631","unitName":"G","value":0.003,"rank":15200,"indentLevel":2,"foodNutrientId":34206551},{"nutrientId":1292,"nutrientName":"Fatty acids, total monounsaturated","nutrientNumber":"645","unitName":"G","value":0.065,"rank":11400,"indentLevel":1,"foodNutrientId":34206552},{"nutrientId":1293,"nutrientName":"Fatty acids, total polyunsaturated","nutrientNumber":"646","unitName":"G","value":0.134,"rank":12900,"indentLevel":1,"foodNutrientId":34206553}],"finalFoodInputFoods":[{"foodDescription":"Shrimp, steamed or boiled","gramWeight":20,"id":127128,"portionCode":"0","portionDescription":"NONE","unit":"GM","rank":4,"retentionCode":0,"srCode":26319130,"value":20.0},{"foodDescription":"Fish, cooked, as ingredient","gramWeight":20,"id":127127,"portionCode":"0","portionDescription":"NONE","unit":"GM","rank":3,"retentionCode":0,"srCode":99992600,"value":20.0},{"foodDescription":"Vegetables as ingredient in stews","gramWeight":20,"id":127126,"portionCode":"0","portionDescription":"NONE","unit":"GM","rank":2,"retentionCode":0,"srCode":99997820,"value":20.0},{"foodDescription":"Salt, table","gramWeight":0.5,"id":127129,"portionCode":"0","portionDescription":"NONE","unit":"GM","rank":5,"retentionCode":0,"srCode":2047,"value":0.5},{"foodDescription":"Beverages, water, tap, drinking","gramWeight":40,"id":127125,"portionCode":"0","portionDescription":"NONE","unit":"GM","rank":1,"retentionCode":0,"srCode":14411,"value":40.0}],"foodMeasures":[{"disseminationText":"Quantity not specified","gramWeight":255,"id":295383,"modifier":"90000","rank":2,"measureUnitAbbreviation":"undetermined","measureUnitName":"undetermined","measureUnitId":9999},{"disseminationText":"1 cup","gramWeight":255,"id":295382,"modifier":"10205","rank":1,"measureUnitAbbreviation":"undetermined","measureUnitName":"undetermined","measureUnitId":9999}],"foodAttributes":[{"value":"Moisture change: 0%","id":3319906},{"value":"3006","name":"WWEIA Category number","id":3300479},{"value":"guisada","id":3311002,"sequenceNumber":4},{"value":"Seafood mixed dishes","name":"WWEIA Category description","id":3300480},{"value":"goulash","id":3311001,"sequenceNumber":3}],"foodAttributeTypes":[{"name":"Additional Description","description":"Additional descriptions for the food.","id":1001,"foodAttributes":[{"value":"guisada","id":3311002,"sequenceNumber":4},{"value":"goulash","id":3311001,"sequenceNumber":3}]},{"name":"Adjustments","description":"Adjustments made to foods, including moisture changes","id":1002,"foodAttributes":[{"value":"Moisture change: 0%","id":3319906}]},{"name":"Attribute","description":"Generic attributes","id":999,"foodAttributes":[{"value":"3006","name":"WWEIA Category number","id":3300479},{"value":"Seafood mixed dishes","name":"WWEIA Category description","id":3300480}]}],"foodVersionIds":[]}],"aggregations":{"dataType":{"Branded":9892,"SR Legacy":328,"Survey (FNDDS)":241,"Foundation":8,"Experimental":1},"nutrients":{}}}
