{"totalHits":2906,"currentPage":1,"totalPages":2906,"pageList":[1,2,3,4,5,6,7,8,9,10],"foodSearchCriteria":{"query":"Stuffed Paratha","generalSearchInput":"Stuffed Paratha","pageNumber":1,"numberOfResultsPerPage":50,"pageSize":1,"requireAllWords":false},"foods":[{"fdcId":2707715,"description":"Bread, paratha","commonNames":"","additionalDescriptions":"Indian","dataType":"Survey (FNDDS)","foodCode":51300185,"publishedDate":"2024-10-31","foodCategory":"Yeast breads","foodCategoryId":3302978,"allHighlightFields":"","score":764.4001,"microbes":[],"foodNutrients":[{"nutrientId":1003,"nutrientName":"Protein","nutrientNumber":"203","unitName":"G","value":6.36,"rank":600,"indentLevel":1,"foodNutrientId":34287674},{"nutrientId":1004,"nutrientName":"Total lipid (fat)","nutrientNumber":"204","unitName":"G","value":13.2,"rank":800,"indentLevel":1,"foodNutrientId":34287675},{"nutrientId":1005,"nutrientName":"Carbohydrate, by difference","nutrientNumber":"205","unitName":"G","value":45.35,"rank":1110,"indentLevel":2,"foodNutrientId":34287676},{"nutrientId":1008,"nutrientName":"Energy","nutrientNumber":"208","unitName":"KCAL","value":326,"rank":300,"indentLevel":1,"foodNutrientId":34287677},{"nutrientId":1018,"nutrientName":"Alcohol, ethyl","nutrientNumber":"221","unitName":"G","value":0,"rank":18200,"indentLevel":1,"foodNutrientId":34287678},{"nutrientId":1051,"nutrientName":"Water","nutrientNumber":"255","unitName":"G","value":33.5,"rank":100,"indentLevel":1,"foodNutrientId":34287679},{"nutrientId":1057,"nutrientName":"Caffeine","nutrientNumber":"262","unitName":"MG","value":0,"rank":18300,"indentLevel":0,"foodNutrientId":34287680},{"nutrientId":1058,"nutrientName":"Theobromine","nutrientNumber":"263","unitName":"MG","value":0,"rank":18400,"indentLevel":0,"foodNutrientId":34287681},{"nutrientId":2000,"nutrientName":"Total Sugars","nutrientNumber":"269","unitName":"G","value":4.15,"rank":1510,"indentLevel":3,"foodNutrientId":34287682},{"nutrientId":1079,"nutrientName":"Fiber, total dietary","nutrientNumber":"291","unitName":"G","value":9.6,"rank":1200,"indentLevel":3,"foodNutrientId":34287683},{"nutrientId":1087,"nutrientName":"Calcium, Ca","nutrientNumber":"301","unitName":"MG","value":25,"rank":5300,"indentLevel":1,"foodNutrientId":34287684},{"nutrientId":1089,"nutrientName":"Iron, Fe","nutrientNumber":"303","unitName":"MG","value":1.61,"rank":5400,"indentLevel":1,"foodNutrientId":34287685},{"nutrientId":1090,"nutrientName":"Magnesium, Mg","nutrientNumber":"304","unitName":"MG","value":37,"rank":5500,"indentLevel":1,"foodNutrientId":34287686},{"nutrientId":1091,"nutrientName":"Phosphorus, P","nutrientNumber":"305","unitName":"MG","value":120,"rank":5600,"indentLevel":1,"foodNutrientId":34287687},{"nutrientId":1092,"nutrientName":"Potassium, K","nutrientNumber":"306","unitName":"MG","value":139,"rank":5700,"indentLevel":1,"foodNutrientId":34287688},{"nutrientId":1093,"nutrientName":"Sodium, Na","nutrientNumber":"307","unitName":"MG","value":452,"rank":5800,"indentLevel":1,"foodNutrientId":34287689},{"nutrientId":1095,"nutrientName":"Zinc, Zn","nutrientNumber":"309","unitName":"MG","value":0.82,"rank":5900,"indentLevel":1,"foodNutrientId":34287690},{"nutrientId":1098,"nutrientName":"Copper, Cu","nutrientNumber":"312","unitName":"MG","value":0.146,"rank":6000,"indentLevel":1,"foodNutrientId":34287691},{"nutrientId":1103,"nutrientName":"Selenium, Se","nutrientNumber":"317","unitName":"UG","value":7.1,"rank":6200,"indentLevel":1,"foodNutrientId":34287692},{"nutrientId":1105,"nutrientName":"Retinol","nutrientNumber":"319","unitName":"UG","value":2,"rank":7430,"indentLevel":2,"foodNutrientId":34287693},{"nutrientId":1106,"nutrientName":"Vitamin A, RAE","nutrientNumber":"320","unitName":"UG","value":2,"rank":7420,"indentLevel":1,"foodNutrientId":34287694},{"nutrientId":1107,"nutrientName":"Carotene, beta","nutrientNumber":"321","unitName":"UG","value":0,"rank":7440,"indentLevel":2,"foodNutrientId":34287695},{"nutrientId":1108,"nutrientName":"Carotene, alpha","nutrientNumber":"322","unitName":"UG","value":0,"rank":7450,"indentLevel":2,"foodNutrientId":34287696},{"nutrientId":1109,"nutrientName":"Vitamin E (alpha-tocopherol)","nutrientNumber":"323","unitName":"MG","value":1.35,"rank":7905,"indentLevel":1,"foodNutrientId":34287697},{"nutrientId":1114,"nutrientName":"Vitamin D (D2 + D3)","nutrientNumber":"328","unitName":"UG","value":0,"rank":8700,"indentLevel":1,"foodNutrientId":34287698},{"nutrientId":1120,"nutrientName":"Cryptoxanthin, beta","nutrientNumber":"334","unitName":"UG","value":0,"rank":7460,"indentLevel":2,"foodNutrientId":34287699},{"nutrientId":1122,"nutrientName":"Lycopene","nutrientNumber":"337","unitName":"UG","value":0,"rank":7530,"indentLevel":1,"foodNutrientId":34287700},{"nutrientId":1123,"nutrientName":"Lutein + zeaxanthin","nutrientNumber":"338","unitName":"UG","value":11,"rank":7560,"indentLevel":1,"foodNutrientId":34287701},{"nutrientId":1162,"nutrientName":"Vitamin C, total ascorbic acid","nutrientNumber":"401","unitName":"MG","value":0,"rank":6300,"indentLevel":1,"foodNutrientId":34287702},{"nutrientId":1165,"nutrientName":"Thiamin","nutrientNumber":"404","unitName":"MG","value":0.088,"rank":6400,"indentLevel":1,"foodNutrientId":34287703},{"nutrientId":1166,"nutrientName":"Riboflavin","nutrientNumber":"405","unitName":"MG","value":0.076,"rank":6500,"indentLevel":1,"foodNutrientId":34287704},{"nutrientId":1167,"nutrientName":"Niacin","nutrientNumber":"406","unitName":"MG","value":1.83,"rank":6600,"indentLevel":1,"foodNutrientId":34287705},{"nutrientId":1175,"nutrientName":"Vitamin B-6","nutrientNumber":"415","unitName":"MG","value":0.08,"rank":6800,"indentLevel":1,"foodNutrientId":34287706},{"nutrientId":1177,"nutrientName":"Folate, total","nutrientNumber":"417","unitName":"UG","value":8,"rank":6900,"indentLevel":1,"foodNutrientId":34287707},{"nutrientId":1178,"nutrientName":"Vitamin B-12","nutrientNumber":"418","unitName":"UG","value":0,"rank":7300,"indentLevel":1,"foodNutrientId":34287708},{"nutrientId":1180,"nutrientName":"Choline, total","nutrientNumber":"421","unitName":"MG","value":6.3,"rank":7220,"indentLevel":1,"foodNutrientId":34287709},{"nutrientId":1185,"nutrientName":"Vitamin K (phylloquinone)","nutrientNumber":"430","unitName":"UG","value":3.4,"rank":8800,"indentLevel":1,"foodNutrientId":34287710},{"nutrientId":1186,"nutrientName":"Folic acid","nutrientNumber":"431","unitName":"UG","value":0,"rank":7000,"indentLevel":0,"foodNutrientId":34287711},{"nutrientId":1187,"nutrientName":"Folate, food","nutrientNumber":"432","unitName":"UG","value":8,"rank":7100,"indentLevel":1,"foodNutrientId":34287712},{"nutrientId":1190,"nutrientName":"Folate, DFE","nutrientNumber":"435","unitName":"UG","value":8,"rank":7200,"indentLevel":1,"foodNutrientId":34287713},{"nutrientId":1242,"nutrientName":"Vitamin E, added","nutrientNumber":"573","unitName":"MG","value":0,"rank":7920,"indentLevel":0,"foodNutrientId":34287714},{"nutrientId":1246,"nutrientName":"Vitamin B-12, added","nutrientNumber":"578","unitName":"UG","value":0,"rank":7340,"indentLevel":0,"foodNutrientId":34287715},{"nutrientId":1253,"nutrientName":"Cholesterol","nutrientNumber":"601","unitName":"MG","value":1,"rank":15700,"indentLevel":1,"foodNutrientId":34287716},{"nutrientId":1258,"nutrientName":"Fatty acids, total saturated","nutrientNumber":"606","unitName":"G","value":5.826,"rank":9700,"indentLevel":1,"foodNutrientId":34287717},{"nutrientId":1259,"nutrientName":"SFA 4:0","nutrientNumber":"607","unitName":"G","value":0,"rank":9800,"indentLevel":2,"foodNutrientId":34287718},{"nutrientId":1260,"nutrientName":"SFA 6:0","nutrientNumber":"608","unitName":"G","value":0,"rank":9900,"indentLevel":2,"foodNutrientId":34287719},{"nutrientId":1261,"nutrientName":"SFA 8:0","nutrientNumber":"609","unitName":"G","value":0.004,"rank":10000,"indentLevel":2,"foodNutrientId":34287720},{"nutrientId":1262,"nutrientName":"SFA 10:0","nutrientNumber":"610","unitName":"G","value":0.016,"rank":10100,"indentLevel":2,"foodNutrientId":34287721},{"nutrientId":1263,"nutrientName":"SFA 12:0","nutrientNumber":"611","unitName":"G","value":0.051,"rank":10300,"indentLevel":2,"foodNutrientId":34287722},{"nutrientId":1264,"nutrientName":"SFA 14:0","nutrientNumber":"612","unitName":"G","value":0.113,"rank":10500,"indentLevel":2,"foodNutrientId":34287723},{"nutrientId":1265,"nutrientName":"SFA 16:0","nutrientNumber":"613","unitName":"G","value":4.897,"rank":10700,"indentLevel":2,"foodNutrientId":34287724},{"nutrientId":1266,"nutrientName":"SFA 18:0","nutrientNumber":"614","unitName":"G","value":0.644,"rank":10900,"indentLevel":2,"foodNutrientId":34287725},{"nutrientId":1268,"nutrientName":"MUFA 18:1","nutrientNumber":"617","unitName":"G","value":3.788,"rank":12100,"indentLevel":2,"foodNutrientId":34287726},{"nutrientId":1269,"nutrientName":"PUFA 18:2","nutrientNumber":"618","unitName":"G","value":2.407,"rank":13100,"indentLevel":2,"foodNutrientId":34287727},{"nutrientId":1270,"nutrientName":"PUFA 18:3","nutrientNumber":"619","unitName":"G","value":0.069,"rank":13900,"indentLevel":2,"foodNutrientId":34287728},{"nutrientId":1271,"nutrientName":"PUFA 20:4","nutrientNumber":"620","unitName":"G","value":0.003,"rank":14700,"indentLevel":2,"foodNutrientId":34287729},{"nutrientId":1272,"nutrientName":"PUFA 22:6 n-3 (DHA)","nutrientNumber":"621","unitName":"G","value":0,"rank":15300,"indentLevel":2,"foodNutrientId":34287730},{"nutrientId":1275,"nutrientName":"MUFA 16:1","nutrientNumber":"626","unitName":"G","value":0.017,"rank":11700,"indentLevel":2,"foodNutrientId":34287731},{"nutrientId":1276,"nutrientName":"PUFA 18:4","nutrientNumber":"627","unitName":"G","value":0,"rank":14250,"indentLevel":2,"foodNutrientId":34287732},{"nutrientId":1277,"nutrientName":"MUFA 20:1","nutrientNumber":"628","unitName":"G","value":0.027,"rank":12400,"indentLevel":2,"foodNutrientId":34287733},{"nutrientId":1278,"nutrientName":"PUFA 20:5 n-3 (EPA)","nutrientNumber":"629","unitName":"G","value":0,"rank":15000,"indentLevel":2,"foodNutrientId":34287734},{"nutrientId":1279,"nutrientName":"MUFA 22:1","nutrientNumber":"630","unitName":"G","value":0.001,"rank":12500,"indentLevel":2,"foodNutrientId":34287735},{"nutrientId":1280,"nutrientName":"PUFA 22:5 n-3 (DPA)","nutrientNumber":"631","unitName":"G","value":0,"rank":15200,"indentLevel":2,"foodNutrientId":34287736},{"nutrientId":1292,"nutrientName":"Fatty acids, total monounsaturated","nutrientNumber":"645","unitName":"G","value":3.837,"rank":11400,"indentLevel":1,"foodNutrientId":34287737},{"nutrientId":1293,"nutrientName":"Fatty acids, total polyunsaturated","nutrientNumber":"646","unitName":"G","value":2.484,"rank":12900,"indentLevel":1,"foodNutrientId":34287738}],"finalFoodInputFoods":[{"foodDescription":"Bread, paratha, whole wheat, commercially prepared, frozen","gramWeight":100,"id":132828,"portionCode":"0","portionDescription":"NONE","unit":"GM","rank":1,"retentionCode":306,"srCode":28286,"value":100}],"foodMeasures":[{"disseminationText":"Quantity not specified","gramWeight":70,"id":299430,"modifier":"90000","rank":2,"measureUnitAbbreviation":"undetermined","measureUnitName":"undetermined","measureUnitId":9999},{"disseminationText":"1 paratha","gramWeight":70,"id":299429,"modifier":"64503","rank":1,"measureUnitAbbreviation":"undetermined","measureUnitName":"undetermined","measureUnitId":9999}],"foodAttributes":[{"value":"Moisture change: 0%","id":3321155},{"value":"Indian","id":3312862,"sequenceNumber":2},{"value":"4202","name":"WWEIA Category number","id":3302977},{"value":"Yeast breads","name":"WWEIA Category description","id":3302978}],"foodAttributeTypes":[{"name":"Additional Description","description":"Additional descriptions for the food.","id":1001,"foodAttributes":[{"value":"Indian","id":3312862,"sequenceNumber":2}]},{"name":"Adjustments","description":"Adjustments made to foods, including moisture changes","id":1002,"foodAttributes":[{"value":"Moisture change: 0%","id":3321155}]},{"name":"Attribute","description":"Generic attributes","id":999,"foodAttributes":[{"value":"4202","name":"WWEIA Category number","id":3302977},{"value":"Yeast breads","name":"WWEIA Category description","id":3302978}]}],"foodVersionIds":[]}],"aggregations":{"dataType":{"Branded":2823,"Survey (FNDDS)":67,"SR Legacy":15,"Foundation":1},"nutrients":{}}}
