{"totalHits":42303,"currentPage":1,"totalPages":42303,"pageList":[1,2,3,4,5,6,7,8,9,10],"foodSearchCriteria":{"query":"Refried Beans","generalSearchInput":"Refried Beans","pageNumber":1,"numberOfResultsPerPage":50,"pageSize":1,"requireAllWords":false},"foods":[{"fdcId":2707396,"description":"Refried beans","commonNames":"","additionalDescriptions":"with or without fat;canned;refried beans, NFS;NS as to meat","dataType":"Survey (FNDDS)","foodCode":41205010,"publishedDate":"2024-10-31","foodCategory":"Beans, peas, legumes","foodCategoryId":3302340,"allHighlightFields":"<b>Includes</b>: with or without fat;canned;<em>refried</em> <em>beans</em>, NFS;NS as to meat","score":1677.4648,"microbes":[],"foodNutrients":[{"nutrientId":1003,"nutrientName":"Protein","nutrientNumber":"203","unitName":"G","value":4.98,"rank":600,"indentLevel":1,"foodNutrientId":34266939},{"nutrientId":1004,"nutrientName":"Total lipid (fat)","nutrientNumber":"204","unitName":"G","value":2.01,"rank":800,"indentLevel":1,"foodNutrientId":34266940},{"nutrientId":1005,"nutrientName":"Carbohydrate, by difference","nutrientNumber":"205","unitName":"G","value":13.55,"rank":1110,"indentLevel":2,"foodNutrientId":34266941},{"nutrientId":1008,"nutrientName":"Energy","nutrientNumber":"208","unitName":"KCAL","value":90,"rank":300,"indentLevel":1,"foodNutrientId":34266942},{"nutrientId":1018,"nutrientName":"Alcohol, ethyl","nutrientNumber":"221","unitName":"G","value":0,"rank":18200,"indentLevel":1,"foodNutrientId":34266943},{"nutrientId":1051,"nutrientName":"Water","nutrientNumber":"255","unitName":"G","value":77.75,"rank":100,"indentLevel":1,"foodNutrientId":34266944},{"nutrientId":1057,"nutrientName":"Caffeine","nutrientNumber":"262","unitName":"MG","value":0,"rank":18300,"indentLevel":0,"foodNutrientId":34266945},{"nutrientId":1058,"nutrientName":"Theobromine","nutrientNumber":"263","unitName":"MG","value":0,"rank":18400,"indentLevel":0,"foodNutrientId":34266946},{"nutrientId":2000,"nutrientName":"Total Sugars","nutrientNumber":"269","unitName":"G","value":0.54,"rank":1510,"indentLevel":3,"foodNutrientId":34266947},{"nutrientId":1079,"nutrientName":"Fiber, total dietary","nutrientNumber":"291","unitName":"G","value":3.7,"rank":1200,"indentLevel":3,"foodNutrientId":34266948},{"nutrientId":1087,"nutrientName":"Calcium, Ca","nutrientNumber":"301","unitName":"MG","value":29,"rank":5300,"indentLevel":1,"foodNutrientId":34266949},{"nutrientId":1089,"nutrientName":"Iron, Fe","nutrientNumber":"303","unitName":"MG","value":1.44,"rank":5400,"indentLevel":1,"foodNutrientId":34266950},{"nutrientId":1090,"nutrientName":"Magnesium, Mg","nutrientNumber":"304","unitName":"MG","value":35,"rank":5500,"indentLevel":1,"foodNutrientId":34266951},{"nutrientId":1091,"nutrientName":"Phosphorus, P","nutrientNumber":"305","unitName":"MG","value":92,"rank":5600,"indentLevel":1,"foodNutrientId":34266952},{"nutrientId":1092,"nutrientName":"Potassium, K","nutrientNumber":"306","unitName":"MG","value":319,"rank":5700,"indentLevel":1,"foodNutrientId":34266953},{"nutrientId":1093,"nutrientName":"Sodium, Na","nutrientNumber":"307","unitName":"MG","value":370,"rank":5800,"indentLevel":1,"foodNutrientId":34266954},{"nutrientId":1095,"nutrientName":"Zinc, Zn","nutrientNumber":"309","unitName":"MG","value":0.58,"rank":5900,"indentLevel":1,"foodNutrientId":34266955},{"nutrientId":1098,"nutrientName":"Copper, Cu","nutrientNumber":"312","unitName":"MG","value":0.129,"rank":6000,"indentLevel":1,"foodNutrientId":34266956},{"nutrientId":1103,"nutrientName":"Selenium, Se","nutrientNumber":"317","unitName":"UG","value":5.8,"rank":6200,"indentLevel":1,"foodNutrientId":34266957},{"nutrientId":1105,"nutrientName":"Retinol","nutrientNumber":"319","unitName":"UG","value":0,"rank":7430,"indentLevel":2,"foodNutrientId":34266958},{"nutrientId":1106,"nutrientName":"Vitamin A, RAE","nutrientNumber":"320","unitName":"UG","value":0,"rank":7420,"indentLevel":1,"foodNutrientId":34266959},{"nutrientId":1107,"nutrientName":"Carotene, beta","nutrientNumber":"321","unitName":"UG","value":0,"rank":7440,"indentLevel":2,"foodNutrientId":34266960},{"nutrientId":1108,"nutrientName":"Carotene, alpha","nutrientNumber":"322","unitName":"UG","value":0,"rank":7450,"indentLevel":2,"foodNutrientId":34266961},{"nutrientId":1109,"nutrientName":"Vitamin E (alpha-tocopherol)","nutrientNumber":"323","unitName":"MG","value":0.09,"rank":7905,"indentLevel":1,"foodNutrientId":34266962},{"nutrientId":1114,"nutrientName":"Vitamin D (D2 + D3)","nutrientNumber":"328","unitName":"UG","value":0,"rank":8700,"indentLevel":1,"foodNutrientId":34266963},{"nutrientId":1120,"nutrientName":"Cryptoxanthin, beta","nutrientNumber":"334","unitName":"UG","value":0,"rank":7460,"indentLevel":2,"foodNutrientId":34266964},{"nutrientId":1122,"nutrientName":"Lycopene","nutrientNumber":"337","unitName":"UG","value":0,"rank":7530,"indentLevel":1,"foodNutrientId":34266965},{"nutrientId":1123,"nutrientName":"Lutein + zeaxanthin","nutrientNumber":"338","unitName":"UG","value":0,"rank":7560,"indentLevel":1,"foodNutrientId":34266966},{"nutrientId":1162,"nutrientName":"Vitamin C, total ascorbic acid","nutrientNumber":"401","unitName":"MG","value":5.7,"rank":6300,"indentLevel":1,"foodNutrientId":34266967},{"nutrientId":1165,"nutrientName":"Thiamin","nutrientNumber":"404","unitName":"MG","value":0.072,"rank":6400,"indentLevel":1,"foodNutrientId":34266968},{"nutrientId":1166,"nutrientName":"Riboflavin","nutrientNumber":"405","unitName":"MG","value":0.075,"rank":6500,"indentLevel":1,"foodNutrientId":34266969},{"nutrientId":1167,"nutrientName":"Niacin","nutrientNumber":"406","unitName":"MG","value":0.349,"rank":6600,"indentLevel":1,"foodNutrientId":34266970},{"nutrientId":1175,"nutrientName":"Vitamin B-6","nutrientNumber":"415","unitName":"MG","value":0.098,"rank":6800,"indentLevel":1,"foodNutrientId":34266971},{"nutrientId":1177,"nutrientName":"Folate, total","nutrientNumber":"417","unitName":"UG","value":10,"rank":6900,"indentLevel":1,"foodNutrientId":34266972},{"nutrientId":1178,"nutrientName":"Vitamin B-12","nutrientNumber":"418","unitName":"UG","value":0,"rank":7300,"indentLevel":1,"foodNutrientId":34266973},{"nutrientId":1180,"nutrientName":"Choline, total","nutrientNumber":"421","unitName":"MG","value":21.2,"rank":7220,"indentLevel":1,"foodNutrientId":34266974},{"nutrientId":1185,"nutrientName":"Vitamin K (phylloquinone)","nutrientNumber":"430","unitName":"UG","value":2.1,"rank":8800,"indentLevel":1,"foodNutrientId":34266975},{"nutrientId":1186,"nutrientName":"Folic acid","nutrientNumber":"431","unitName":"UG","value":0,"rank":7000,"indentLevel":0,"foodNutrientId":34266976},{"nutrientId":1187,"nutrientName":"Folate, food","nutrientNumber":"432","unitName":"UG","value":10,"rank":7100,"indentLevel":1,"foodNutrientId":34266977},{"nutrientId":1190,"nutrientName":"Folate, DFE","nutrientNumber":"435","unitName":"UG","value":10,"rank":7200,"indentLevel":1,"foodNutrientId":34266978},{"nutrientId":1242,"nutrientName":"Vitamin E, added","nutrientNumber":"573","unitName":"MG","value":0,"rank":7920,"indentLevel":0,"foodNutrientId":34266979},{"nutrientId":1246,"nutrientName":"Vitamin B-12, added","nutrientNumber":"578","unitName":"UG","value":0,"rank":7340,"indentLevel":0,"foodNutrientId":34266980},{"nutrientId":1253,"nutrientName":"Cholesterol","nutrientNumber":"601","unitName":"MG","value":0,"rank":15700,"indentLevel":1,"foodNutrientId":34266981},{"nutrientId":1258,"nutrientName":"Fatty acids, total saturated","nutrientNumber":"606","unitName":"G","value":0.631,"rank":9700,"indentLevel":1,"foodNutrientId":34266982},{"nutrientId":1259,"nutrientName":"SFA 4:0","nutrientNumber":"607","unitName":"G","value":0,"rank":9800,"indentLevel":2,"foodNutrientId":34266983},{"nutrientId":1260,"nutrientName":"SFA 6:0","nutrientNumber":"608","unitName":"G","value":0,"rank":9900,"indentLevel":2,"foodNutrientId":34266984},{"nutrientId":1261,"nutrientName":"SFA 8:0","nutrientNumber":"609","unitName":"G","value":0,"rank":10000,"indentLevel":2,"foodNutrientId":34266985},{"nutrientId":1262,"nutrientName":"SFA 10:0","nutrientNumber":"610","unitName":"G","value":0.004,"rank":10100,"indentLevel":2,"foodNutrientId":34266986},{"nutrientId":1263,"nutrientName":"SFA 12:0","nutrientNumber":"611","unitName":"G","value":0.001,"rank":10300,"indentLevel":2,"foodNutrientId":34266987},{"nutrientId":1264,"nutrientName":"SFA 14:0","nutrientNumber":"612","unitName":"G","value":0.022,"rank":10500,"indentLevel":2,"foodNutrientId":34266988},{"nutrientId":1265,"nutrientName":"SFA 16:0","nutrientNumber":"613","unitName":"G","value":0.394,"rank":10700,"indentLevel":2,"foodNutrientId":34266989},{"nutrientId":1266,"nutrientName":"SFA 18:0","nutrientNumber":"614","unitName":"G","value":0.192,"rank":10900,"indentLevel":2,"foodNutrientId":34266990},{"nutrientId":1268,"nutrientName":"MUFA 18:1","nutrientNumber":"617","unitName":"G","value":0.564,"rank":12100,"indentLevel":2,"foodNutrientId":34266991},{"nutrientId":1269,"nutrientName":"PUFA 18:2","nutrientNumber":"618","unitName":"G","value":0.361,"rank":13100,"indentLevel":2,"foodNutrientId":34266992},{"nutrientId":1270,"nutrientName":"PUFA 18:3","nutrientNumber":"619","unitName":"G","value":0.169,"rank":13900,"indentLevel":2,"foodNutrientId":34266993},{"nutrientId":1271,"nutrientName":"PUFA 20:4","nutrientNumber":"620","unitName":"G","value":0.003,"rank":14700,"indentLevel":2,"foodNutrientId":34266994},{"nutrientId":1272,"nutrientName":"PUFA 22:6 n-3 (DHA)","nutrientNumber":"621","unitName":"G","value":0,"rank":15300,"indentLevel":2,"foodNutrientId":34266995},{"nutrientId":1275,"nutrientName":"MUFA 16:1","nutrientNumber":"626","unitName":"G","value":0.024,"rank":11700,"indentLevel":2,"foodNutrientId":34266996},{"nutrientId":1276,"nutrientName":"PUFA 18:4","nutrientNumber":"627","unitName":"G","value":0,"rank":14250,"indentLevel":2,"foodNutrientId":34266997},{"nutrientId":1277,"nutrientName":"MUFA 20:1","nutrientNumber":"628","unitName":"G","value":0.009,"rank":12400,"indentLevel":2,"foodNutrientId":34266998},{"nutrientId":1278,"nutrientName":"PUFA 20:5 n-3 (EPA)","nutrientNumber":"629","unitName":"G","value":0,"rank":15000,"indentLevel":2,"foodNutrientId":34266999},{"nutrientId":1279,"nutrientName":"MUFA 22:1","nutrientNumber":"630","unitName":"G","value":0,"rank":12500,"indentLevel":2,"foodNutrientId":34267000},{"nutrientId":1280,"nutrientName":"PUFA 22:5 n-3 (DPA)","nutrientNumber":"631","unitName":"G","value":0,"rank":15200,"indentLevel":2,"foodNutrientId":34267001},{"nutrientId":1292,"nutrientName":"Fatty acids, total monounsaturated","nutrientNumber":"645","unitName":"G","value":0.601,"rank":11400,"indentLevel":1,"foodNutrientId":34267002},{"nutrientId":1293,"nutrientName":"Fatty acids, total polyunsaturated","nutrientNumber":"646","unitName":"G","value":0.543,"rank":12900,"indentLevel":1,"foodNutrientId":34267003}],"finalFoodInputFoods":[{"foodDescription":"Refried beans, canned, traditional style","gramWeight":100,"id":132023,"portionCode":"0","portionDescription":"NONE","unit":"GM","rank":1,"retentionCode":550,"srCode":16103,"value":100}],"foodMeasures":[{"disseminationText":"1 cup","gramWeight":260,"id":298009,"modifier":"10205","rank":1,"measureUnitAbbreviation":"undetermined","measureUnitName":"undetermined","measureUnitId":9999},{"disseminationText":"Quantity not specified","gramWeight":130,"id":298010,"modifier":"90000","rank":2,"measureUnitAbbreviation":"undetermined","measureUnitName":"undetermined","measureUnitId":9999}],"foodAttributes":[{"value":"Moisture change: 0%","id":3320836},{"value":"canned","id":3312298,"sequenceNumber":2},{"value":"Beans, peas, legumes","name":"WWEIA Category description","id":3302340},{"value":"refried beans, NFS","id":3312301,"sequenceNumber":5},{"value":"2802","name":"WWEIA Category number","id":3302339},{"value":"NS as to meat","id":3312300,"sequenceNumber":4},{"value":"with or without fat","id":3312299,"sequenceNumber":3}],"foodAttributeTypes":[{"name":"Additional Description","description":"Additional descriptions for the food.","id":1001,"foodAttributes":[{"value":"canned","id":3312298,"sequenceNumber":2},{"value":"refried beans, NFS","id":3312301,"sequenceNumber":5},{"value":"NS as to meat","id":3312300,"sequenceNumber":4},{"value":"with or without fat","id":3312299,"sequenceNumber":3}]},{"name":"Adjustments","description":"Adjustments made to foods, including moisture changes","id":1002,"foodAttributes":[{"value":"Moisture change: 0%","id":3320836}]},{"name":"Attribute","description":"Generic attributes","id":999,"foodAttributes":[{"value":"Beans, peas, legumes","name":"WWEIA Category description","id":3302340},{"value":"2802","name":"WWEIA Category number","id":3302339}]}],"foodVersionIds":[]}],"aggregations":{"dataType":{"Branded":41829,"SR Legacy":225,"Survey (FNDDS)":218,"Foundation":30,"Experimental":1},"nutrients":{}}}
