{"totalHits":70551,"currentPage":1,"totalPages":70551,"pageList":[1,2,3,4,5,6,7,8,9,10],"foodSearchCriteria":{"query":"Grilled Cheese Sandwich","generalSearchInput":"Grilled Cheese Sandwich","pageNumber":1,"numberOfResultsPerPage":50,"pageSize":1,"requireAllWords":false},"foods":[{"fdcId":2132988,"description":"GRILLED CHEESE SANDWICH","dataType":"Branded","gtinUpc":"766626666708","publishedDate":"2021-10-28","brandOwner":"Raybern Foods, Inc.","brandName":"RAYBERN'S","ingredients":"WHEAT BERRY (UNBLEACHED ENRICHED FLOUR [WHEAT FLOUR, MALTED BARLEY FLOUR, NIACIN, REDUCED IRON, THIAMINE MONONITRATE, RIBOFLAVIN, FOLIC ACID], WATER, FULLY REFINED SOYBEAN OIL, SALTED BUTTER [PASTEURIZED CREAM, SALT], YEAST, COARSE CRACKED WHEAT, WHEAT GLUTEN, HONEY, CANOLA OIL, AND 2% OR LESS OF CARAMEL COLOR, SALT, GRANULATED SUGAR, CALCIUM PROPIONATE [TO RETAIN FRESHNESS], MALT, DOUGH IMPROVER [MALTED WHEAT FLOUR, ENZYMES AND 2% OR LESS OF ASCORBIC ACID], ENZYMES, SUNFLOWER LECITHIN, ASCORBIC ACID), LOW-MOISTURE PART-SKIM MOZZARELLA CHEESE (PASTEURIZED PART-SKIM MILK, CHEESE CULTURES, SALT, NATAMYCIN [A NATURAL MOLD INHIBITOR], ENZYMES, SOY LECITHIN [NON-STICKING AGENT]), GOAT CHEESE SAUCE (WATER, GOAT CHEESE [PASTEURIZED GOAT MILK, SALT, CHEESE CULTURES, MICROBIAL RENNET], CREAM, BUTTER, SALT, MODIFIED FOOD STARCH, CITRUS FIBER, XANTHAN GUM), CARAMELIZED ONION JAM (RED ONION, BROWN SUGAR, VINEGAR [BALSAMIC, DISTILLED & RED WINE VINEGAR], CORN SYRUP, RED WINE, WATER, CANOLA OIL, PECTIN, ORANGE JUICE CONCENTRATE, BLACKSTRAP MOLASSES, SALT, BLACK CARROT POWDER, POTASSIUM SORBATE, CARAMEL COLOR, TAMARIND, SPICES, CITRIC ACID), BACON (CURED WITH: WATER, SALT, SUGAR, SODIUM ERYTHORBATE AND/OR SODIUM ASCORBATE, SODIUM NITRITE, MAY CONTAIN NATURAL SMOKE FLAVORING, SODIUM PHOSPHATE).","marketCountry":"United States","foodCategory":"Frozen Appetizers & Hors D'oeuvres","modifiedDate":"2018-11-01","dataSource":"LI","packageWeight":"11 oz/312 g","servingSizeUnit":"g","servingSize":156.0,"householdServingFullText":"1 SANDWICH","tradeChannels":["NO_TRADE_CHANNEL"],"allHighlightFields":"<b>Ingredients</b>: , ASCORBIC ACID), LOW-MOISTURE PART-SKIM MOZZARELLA <em>CHEESE</em> (PASTEURIZED PART-SKIM MILK, <em>CHEESE</em> CULTURES, SALT","score":1608.8121,"microbes":[],"foodNutrients":[{"nutrientId":1003,"nutrientName":"Protein","nutrientNumber":"203","unitName":"G","derivationCode":"LCCS","derivationDescription":"Calculated from value per serving size measure","derivationId":70,"value":11.5,"foodNutrientSourceId":9,"foodNutrientSourceCode":"12","foodNutrientSourceDescription":"Manufacturer's analytical; partial documentation","rank":600,"indentLevel":1,"foodNutrientId":25066579},{"nutrientId":1004,"nutrientName":"Total lipid (fat)","nutrientNumber":"204","unitName":"G","derivationCode":"LCCS","derivationDescription":"Calculated from value per serving size measure","derivationId":70,"value":12.8,"foodNutrientSourceId":9,"foodNutrientSourceCode":"12","foodNutrientSourceDescription":"Manufacturer's analytical; partial documentation","rank":800,"indentLevel":1,"foodNutrientId":25066580,"percentDailyValue":31},{"nutrientId":1005,"nutrientName":"Carbohydrate, by difference","nutrientNumber":"205","unitName":"G","derivationCode":"LCCS","derivationDescription":"Calculated from value per serving size measure","derivationId":70,"value":31.4,"foodNutrientSourceId":9,"foodNutrientSourceCode":"12","foodNutrientSourceDescription":"Manufacturer's analytical; partial documentation","rank":1110,"indentLevel":2,"foodNutrientId":25066581,"percentDailyValue":37},{"nutrientId":1008,"nutrientName":"Energy","nutrientNumber":"208","unitName":"KCAL","derivationCode":"LCCS","derivationDescription":"Calculated from value per serving size measure","derivationId":70,"value":288,"foodNutrientSourceId":9,"foodNutrientSourceCode":"12","foodNutrientSourceDescription":"Manufacturer's analytical; partial documentation","rank":300,"indentLevel":1,"foodNutrientId":25066582},{"nutrientId":2000,"nutrientName":"Total Sugars","nutrientNumber":"269","unitName":"G","derivationCode":"LCCS","derivationDescription":"Calculated from value per serving size measure","derivationId":70,"value":4.49,"foodNutrientSourceId":9,"foodNutrientSourceCode":"12","foodNutrientSourceDescription":"Manufacturer's analytical; partial documentation","rank":1510,"indentLevel":3,"foodNutrientId":25066583,"percentDailyValue":16},{"nutrientId":1079,"nutrientName":"Fiber, total dietary","nutrientNumber":"291","unitName":"G","derivationCode":"LCCS","derivationDescription":"Calculated from value per serving size measure","derivationId":70,"value":2.6,"foodNutrientSourceId":9,"foodNutrientSourceCode":"12","foodNutrientSourceDescription":"Manufacturer's analytical; partial documentation","rank":1200,"indentLevel":3,"foodNutrientId":25066584,"percentDailyValue":16},{"nutrientId":1087,"nutrientName":"Calcium, Ca","nutrientNumber":"301","unitName":"MG","derivationCode":"LCCD","derivationDescription":"Calculated from a daily value percentage per serving size measure","derivationId":75,"value":224,"foodNutrientSourceId":9,"foodNutrientSourceCode":"12","foodNutrientSourceDescription":"Manufacturer's analytical; partial documentation","rank":5300,"indentLevel":1,"foodNutrientId":25066585,"percentDailyValue":35},{"nutrientId":1089,"nutrientName":"Iron, Fe","nutrientNumber":"303","unitName":"MG","derivationCode":"LCCD","derivationDescription":"Calculated from a daily value percentage per serving size measure","derivationId":75,"value":2.31,"foodNutrientSourceId":9,"foodNutrientSourceCode":"12","foodNutrientSourceDescription":"Manufacturer's analytical; partial documentation","rank":5400,"indentLevel":1,"foodNutrientId":25066586,"percentDailyValue":20},{"nutrientId":1093,"nutrientName":"Sodium, Na","nutrientNumber":"307","unitName":"MG","derivationCode":"LCCS","derivationDescription":"Calculated from value per serving size measure","derivationId":70,"value":571,"foodNutrientSourceId":9,"foodNutrientSourceCode":"12","foodNutrientSourceDescription":"Manufacturer's analytical; partial documentation","rank":5800,"indentLevel":1,"foodNutrientId":25066587,"percentDailyValue":15},{"nutrientId":1104,"nutrientName":"Vitamin A, IU","nutrientNumber":"318","unitName":"IU","derivationCode":"LCCD","derivationDescription":"Calculated from a daily value percentage per serving size measure","derivationId":75,"value":64.0,"foodNutrientSourceId":9,"foodNutrientSourceCode":"12","foodNutrientSourceDescription":"Manufacturer's analytical; partial documentation","rank":7500,"indentLevel":1,"foodNutrientId":25066588,"percentDailyValue":2},{"nutrientId":1162,"nutrientName":"Vitamin C, total ascorbic acid","nutrientNumber":"401","unitName":"MG","derivationCode":"LCCD","derivationDescription":"Calculated from a daily value percentage per serving size measure","derivationId":75,"value":5.8,"foodNutrientSourceId":9,"foodNutrientSourceCode":"12","foodNutrientSourceDescription":"Manufacturer's analytical; partial documentation","rank":6300,"indentLevel":1,"foodNutrientId":25066589,"percentDailyValue":15},{"nutrientId":1253,"nutrientName":"Cholesterol","nutrientNumber":"601","unitName":"MG","derivationCode":"LCCS","derivationDescription":"Calculated from value per serving size measure","derivationId":70,"value":29.0,"foodNutrientSourceId":9,"foodNutrientSourceCode":"12","foodNutrientSourceDescription":"Manufacturer's analytical; partial documentation","rank":15700,"indentLevel":1,"foodNutrientId":25066590},{"nutrientId":1257,"nutrientName":"Fatty acids, total trans","nutrientNumber":"605","unitName":"G","derivationCode":"LCCS","derivationDescription":"Calculated from value per serving size measure","derivationId":70,"value":0.0,"foodNutrientSourceId":9,"foodNutrientSourceCode":"12","foodNutrientSourceDescription":"Manufacturer's analytical; partial documentation","rank":15400,"indentLevel":1,"foodNutrientId":25066591},{"nutrientId":1258,"nutrientName":"Fatty acids, total saturated","nutrientNumber":"606","unitName":"G","derivationCode":"LCCS","derivationDescription":"Calculated from value per serving size measure","derivationId":70,"value":5.77,"foodNutrientSourceId":9,"foodNutrientSourceCode":"12","foodNutrientSourceDescription":"Manufacturer's analytical; partial documentation","rank":9700,"indentLevel":1,"foodNutrientId":25066592,"percentDailyValue":45}],"finalFoodInputFoods":[],"foodMeasures":[],"foodAttributes":[],"foodAttributeTypes":[],"foodVersionIds":[]}],"aggregations":{"dataType":{"Branded":69017,"Survey (FNDDS)":1018,"SR Legacy":496,"Foundation":20},"nutrients":{}}}
