{"totalHits":172318,"currentPage":1,"totalPages":172318,"pageList":[1,2,3,4,5,6,7,8,9,10],"foodSearchCriteria":{"query":"Milk (whole)","generalSearchInput":"Milk (whole)","pageNumber":1,"numberOfResultsPerPage":50,"pageSize":1,"requireAllWords":false},"foods":[{"fdcId":2705385,"description":"Milk, whole","commonNames":"","additionalDescriptions":"leche fresca","dataType":"Survey (FNDDS)","foodCode":11111000,"publishedDate":"2024-10-31","foodCategory":"Milk, whole","foodCategoryId":3298318,"allHighlightFields":"","score":498.1807,"microbes":[],"foodNutrients":[{"nutrientId":1003,"nutrientName":"Protein","nutrientNumber":"203","unitName":"G","value":3.27,"rank":600,"indentLevel":1,"foodNutrientId":34136224},{"nutrientId":1004,"nutrientName":"Total lipid (fat)","nutrientNumber":"204","unitName":"G","value":3.2,"rank":800,"indentLevel":1,"foodNutrientId":34136225},{"nutrientId":1005,"nutrientName":"Carbohydrate, by difference","nutrientNumber":"205","unitName":"G","value":4.63,"rank":1110,"indentLevel":2,"foodNutrientId":34136226},{"nutrientId":1008,"nutrientName":"Energy","nutrientNumber":"208","unitName":"KCAL","value":61,"rank":300,"indentLevel":1,"foodNutrientId":34136227},{"nutrientId":1018,"nutrientName":"Alcohol, ethyl","nutrientNumber":"221","unitName":"G","value":0,"rank":18200,"indentLevel":1,"foodNutrientId":34136228},{"nutrientId":1051,"nutrientName":"Water","nutrientNumber":"255","unitName":"G","value":88.1,"rank":100,"indentLevel":1,"foodNutrientId":34136229},{"nutrientId":1057,"nutrientName":"Caffeine","nutrientNumber":"262","unitName":"MG","value":0,"rank":18300,"indentLevel":0,"foodNutrientId":34136230},{"nutrientId":1058,"nutrientName":"Theobromine","nutrientNumber":"263","unitName":"MG","value":0,"rank":18400,"indentLevel":0,"foodNutrientId":34136231},{"nutrientId":2000,"nutrientName":"Total Sugars","nutrientNumber":"269","unitName":"G","value":4.81,"rank":1510,"indentLevel":3,"foodNutrientId":34136232},{"nutrientId":1079,"nutrientName":"Fiber, total dietary","nutrientNumber":"291","unitName":"G","value":0,"rank":1200,"indentLevel":3,"foodNutrientId":34136233},{"nutrientId":1087,"nutrientName":"Calcium, Ca","nutrientNumber":"301","unitName":"MG","value":123,"rank":5300,"indentLevel":1,"foodNutrientId":34136234},{"nutrientId":1089,"nutrientName":"Iron, Fe","nutrientNumber":"303","unitName":"MG","value":0,"rank":5400,"indentLevel":1,"foodNutrientId":34136235},{"nutrientId":1090,"nutrientName":"Magnesium, Mg","nutrientNumber":"304","unitName":"MG","value":12,"rank":5500,"indentLevel":1,"foodNutrientId":34136236},{"nutrientId":1091,"nutrientName":"Phosphorus, P","nutrientNumber":"305","unitName":"MG","value":101,"rank":5600,"indentLevel":1,"foodNutrientId":34136237},{"nutrientId":1092,"nutrientName":"Potassium, K","nutrientNumber":"306","unitName":"MG","value":150,"rank":5700,"indentLevel":1,"foodNutrientId":34136238},{"nutrientId":1093,"nutrientName":"Sodium, Na","nutrientNumber":"307","unitName":"MG","value":38,"rank":5800,"indentLevel":1,"foodNutrientId":34136239},{"nutrientId":1095,"nutrientName":"Zinc, Zn","nutrientNumber":"309","unitName":"MG","value":0.42,"rank":5900,"indentLevel":1,"foodNutrientId":34136240},{"nutrientId":1098,"nutrientName":"Copper, Cu","nutrientNumber":"312","unitName":"MG","value":0.001,"rank":6000,"indentLevel":1,"foodNutrientId":34136241},{"nutrientId":1103,"nutrientName":"Selenium, Se","nutrientNumber":"317","unitName":"UG","value":1.9,"rank":6200,"indentLevel":1,"foodNutrientId":34136242},{"nutrientId":1105,"nutrientName":"Retinol","nutrientNumber":"319","unitName":"UG","value":31,"rank":7430,"indentLevel":2,"foodNutrientId":34136243},{"nutrientId":1106,"nutrientName":"Vitamin A, RAE","nutrientNumber":"320","unitName":"UG","value":32,"rank":7420,"indentLevel":1,"foodNutrientId":34136244},{"nutrientId":1107,"nutrientName":"Carotene, beta","nutrientNumber":"321","unitName":"UG","value":7,"rank":7440,"indentLevel":2,"foodNutrientId":34136245},{"nutrientId":1108,"nutrientName":"Carotene, alpha","nutrientNumber":"322","unitName":"UG","value":0,"rank":7450,"indentLevel":2,"foodNutrientId":34136246},{"nutrientId":1109,"nutrientName":"Vitamin E (alpha-tocopherol)","nutrientNumber":"323","unitName":"MG","value":0.05,"rank":7905,"indentLevel":1,"foodNutrientId":34136247},{"nutrientId":1114,"nutrientName":"Vitamin D (D2 + D3)","nutrientNumber":"328","unitName":"UG","value":1.1,"rank":8700,"indentLevel":1,"foodNutrientId":34136248},{"nutrientId":1120,"nutrientName":"Cryptoxanthin, beta","nutrientNumber":"334","unitName":"UG","value":0,"rank":7460,"indentLevel":2,"foodNutrientId":34136249},{"nutrientId":1122,"nutrientName":"Lycopene","nutrientNumber":"337","unitName":"UG","value":0,"rank":7530,"indentLevel":1,"foodNutrientId":34136250},{"nutrientId":1123,"nutrientName":"Lutein + zeaxanthin","nutrientNumber":"338","unitName":"UG","value":0,"rank":7560,"indentLevel":1,"foodNutrientId":34136251},{"nutrientId":1162,"nutrientName":"Vitamin C, total ascorbic acid","nutrientNumber":"401","unitName":"MG","value":0,"rank":6300,"indentLevel":1,"foodNutrientId":34136252},{"nutrientId":1165,"nutrientName":"Thiamin","nutrientNumber":"404","unitName":"MG","value":0.056,"rank":6400,"indentLevel":1,"foodNutrientId":34136253},{"nutrientId":1166,"nutrientName":"Riboflavin","nutrientNumber":"405","unitName":"MG","value":0.138,"rank":6500,"indentLevel":1,"foodNutrientId":34136254},{"nutrientId":1167,"nutrientName":"Niacin","nutrientNumber":"406","unitName":"MG","value":0.105,"rank":6600,"indentLevel":1,"foodNutrientId":34136255},{"nutrientId":1175,"nutrientName":"Vitamin B-6","nutrientNumber":"415","unitName":"MG","value":0.061,"rank":6800,"indentLevel":1,"foodNutrientId":34136256},{"nutrientId":1177,"nutrientName":"Folate, total","nutrientNumber":"417","unitName":"UG","value":0,"rank":6900,"indentLevel":1,"foodNutrientId":34136257},{"nutrientId":1178,"nutrientName":"Vitamin B-12","nutrientNumber":"418","unitName":"UG","value":0.54,"rank":7300,"indentLevel":1,"foodNutrientId":34136258},{"nutrientId":1180,"nutrientName":"Choline, total","nutrientNumber":"421","unitName":"MG","value":17.8,"rank":7220,"indentLevel":1,"foodNutrientId":34136259},{"nutrientId":1185,"nutrientName":"Vitamin K (phylloquinone)","nutrientNumber":"430","unitName":"UG","value":0.3,"rank":8800,"indentLevel":1,"foodNutrientId":34136260},{"nutrientId":1186,"nutrientName":"Folic acid","nutrientNumber":"431","unitName":"UG","value":0,"rank":7000,"indentLevel":0,"foodNutrientId":34136261},{"nutrientId":1187,"nutrientName":"Folate, food","nutrientNumber":"432","unitName":"UG","value":0,"rank":7100,"indentLevel":1,"foodNutrientId":34136262},{"nutrientId":1190,"nutrientName":"Folate, DFE","nutrientNumber":"435","unitName":"UG","value":0,"rank":7200,"indentLevel":1,"foodNutrientId":34136263},{"nutrientId":1242,"nutrientName":"Vitamin E, added","nutrientNumber":"573","unitName":"MG","value":0,"rank":7920,"indentLevel":0,"foodNutrientId":34136264},{"nutrientId":1246,"nutrientName":"Vitamin B-12, added","nutrientNumber":"578","unitName":"UG","value":0,"rank":7340,"indentLevel":0,"foodNutrientId":34136265},{"nutrientId":1253,"nutrientName":"Cholesterol","nutrientNumber":"601","unitName":"MG","value":12,"rank":15700,"indentLevel":1,"foodNutrientId":34136266},{"nutrientId":1258,"nutrientName":"Fatty acids, total saturated","nutrientNumber":"606","unitName":"G","value":1.86,"rank":9700,"indentLevel":1,"foodNutrientId":34136267},{"nutrientId":1259,"nutrientName":"SFA 4:0","nutrientNumber":"607","unitName":"G","value":0.067,"rank":9800,"indentLevel":2,"foodNutrientId":34136268},{"nutrientId":1260,"nutrientName":"SFA 6:0","nutrientNumber":"608","unitName":"G","value":0.054,"rank":9900,"indentLevel":2,"foodNutrientId":34136269},{"nutrientId":1261,"nutrientName":"SFA 8:0","nutrientNumber":"609","unitName":"G","value":0.034,"rank":10000,"indentLevel":2,"foodNutrientId":34136270},{"nutrientId":1262,"nutrientName":"SFA 10:0","nutrientNumber":"610","unitName":"G","value":0.084,"rank":10100,"indentLevel":2,"foodNutrientId":34136271},{"nutrientId":1263,"nutrientName":"SFA 12:0","nutrientNumber":"611","unitName":"G","value":0.097,"rank":10300,"indentLevel":2,"foodNutrientId":34136272},{"nutrientId":1264,"nutrientName":"SFA 14:0","nutrientNumber":"612","unitName":"G","value":0.303,"rank":10500,"indentLevel":2,"foodNutrientId":34136273},{"nutrientId":1265,"nutrientName":"SFA 16:0","nutrientNumber":"613","unitName":"G","value":0.857,"rank":10700,"indentLevel":2,"foodNutrientId":34136274},{"nutrientId":1266,"nutrientName":"SFA 18:0","nutrientNumber":"614","unitName":"G","value":0.309,"rank":10900,"indentLevel":2,"foodNutrientId":34136275},{"nutrientId":1268,"nutrientName":"MUFA 18:1","nutrientNumber":"617","unitName":"G","value":0.694,"rank":12100,"indentLevel":2,"foodNutrientId":34136276},{"nutrientId":1269,"nutrientName":"PUFA 18:2","nutrientNumber":"618","unitName":"G","value":0.115,"rank":13100,"indentLevel":2,"foodNutrientId":34136277},{"nutrientId":1270,"nutrientName":"PUFA 18:3","nutrientNumber":"619","unitName":"G","value":0.013,"rank":13900,"indentLevel":2,"foodNutrientId":34136278},{"nutrientId":1271,"nutrientName":"PUFA 20:4","nutrientNumber":"620","unitName":"G","value":0.004,"rank":14700,"indentLevel":2,"foodNutrientId":34136279},{"nutrientId":1272,"nutrientName":"PUFA 22:6 n-3 (DHA)","nutrientNumber":"621","unitName":"G","value":0,"rank":15300,"indentLevel":2,"foodNutrientId":34136280},{"nutrientId":1275,"nutrientName":"MUFA 16:1","nutrientNumber":"626","unitName":"G","value":0.047,"rank":11700,"indentLevel":2,"foodNutrientId":34136281},{"nutrientId":1276,"nutrientName":"PUFA 18:4","nutrientNumber":"627","unitName":"G","value":0,"rank":14250,"indentLevel":2,"foodNutrientId":34136282},{"nutrientId":1277,"nutrientName":"MUFA 20:1","nutrientNumber":"628","unitName":"G","value":0.004,"rank":12400,"indentLevel":2,"foodNutrientId":34136283},{"nutrientId":1278,"nutrientName":"PUFA 20:5 n-3 (EPA)","nutrientNumber":"629","unitName":"G","value":0.001,"rank":15000,"indentLevel":2,"foodNutrientId":34136284},{"nutrientId":1279,"nutrientName":"MUFA 22:1","nutrientNumber":"630","unitName":"G","value":0,"rank":12500,"indentLevel":2,"foodNutrientId":34136285},{"nutrientId":1280,"nutrientName":"PUFA 22:5 n-3 (DPA)","nutrientNumber":"631","unitName":"G","value":0.002,"rank":15200,"indentLevel":2,"foodNutrientId":34136286},{"nutrientId":1292,"nutrientName":"Fatty acids, total monounsaturated","nutrientNumber":"645","unitName":"G","value":0.688,"rank":11400,"indentLevel":1,"foodNutrientId":34136287},{"nutrientId":1293,"nutrientName":"Fatty acids, total polyunsaturated","nutrientNumber":"646","unitName":"G","value":0.108,"rank":12900,"indentLevel":1,"foodNutrientId":34136288}],"finalFoodInputFoods":[{"foodDescription":"Milk, whole, 3.25% milkfat, with added vitamin D","gramWeight":100,"id":124272,"portionCode":"0","portionDescription":"NONE","unit":"GM","rank":1,"retentionCode":0,"srCode":1077,"value":100}],"foodMeasures":[{"disseminationText":"Guideline amount per fl oz of beverage","gramWeight":2.5,"id":290518,"modifier":"63480","rank":4,"measureUnitAbbreviation":"undetermined","measureUnitName":"undetermined","measureUnitId":9999},{"disseminationText":"Quantity not specified","gramWeight":244,"id":290520,"modifier":"90000","rank":6,"measureUnitAbbreviation":"undetermined","measureUnitName":"undetermined","measureUnitId":9999},{"disseminationText":"1 individual school container","gramWeight":244,"id":290517,"modifier":"64294","rank":3,"measureUnitAbbreviation":"undetermined","measureUnitName":"undetermined","measureUnitId":9999},{"disseminationText":"1 cup","gramWeight":244,"id":290515,"modifier":"10205","rank":1,"measureUnitAbbreviation":"undetermined","measureUnitName":"undetermined","measureUnitId":9999},{"disseminationText":"Guideline amount per cup of hot cereal","gramWeight":61,"id":290519,"modifier":"63546","rank":5,"measureUnitAbbreviation":"undetermined","measureUnitName":"undetermined","measureUnitId":9999},{"disseminationText":"1 fl oz","gramWeight":30.5,"id":290516,"modifier":"30000","rank":2,"measureUnitAbbreviation":"undetermined","measureUnitName":"undetermined","measureUnitId":9999}],"foodAttributes":[{"value":"leche fresca","id":3309177,"sequenceNumber":2},{"value":"Moisture change: 0%","id":3318825},{"value":"1002","name":"WWEIA Category number","id":3298317},{"value":"Milk, whole","name":"WWEIA Category description","id":3298318}],"foodAttributeTypes":[{"name":"Additional Description","description":"Additional descriptions for the food.","id":1001,"foodAttributes":[{"value":"leche fresca","id":3309177,"sequenceNumber":2}]},{"name":"Adjustments","description":"Adjustments made to foods, including moisture changes","id":1002,"foodAttributes":[{"value":"Moisture change: 0%","id":3318825}]},{"name":"Attribute","description":"Generic attributes","id":999,"foodAttributes":[{"value":"1002","name":"WWEIA Category number","id":3298317},{"value":"Milk, whole","name":"WWEIA Category description","id":3298318}]}],"foodVersionIds":[]}],"aggregations":{"dataType":{"Branded":171200,"Survey (FNDDS)":610,"SR Legacy":463,"Foundation":27,"Experimental":18},"nutrients":{}}}
