{"totalHits":19640,"currentPage":1,"totalPages":19640,"pageList":[1,2,3,4,5,6,7,8,9,10],"foodSearchCriteria":{"query":"Shawarma (beef)","generalSearchInput":"Shawarma (beef)","pageNumber":1,"numberOfResultsPerPage":50,"pageSize":1,"requireAllWords":false},"foods":[{"fdcId":2487168,"description":"SHAWARMA MARINADE, SHAWARMA","dataType":"Branded","gtinUpc":"711464506716","publishedDate":"2023-02-16","brandOwner":"Interggs, Inc.","brandName":"AL'FEZ","ingredients":"WATER, ONION PURE, CANOLA OIL, CONCENTRATED TOMATO PASTE, GARLIC PURE, GINGER PURE, MODIFIED CORN STARCH, LESS THAN 2% OF: SALT, SUGAR, GROUND CUMIN, GROUND CORIANDER, PAPRIKA, GROUND ALLSPICE, TURMERIC, CINNAMON, GROUND CARDAMOM, CITRIC ACID, SMOKED PAPRIKA, BLACK PEPPER, NUTMEG, CHILLI FLAKES, DRIED CORIANDER LEAF.","marketCountry":"United States","foodCategory":"Seasoning Mixes, Salts, Marinades & Tenderizers","modifiedDate":"2022-02-03","dataSource":"LI","packageWeight":"5.3 fl oz/156 mL","servingSizeUnit":"ml","servingSize":15.0,"householdServingFullText":"1 tbsp","shortDescription":"","tradeChannels":["NO_TRADE_CHANNEL"],"allHighlightFields":"","score":414.8663,"microbes":[],"foodNutrients":[{"nutrientId":1003,"nutrientName":"Protein","nutrientNumber":"203","unitName":"G","derivationCode":"LCCS","derivationDescription":"Calculated from value per serving size measure","derivationId":70,"value":0.0,"foodNutrientSourceId":9,"foodNutrientSourceCode":"12","foodNutrientSourceDescription":"Manufacturer's analytical; partial documentation","rank":600,"indentLevel":1,"foodNutrientId":30831498},{"nutrientId":1004,"nutrientName":"Total lipid (fat)","nutrientNumber":"204","unitName":"G","derivationCode":"LCCS","derivationDescription":"Calculated from value per serving size measure","derivationId":70,"value":6.67,"foodNutrientSourceId":9,"foodNutrientSourceCode":"12","foodNutrientSourceDescription":"Manufacturer's analytical; partial documentation","rank":800,"indentLevel":1,"foodNutrientId":30831499,"percentDailyValue":1},{"nutrientId":1005,"nutrientName":"Carbohydrate, by difference","nutrientNumber":"205","unitName":"G","derivationCode":"LCCS","derivationDescription":"Calculated from value per serving size measure","derivationId":70,"value":6.67,"foodNutrientSourceId":9,"foodNutrientSourceCode":"12","foodNutrientSourceDescription":"Manufacturer's analytical; partial documentation","rank":1110,"indentLevel":2,"foodNutrientId":30831500,"percentDailyValue":0},{"nutrientId":1008,"nutrientName":"Energy","nutrientNumber":"208","unitName":"KCAL","derivationCode":"LCCS","derivationDescription":"Calculated from value per serving size measure","derivationId":70,"value":100,"foodNutrientSourceId":9,"foodNutrientSourceCode":"12","foodNutrientSourceDescription":"Manufacturer's analytical; partial documentation","rank":300,"indentLevel":1,"foodNutrientId":30831501},{"nutrientId":1093,"nutrientName":"Sodium, Na","nutrientNumber":"307","unitName":"MG","derivationCode":"LCCS","derivationDescription":"Calculated from value per serving size measure","derivationId":70,"value":800,"foodNutrientSourceId":9,"foodNutrientSourceCode":"12","foodNutrientSourceDescription":"Manufacturer's analytical; partial documentation","rank":5800,"indentLevel":1,"foodNutrientId":30831502,"percentDailyValue":5}],"finalFoodInputFoods":[],"foodMeasures":[],"foodAttributes":[],"foodAttributeTypes":[],"foodVersionIds":[]}],"aggregations":{"dataType":{"Branded":18265,"SR Legacy":1105,"Survey (FNDDS)":249,"Foundation":17,"Experimental":4},"nutrients":{}}}
