{"totalHits":4329,"currentPage":1,"totalPages":4329,"pageList":[1,2,3,4,5,6,7,8,9,10],"foodSearchCriteria":{"query":"Chole (chickpea curry)","generalSearchInput":"Chole (chickpea curry)","pageNumber":1,"numberOfResultsPerPage":50,"pageSize":1,"requireAllWords":false},"foods":[{"fdcId":2384539,"description":"CHOLE MINI NAANPANADAS A MINI EMPANADA FILLED WITH SAUTEED CHICKPEAS & CHEESE, CHOLE","dataType":"Branded","gtinUpc":"818745005378","publishedDate":"2022-12-22","brandOwner":"C. C. Creations, Ltd.","brandName":"CHEF BOMBAY","ingredients":"PASTRY: ENRICHED WHEAT FLOUR, WATER, YOGURT (MILK, SKIM MILK, PECTIN, BACTERIAL CULTURE), BUTTER (CREAM, SALT). FILLING: CHICKPEAS, MOZZARELLA CHESSE (MILK, SKIM MILK, BACTERIAL CULTURE, SALT, CALCIUM CHLORIDE, MICROBIAL ENZYME, CELLULOSE, NATAMYCIN), ONIONS, CANOLA OIL, CRUSHED TOMATO, SPICES, GARLIC, GINGER, SALT AND TURMERIC [FLAVOUR].","marketCountry":"United States","foodCategory":"Other Deli","modifiedDate":"2021-04-09","dataSource":"LI","packageWeight":"8.4 oz/240 g","servingSizeUnit":"g","servingSize":80.0,"householdServingFullText":"4 Pieces","shortDescription":"","tradeChannels":["NO_TRADE_CHANNEL"],"allHighlightFields":"<b>Ingredients</b>:  (CREAM, SALT). FILLING: <em>CHICKPEAS</em>, MOZZARELLA CHESSE (MILK, SKIM MILK, BACTERIAL CULTURE, SALT","score":521.7349,"microbes":[],"foodNutrients":[{"nutrientId":1003,"nutrientName":"Protein","nutrientNumber":"203","unitName":"G","derivationCode":"LCCS","derivationDescription":"Calculated from value per serving size measure","derivationId":70,"value":8.75,"foodNutrientSourceId":9,"foodNutrientSourceCode":"12","foodNutrientSourceDescription":"Manufacturer's analytical; partial documentation","rank":600,"indentLevel":1,"foodNutrientId":29351034},{"nutrientId":1004,"nutrientName":"Total lipid (fat)","nutrientNumber":"204","unitName":"G","derivationCode":"LCCS","derivationDescription":"Calculated from value per serving size measure","derivationId":70,"value":8.75,"foodNutrientSourceId":9,"foodNutrientSourceCode":"12","foodNutrientSourceDescription":"Manufacturer's analytical; partial documentation","rank":800,"indentLevel":1,"foodNutrientId":29351035,"percentDailyValue":9},{"nutrientId":1005,"nutrientName":"Carbohydrate, by difference","nutrientNumber":"205","unitName":"G","derivationCode":"LCCS","derivationDescription":"Calculated from value per serving size measure","derivationId":70,"value":33.8,"foodNutrientSourceId":9,"foodNutrientSourceCode":"12","foodNutrientSourceDescription":"Manufacturer's analytical; partial documentation","rank":1110,"indentLevel":2,"foodNutrientId":29351036,"percentDailyValue":10},{"nutrientId":1008,"nutrientName":"Energy","nutrientNumber":"208","unitName":"KCAL","derivationCode":"LCCS","derivationDescription":"Calculated from value per serving size measure","derivationId":70,"value":238,"foodNutrientSourceId":9,"foodNutrientSourceCode":"12","foodNutrientSourceDescription":"Manufacturer's analytical; partial documentation","rank":300,"indentLevel":1,"foodNutrientId":29351037},{"nutrientId":2000,"nutrientName":"Total Sugars","nutrientNumber":"269","unitName":"G","derivationCode":"LCCS","derivationDescription":"Calculated from value per serving size measure","derivationId":70,"value":7.5,"foodNutrientSourceId":9,"foodNutrientSourceCode":"12","foodNutrientSourceDescription":"Manufacturer's analytical; partial documentation","rank":1510,"indentLevel":3,"foodNutrientId":29351038},{"nutrientId":1079,"nutrientName":"Fiber, total dietary","nutrientNumber":"291","unitName":"G","derivationCode":"LCCS","derivationDescription":"Calculated from value per serving size measure","derivationId":70,"value":3.8,"foodNutrientSourceId":9,"foodNutrientSourceCode":"12","foodNutrientSourceDescription":"Manufacturer's analytical; partial documentation","rank":1200,"indentLevel":3,"foodNutrientId":29351039,"percentDailyValue":11},{"nutrientId":1087,"nutrientName":"Calcium, Ca","nutrientNumber":"301","unitName":"MG","derivationCode":"LCCS","derivationDescription":"Calculated from value per serving size measure","derivationId":70,"value":81.0,"foodNutrientSourceId":9,"foodNutrientSourceCode":"12","foodNutrientSourceDescription":"Manufacturer's analytical; partial documentation","rank":5300,"indentLevel":1,"foodNutrientId":29351040,"percentDailyValue":6},{"nutrientId":1089,"nutrientName":"Iron, Fe","nutrientNumber":"303","unitName":"MG","derivationCode":"LCCS","derivationDescription":"Calculated from value per serving size measure","derivationId":70,"value":2.5,"foodNutrientSourceId":9,"foodNutrientSourceCode":"12","foodNutrientSourceDescription":"Manufacturer's analytical; partial documentation","rank":5400,"indentLevel":1,"foodNutrientId":29351041,"percentDailyValue":10},{"nutrientId":1092,"nutrientName":"Potassium, K","nutrientNumber":"306","unitName":"MG","derivationCode":"LCCS","derivationDescription":"Calculated from value per serving size measure","derivationId":70,"value":150,"foodNutrientSourceId":9,"foodNutrientSourceCode":"12","foodNutrientSourceDescription":"Manufacturer's analytical; partial documentation","rank":5700,"indentLevel":1,"foodNutrientId":29351042,"percentDailyValue":2},{"nutrientId":1093,"nutrientName":"Sodium, Na","nutrientNumber":"307","unitName":"MG","derivationCode":"LCCS","derivationDescription":"Calculated from value per serving size measure","derivationId":70,"value":375,"foodNutrientSourceId":9,"foodNutrientSourceCode":"12","foodNutrientSourceDescription":"Manufacturer's analytical; partial documentation","rank":5800,"indentLevel":1,"foodNutrientId":29351043,"percentDailyValue":13},{"nutrientId":1110,"nutrientName":"Vitamin D (D2 + D3), International Units","nutrientNumber":"324","unitName":"IU","derivationCode":"LCCD","derivationDescription":"Calculated from a daily value percentage per serving size measure","derivationId":75,"value":0.0,"foodNutrientSourceId":9,"foodNutrientSourceCode":"12","foodNutrientSourceDescription":"Manufacturer's analytical; partial documentation","rank":8650,"indentLevel":1,"foodNutrientId":29351044,"percentDailyValue":0},{"nutrientId":1253,"nutrientName":"Cholesterol","nutrientNumber":"601","unitName":"MG","derivationCode":"LCCS","derivationDescription":"Calculated from value per serving size measure","derivationId":70,"value":6.0,"foodNutrientSourceId":9,"foodNutrientSourceCode":"12","foodNutrientSourceDescription":"Manufacturer's analytical; partial documentation","rank":15700,"indentLevel":1,"foodNutrientId":29351045,"percentDailyValue":2},{"nutrientId":1257,"nutrientName":"Fatty acids, total trans","nutrientNumber":"605","unitName":"G","derivationCode":"LCCS","derivationDescription":"Calculated from value per serving size measure","derivationId":70,"value":0.0,"foodNutrientSourceId":9,"foodNutrientSourceCode":"12","foodNutrientSourceDescription":"Manufacturer's analytical; partial documentation","rank":15400,"indentLevel":1,"foodNutrientId":29351046},{"nutrientId":1258,"nutrientName":"Fatty acids, total saturated","nutrientNumber":"606","unitName":"G","derivationCode":"LCCS","derivationDescription":"Calculated from value per serving size measure","derivationId":70,"value":1.88,"foodNutrientSourceId":9,"foodNutrientSourceCode":"12","foodNutrientSourceDescription":"Manufacturer's analytical; partial documentation","rank":9700,"indentLevel":1,"foodNutrientId":29351047,"percentDailyValue":8}],"finalFoodInputFoods":[],"foodMeasures":[],"foodAttributes":[],"foodAttributeTypes":[],"foodVersionIds":[]}],"aggregations":{"dataType":{"Branded":4293,"Survey (FNDDS)":23,"SR Legacy":10,"Foundation":2,"Experimental":1},"nutrients":{}}}
