{"totalHits":84013,"currentPage":1,"totalPages":84013,"pageList":[1,2,3,4,5,6,7,8,9,10],"foodSearchCriteria":{"query":"Steamed White Rice","generalSearchInput":"Steamed White Rice","pageNumber":1,"numberOfResultsPerPage":50,"pageSize":1,"requireAllWords":false},"foods":[{"fdcId":169712,"description":"Rice, white, steamed, Chinese restaurant","commonNames":"","additionalDescriptions":"","dataType":"SR Legacy","ndbNumber":20058,"publishedDate":"2019-04-01","foodCategory":"Cereal Grains and Pasta","allHighlightFields":"","score":779.8763,"microbes":[],"foodNutrients":[{"nutrientId":1003,"nutrientName":"Protein","nutrientNumber":"203","unitName":"G","derivationCode":"A","derivationDescription":"Analytical","derivationId":1,"value":3.2,"foodNutrientSourceId":1,"foodNutrientSourceCode":"1","foodNutrientSourceDescription":"Analytical or derived from analytical","rank":600,"indentLevel":1,"foodNutrientId":1463588,"dataPoints":4,"min":2.98,"max":3.51},{"nutrientId":1007,"nutrientName":"Ash","nutrientNumber":"207","unitName":"G","derivationCode":"A","derivationDescription":"Analytical","derivationId":1,"value":0.14,"foodNutrientSourceId":1,"foodNutrientSourceCode":"1","foodNutrientSourceDescription":"Analytical or derived from analytical","rank":1000,"indentLevel":1,"foodNutrientId":1463589,"dataPoints":4,"min":0.12,"max":0.16},{"nutrientId":1009,"nutrientName":"Starch","nutrientNumber":"209","unitName":"G","derivationCode":"A","derivationDescription":"Analytical","derivationId":1,"value":32.0,"foodNutrientSourceId":1,"foodNutrientSourceCode":"1","foodNutrientSourceDescription":"Analytical or derived from analytical","rank":2200,"indentLevel":3,"foodNutrientId":1463590,"dataPoints":4,"min":30.8,"max":33.5},{"nutrientId":1079,"nutrientName":"Fiber, total dietary","nutrientNumber":"291","unitName":"G","derivationCode":"A","derivationDescription":"Analytical","derivationId":1,"value":0.9,"foodNutrientSourceId":1,"foodNutrientSourceCode":"1","foodNutrientSourceDescription":"Analytical or derived from analytical","rank":1200,"indentLevel":3,"foodNutrientId":1463591,"dataPoints":4,"min":0.7,"max":1.0},{"nutrientId":1089,"nutrientName":"Iron, Fe","nutrientNumber":"303","unitName":"MG","derivationCode":"A","derivationDescription":"Analytical","derivationId":1,"value":0.39,"foodNutrientSourceId":1,"foodNutrientSourceCode":"1","foodNutrientSourceDescription":"Analytical or derived from analytical","rank":5400,"indentLevel":1,"foodNutrientId":1463592,"dataPoints":4,"min":0.16,"max":0.62},{"nutrientId":1090,"nutrientName":"Magnesium, Mg","nutrientNumber":"304","unitName":"MG","derivationCode":"A","derivationDescription":"Analytical","derivationId":1,"value":5.0,"foodNutrientSourceId":1,"foodNutrientSourceCode":"1","foodNutrientSourceDescription":"Analytical or derived from analytical","rank":5500,"indentLevel":1,"foodNutrientId":1463593,"dataPoints":4,"min":4.0,"max":8.0},{"nutrientId":1091,"nutrientName":"Phosphorus, P","nutrientNumber":"305","unitName":"MG","derivationCode":"A","derivationDescription":"Analytical","derivationId":1,"value":33.0,"foodNutrientSourceId":1,"foodNutrientSourceCode":"1","foodNutrientSourceDescription":"Analytical or derived from analytical","rank":5600,"indentLevel":1,"foodNutrientId":1463594,"dataPoints":4,"min":31.0,"max":39.0},{"nutrientId":1093,"nutrientName":"Sodium, Na","nutrientNumber":"307","unitName":"MG","derivationCode":"A","derivationDescription":"Analytical","derivationId":1,"value":5.0,"foodNutrientSourceId":1,"foodNutrientSourceCode":"1","foodNutrientSourceDescription":"Analytical or derived from analytical","rank":5800,"indentLevel":1,"foodNutrientId":1463595,"dataPoints":4,"min":4.0,"max":9.0},{"nutrientId":1098,"nutrientName":"Copper, Cu","nutrientNumber":"312","unitName":"MG","derivationCode":"A","derivationDescription":"Analytical","derivationId":1,"value":0.048,"foodNutrientSourceId":1,"foodNutrientSourceCode":"1","foodNutrientSourceDescription":"Analytical or derived from analytical","rank":6000,"indentLevel":1,"foodNutrientId":1463596,"dataPoints":4,"min":0.039,"max":0.061},{"nutrientId":1101,"nutrientName":"Manganese, Mn","nutrientNumber":"315","unitName":"MG","derivationCode":"A","derivationDescription":"Analytical","derivationId":1,"value":0.448,"foodNutrientSourceId":1,"foodNutrientSourceCode":"1","foodNutrientSourceDescription":"Analytical or derived from analytical","rank":6100,"indentLevel":1,"foodNutrientId":1463597,"dataPoints":4,"min":0.377,"max":0.498},{"nutrientId":1165,"nutrientName":"Thiamin","nutrientNumber":"404","unitName":"MG","derivationCode":"A","derivationDescription":"Analytical","derivationId":1,"value":0.016,"foodNutrientSourceId":1,"foodNutrientSourceCode":"1","foodNutrientSourceDescription":"Analytical or derived from analytical","rank":6400,"indentLevel":1,"foodNutrientId":1463598,"dataPoints":4,"min":0.015,"max":0.02},{"nutrientId":1166,"nutrientName":"Riboflavin","nutrientNumber":"405","unitName":"MG","derivationCode":"A","derivationDescription":"Analytical","derivationId":1,"value":0.015,"foodNutrientSourceId":1,"foodNutrientSourceCode":"1","foodNutrientSourceDescription":"Analytical or derived from analytical","rank":6500,"indentLevel":1,"foodNutrientId":1463599,"dataPoints":4,"min":0.015,"max":0.015},{"nutrientId":1177,"nutrientName":"Folate, total","nutrientNumber":"417","unitName":"UG","derivationCode":"A","derivationDescription":"Analytical","derivationId":1,"value":5.0,"foodNutrientSourceId":1,"foodNutrientSourceCode":"1","foodNutrientSourceDescription":"Analytical or derived from analytical","rank":6900,"indentLevel":1,"foodNutrientId":1463600,"dataPoints":4,"min":1.0,"max":11.0},{"nutrientId":1187,"nutrientName":"Folate, food","nutrientNumber":"432","unitName":"UG","value":5.0,"rank":7100,"indentLevel":1,"foodNutrientId":1463601,"dataPoints":4,"min":1.0,"max":11.0},{"nutrientId":1004,"nutrientName":"Total lipid (fat)","nutrientNumber":"204","unitName":"G","derivationCode":"A","derivationDescription":"Analytical","derivationId":1,"value":0.27,"foodNutrientSourceId":1,"foodNutrientSourceCode":"1","foodNutrientSourceDescription":"Analytical or derived from analytical","rank":800,"indentLevel":1,"foodNutrientId":1463602,"dataPoints":4,"min":0.18,"max":0.36},{"nutrientId":1051,"nutrientName":"Water","nutrientNumber":"255","unitName":"G","derivationCode":"A","derivationDescription":"Analytical","derivationId":1,"value":62.5,"foodNutrientSourceId":1,"foodNutrientSourceCode":"1","foodNutrientSourceDescription":"Analytical or derived from analytical","rank":100,"indentLevel":1,"foodNutrientId":1463603,"dataPoints":4,"min":61.4,"max":63.9},{"nutrientId":1087,"nutrientName":"Calcium, Ca","nutrientNumber":"301","unitName":"MG","derivationCode":"A","derivationDescription":"Analytical","derivationId":1,"value":5.0,"foodNutrientSourceId":1,"foodNutrientSourceCode":"1","foodNutrientSourceDescription":"Analytical or derived from analytical","rank":5300,"indentLevel":1,"foodNutrientId":1463604,"dataPoints":4,"min":3.0,"max":6.0},{"nutrientId":1092,"nutrientName":"Potassium, K","nutrientNumber":"306","unitName":"MG","derivationCode":"A","derivationDescription":"Analytical","derivationId":1,"value":20.0,"foodNutrientSourceId":1,"foodNutrientSourceCode":"1","foodNutrientSourceDescription":"Analytical or derived from analytical","rank":5700,"indentLevel":1,"foodNutrientId":1463605,"dataPoints":4,"min":15.0,"max":24.0},{"nutrientId":1095,"nutrientName":"Zinc, Zn","nutrientNumber":"309","unitName":"MG","derivationCode":"A","derivationDescription":"Analytical","derivationId":1,"value":0.68,"foodNutrientSourceId":1,"foodNutrientSourceCode":"1","foodNutrientSourceDescription":"Analytical or derived from analytical","rank":5900,"indentLevel":1,"foodNutrientId":1463606,"dataPoints":4,"min":0.63,"max":0.73},{"nutrientId":1167,"nutrientName":"Niacin","nutrientNumber":"406","unitName":"MG","derivationCode":"A","derivationDescription":"Analytical","derivationId":1,"value":0.566,"foodNutrientSourceId":1,"foodNutrientSourceCode":"1","foodNutrientSourceDescription":"Analytical or derived from analytical","rank":6600,"indentLevel":1,"foodNutrientId":1463607,"dataPoints":4,"min":0.254,"max":0.995},{"nutrientId":1175,"nutrientName":"Vitamin B-6","nutrientNumber":"415","unitName":"MG","derivationCode":"A","derivationDescription":"Analytical","derivationId":1,"value":0.022,"foodNutrientSourceId":1,"foodNutrientSourceCode":"1","foodNutrientSourceDescription":"Analytical or derived from analytical","rank":6800,"indentLevel":1,"foodNutrientId":1463608,"dataPoints":4,"min":0.02,"max":0.03},{"nutrientId":1062,"nutrientName":"Energy","nutrientNumber":"268","unitName":"kJ","derivationCode":"NC","derivationDescription":"Calculated","derivationId":49,"value":631,"foodNutrientSourceId":2,"foodNutrientSourceCode":"4","foodNutrientSourceDescription":"Calculated or imputed","rank":400,"indentLevel":1,"foodNutrientId":1463609,"dataPoints":0},{"nutrientId":1186,"nutrientName":"Folic acid","nutrientNumber":"431","unitName":"UG","derivationCode":"A","derivationDescription":"Analytical","derivationId":1,"value":0.0,"foodNutrientSourceId":1,"foodNutrientSourceCode":"1","foodNutrientSourceDescription":"Analytical or derived from analytical","rank":7000,"indentLevel":0,"foodNutrientId":1463610,"dataPoints":4,"min":0.0,"max":0.0},{"nutrientId":1190,"nutrientName":"Folate, DFE","nutrientNumber":"435","unitName":"UG","derivationCode":"NC","derivationDescription":"Calculated","derivationId":49,"value":5.0,"foodNutrientSourceId":2,"foodNutrientSourceCode":"4","foodNutrientSourceDescription":"Calculated or imputed","rank":7200,"indentLevel":1,"foodNutrientId":1463611,"dataPoints":0},{"nutrientId":1005,"nutrientName":"Carbohydrate, by difference","nutrientNumber":"205","unitName":"G","derivationCode":"NC","derivationDescription":"Calculated","derivationId":49,"value":33.9,"foodNutrientSourceId":2,"foodNutrientSourceCode":"4","foodNutrientSourceDescription":"Calculated or imputed","rank":1110,"indentLevel":2,"foodNutrientId":1463612,"dataPoints":0},{"nutrientId":1008,"nutrientName":"Energy","nutrientNumber":"208","unitName":"KCAL","derivationCode":"NC","derivationDescription":"Calculated","derivationId":49,"value":151,"foodNutrientSourceId":2,"foodNutrientSourceCode":"4","foodNutrientSourceDescription":"Calculated or imputed","rank":300,"indentLevel":1,"foodNutrientId":1463613,"dataPoints":0}],"finalFoodInputFoods":[],"foodMeasures":[],"foodAttributes":[],"foodAttributeTypes":[],"foodVersionIds":[]}],"aggregations":{"dataType":{"Branded":82796,"Survey (FNDDS)":853,"SR Legacy":334,"Foundation":26,"Experimental":4},"nutrients":{}}}
