{"totalHits":52034,"currentPage":1,"totalPages":52034,"pageList":[1,2,3,4,5,6,7,8,9,10],"foodSearchCriteria":{"query":"Boiled Egg","generalSearchInput":"Boiled Egg","pageNumber":1,"numberOfResultsPerPage":50,"pageSize":1,"requireAllWords":false},"foods":[{"fdcId":2707154,"description":"Egg, whole, boiled or poached","commonNames":"","additionalDescriptions":"egg, cooked, no fat or milk added;soft boiled or hard boiled egg","dataType":"Survey (FNDDS)","foodCode":31103010,"publishedDate":"2024-10-31","foodCategory":"Eggs and omelets","foodCategoryId":3301856,"allHighlightFields":"<b>Includes</b>: <em>egg</em>, cooked, no fat or milk added;soft <em>boiled</em> or hard <em>boiled</em> <em>egg</em>","score":685.7682,"microbes":[],"foodNutrients":[{"nutrientId":1003,"nutrientName":"Protein","nutrientNumber":"203","unitName":"G","value":12.4,"rank":600,"indentLevel":1,"foodNutrientId":34251209},{"nutrientId":1004,"nutrientName":"Total lipid (fat)","nutrientNumber":"204","unitName":"G","value":9.96,"rank":800,"indentLevel":1,"foodNutrientId":34251210},{"nutrientId":1005,"nutrientName":"Carbohydrate, by difference","nutrientNumber":"205","unitName":"G","value":0.96,"rank":1110,"indentLevel":2,"foodNutrientId":34251211},{"nutrientId":1008,"nutrientName":"Energy","nutrientNumber":"208","unitName":"KCAL","value":143,"rank":300,"indentLevel":1,"foodNutrientId":34251212},{"nutrientId":1018,"nutrientName":"Alcohol, ethyl","nutrientNumber":"221","unitName":"G","value":0,"rank":18200,"indentLevel":1,"foodNutrientId":34251213},{"nutrientId":1051,"nutrientName":"Water","nutrientNumber":"255","unitName":"G","value":75.8,"rank":100,"indentLevel":1,"foodNutrientId":34251214},{"nutrientId":1057,"nutrientName":"Caffeine","nutrientNumber":"262","unitName":"MG","value":0,"rank":18300,"indentLevel":0,"foodNutrientId":34251215},{"nutrientId":1058,"nutrientName":"Theobromine","nutrientNumber":"263","unitName":"MG","value":0,"rank":18400,"indentLevel":0,"foodNutrientId":34251216},{"nutrientId":2000,"nutrientName":"Total Sugars","nutrientNumber":"269","unitName":"G","value":0.2,"rank":1510,"indentLevel":3,"foodNutrientId":34251217},{"nutrientId":1079,"nutrientName":"Fiber, total dietary","nutrientNumber":"291","unitName":"G","value":0,"rank":1200,"indentLevel":3,"foodNutrientId":34251218},{"nutrientId":1087,"nutrientName":"Calcium, Ca","nutrientNumber":"301","unitName":"MG","value":48,"rank":5300,"indentLevel":1,"foodNutrientId":34251219},{"nutrientId":1089,"nutrientName":"Iron, Fe","nutrientNumber":"303","unitName":"MG","value":1.67,"rank":5400,"indentLevel":1,"foodNutrientId":34251220},{"nutrientId":1090,"nutrientName":"Magnesium, Mg","nutrientNumber":"304","unitName":"MG","value":11,"rank":5500,"indentLevel":1,"foodNutrientId":34251221},{"nutrientId":1091,"nutrientName":"Phosphorus, P","nutrientNumber":"305","unitName":"MG","value":184,"rank":5600,"indentLevel":1,"foodNutrientId":34251222},{"nutrientId":1092,"nutrientName":"Potassium, K","nutrientNumber":"306","unitName":"MG","value":132,"rank":5700,"indentLevel":1,"foodNutrientId":34251223},{"nutrientId":1093,"nutrientName":"Sodium, Na","nutrientNumber":"307","unitName":"MG","value":129,"rank":5800,"indentLevel":1,"foodNutrientId":34251224},{"nutrientId":1095,"nutrientName":"Zinc, Zn","nutrientNumber":"309","unitName":"MG","value":1.24,"rank":5900,"indentLevel":1,"foodNutrientId":34251225},{"nutrientId":1098,"nutrientName":"Copper, Cu","nutrientNumber":"312","unitName":"MG","value":0,"rank":6000,"indentLevel":1,"foodNutrientId":34251226},{"nutrientId":1103,"nutrientName":"Selenium, Se","nutrientNumber":"317","unitName":"UG","value":31.1,"rank":6200,"indentLevel":1,"foodNutrientId":34251227},{"nutrientId":1105,"nutrientName":"Retinol","nutrientNumber":"319","unitName":"UG","value":179,"rank":7430,"indentLevel":2,"foodNutrientId":34251228},{"nutrientId":1106,"nutrientName":"Vitamin A, RAE","nutrientNumber":"320","unitName":"UG","value":180,"rank":7420,"indentLevel":1,"foodNutrientId":34251229},{"nutrientId":1107,"nutrientName":"Carotene, beta","nutrientNumber":"321","unitName":"UG","value":0,"rank":7440,"indentLevel":2,"foodNutrientId":34251230},{"nutrientId":1108,"nutrientName":"Carotene, alpha","nutrientNumber":"322","unitName":"UG","value":0,"rank":7450,"indentLevel":2,"foodNutrientId":34251231},{"nutrientId":1109,"nutrientName":"Vitamin E (alpha-tocopherol)","nutrientNumber":"323","unitName":"MG","value":1.05,"rank":7905,"indentLevel":1,"foodNutrientId":34251232},{"nutrientId":1114,"nutrientName":"Vitamin D (D2 + D3)","nutrientNumber":"328","unitName":"UG","value":2.5,"rank":8700,"indentLevel":1,"foodNutrientId":34251233},{"nutrientId":1120,"nutrientName":"Cryptoxanthin, beta","nutrientNumber":"334","unitName":"UG","value":13,"rank":7460,"indentLevel":2,"foodNutrientId":34251234},{"nutrientId":1122,"nutrientName":"Lycopene","nutrientNumber":"337","unitName":"UG","value":0,"rank":7530,"indentLevel":1,"foodNutrientId":34251235},{"nutrientId":1123,"nutrientName":"Lutein + zeaxanthin","nutrientNumber":"338","unitName":"UG","value":503,"rank":7560,"indentLevel":1,"foodNutrientId":34251236},{"nutrientId":1162,"nutrientName":"Vitamin C, total ascorbic acid","nutrientNumber":"401","unitName":"MG","value":0,"rank":6300,"indentLevel":1,"foodNutrientId":34251237},{"nutrientId":1165,"nutrientName":"Thiamin","nutrientNumber":"404","unitName":"MG","value":0.062,"rank":6400,"indentLevel":1,"foodNutrientId":34251238},{"nutrientId":1166,"nutrientName":"Riboflavin","nutrientNumber":"405","unitName":"MG","value":0.398,"rank":6500,"indentLevel":1,"foodNutrientId":34251239},{"nutrientId":1167,"nutrientName":"Niacin","nutrientNumber":"406","unitName":"MG","value":0,"rank":6600,"indentLevel":1,"foodNutrientId":34251240},{"nutrientId":1175,"nutrientName":"Vitamin B-6","nutrientNumber":"415","unitName":"MG","value":0.06,"rank":6800,"indentLevel":1,"foodNutrientId":34251241},{"nutrientId":1177,"nutrientName":"Folate, total","nutrientNumber":"417","unitName":"UG","value":53,"rank":6900,"indentLevel":1,"foodNutrientId":34251242},{"nutrientId":1178,"nutrientName":"Vitamin B-12","nutrientNumber":"418","unitName":"UG","value":0.82,"rank":7300,"indentLevel":1,"foodNutrientId":34251243},{"nutrientId":1180,"nutrientName":"Choline, total","nutrientNumber":"421","unitName":"MG","value":268,"rank":7220,"indentLevel":1,"foodNutrientId":34251244},{"nutrientId":1185,"nutrientName":"Vitamin K (phylloquinone)","nutrientNumber":"430","unitName":"UG","value":0.3,"rank":8800,"indentLevel":1,"foodNutrientId":34251245},{"nutrientId":1186,"nutrientName":"Folic acid","nutrientNumber":"431","unitName":"UG","value":0,"rank":7000,"indentLevel":0,"foodNutrientId":34251246},{"nutrientId":1187,"nutrientName":"Folate, food","nutrientNumber":"432","unitName":"UG","value":53,"rank":7100,"indentLevel":1,"foodNutrientId":34251247},{"nutrientId":1190,"nutrientName":"Folate, DFE","nutrientNumber":"435","unitName":"UG","value":53,"rank":7200,"indentLevel":1,"foodNutrientId":34251248},{"nutrientId":1242,"nutrientName":"Vitamin E, added","nutrientNumber":"573","unitName":"MG","value":0,"rank":7920,"indentLevel":0,"foodNutrientId":34251249},{"nutrientId":1246,"nutrientName":"Vitamin B-12, added","nutrientNumber":"578","unitName":"UG","value":0,"rank":7340,"indentLevel":0,"foodNutrientId":34251250},{"nutrientId":1253,"nutrientName":"Cholesterol","nutrientNumber":"601","unitName":"MG","value":411,"rank":15700,"indentLevel":1,"foodNutrientId":34251251},{"nutrientId":1258,"nutrientName":"Fatty acids, total saturated","nutrientNumber":"606","unitName":"G","value":3.2,"rank":9700,"indentLevel":1,"foodNutrientId":34251252},{"nutrientId":1259,"nutrientName":"SFA 4:0","nutrientNumber":"607","unitName":"G","value":0,"rank":9800,"indentLevel":2,"foodNutrientId":34251253},{"nutrientId":1260,"nutrientName":"SFA 6:0","nutrientNumber":"608","unitName":"G","value":0,"rank":9900,"indentLevel":2,"foodNutrientId":34251254},{"nutrientId":1261,"nutrientName":"SFA 8:0","nutrientNumber":"609","unitName":"G","value":0,"rank":10000,"indentLevel":2,"foodNutrientId":34251255},{"nutrientId":1262,"nutrientName":"SFA 10:0","nutrientNumber":"610","unitName":"G","value":0,"rank":10100,"indentLevel":2,"foodNutrientId":34251256},{"nutrientId":1263,"nutrientName":"SFA 12:0","nutrientNumber":"611","unitName":"G","value":0,"rank":10300,"indentLevel":2,"foodNutrientId":34251257},{"nutrientId":1264,"nutrientName":"SFA 14:0","nutrientNumber":"612","unitName":"G","value":0.032,"rank":10500,"indentLevel":2,"foodNutrientId":34251258},{"nutrientId":1265,"nutrientName":"SFA 16:0","nutrientNumber":"613","unitName":"G","value":2.32,"rank":10700,"indentLevel":2,"foodNutrientId":34251259},{"nutrientId":1266,"nutrientName":"SFA 18:0","nutrientNumber":"614","unitName":"G","value":0.813,"rank":10900,"indentLevel":2,"foodNutrientId":34251260},{"nutrientId":1268,"nutrientName":"MUFA 18:1","nutrientNumber":"617","unitName":"G","value":3.35,"rank":12100,"indentLevel":2,"foodNutrientId":34251261},{"nutrientId":1269,"nutrientName":"PUFA 18:2","nutrientNumber":"618","unitName":"G","value":1.46,"rank":13100,"indentLevel":2,"foodNutrientId":34251262},{"nutrientId":1270,"nutrientName":"PUFA 18:3","nutrientNumber":"619","unitName":"G","value":0.011,"rank":13900,"indentLevel":2,"foodNutrientId":34251263},{"nutrientId":1271,"nutrientName":"PUFA 20:4","nutrientNumber":"620","unitName":"G","value":0,"rank":14700,"indentLevel":2,"foodNutrientId":34251264},{"nutrientId":1272,"nutrientName":"PUFA 22:6 n-3 (DHA)","nutrientNumber":"621","unitName":"G","value":0,"rank":15300,"indentLevel":2,"foodNutrientId":34251265},{"nutrientId":1275,"nutrientName":"MUFA 16:1","nutrientNumber":"626","unitName":"G","value":0.238,"rank":11700,"indentLevel":2,"foodNutrientId":34251266},{"nutrientId":1276,"nutrientName":"PUFA 18:4","nutrientNumber":"627","unitName":"G","value":0,"rank":14250,"indentLevel":2,"foodNutrientId":34251267},{"nutrientId":1277,"nutrientName":"MUFA 20:1","nutrientNumber":"628","unitName":"G","value":0,"rank":12400,"indentLevel":2,"foodNutrientId":34251268},{"nutrientId":1278,"nutrientName":"PUFA 20:5 n-3 (EPA)","nutrientNumber":"629","unitName":"G","value":0,"rank":15000,"indentLevel":2,"foodNutrientId":34251269},{"nutrientId":1279,"nutrientName":"MUFA 22:1","nutrientNumber":"630","unitName":"G","value":0,"rank":12500,"indentLevel":2,"foodNutrientId":34251270},{"nutrientId":1280,"nutrientName":"PUFA 22:5 n-3 (DPA)","nutrientNumber":"631","unitName":"G","value":0,"rank":15200,"indentLevel":2,"foodNutrientId":34251271},{"nutrientId":1292,"nutrientName":"Fatty acids, total monounsaturated","nutrientNumber":"645","unitName":"G","value":3.63,"rank":11400,"indentLevel":1,"foodNutrientId":34251272},{"nutrientId":1293,"nutrientName":"Fatty acids, total polyunsaturated","nutrientNumber":"646","unitName":"G","value":1.82,"rank":12900,"indentLevel":1,"foodNutrientId":34251273}],"finalFoodInputFoods":[{"foodDescription":"Eggs, Grade A, Large, egg whole","gramWeight":100,"id":131122,"portionCode":"0","portionDescription":"NONE","unit":"GM","rank":1,"retentionCode":101,"srCode":1123,"value":100}],"foodMeasures":[{"disseminationText":"1 egg","gramWeight":50,"id":297269,"modifier":"60710","rank":1,"measureUnitAbbreviation":"undetermined","measureUnitName":"undetermined","measureUnitId":9999},{"disseminationText":"1 slice","gramWeight":5,"id":297271,"modifier":"61935","rank":3,"measureUnitAbbreviation":"undetermined","measureUnitName":"undetermined","measureUnitId":9999},{"disseminationText":"1 cup","gramWeight":135,"id":297270,"modifier":"10205","rank":2,"measureUnitAbbreviation":"undetermined","measureUnitName":"undetermined","measureUnitId":9999},{"disseminationText":"Quantity not specified","gramWeight":50,"id":297272,"modifier":"90000","rank":4,"measureUnitAbbreviation":"undetermined","measureUnitName":"undetermined","measureUnitId":9999}],"foodAttributes":[{"value":"2502","name":"WWEIA Category number","id":3301855},{"value":"egg, cooked, no fat or milk added","id":3311866,"sequenceNumber":2},{"value":"Moisture change: 0%","id":3320594},{"value":"Eggs and omelets","name":"WWEIA Category description","id":3301856},{"value":"soft boiled or hard boiled egg","id":3311865,"sequenceNumber":1}],"foodAttributeTypes":[{"name":"Additional Description","description":"Additional descriptions for the food.","id":1001,"foodAttributes":[{"value":"egg, cooked, no fat or milk added","id":3311866,"sequenceNumber":2},{"value":"soft boiled or hard boiled egg","id":3311865,"sequenceNumber":1}]},{"name":"Adjustments","description":"Adjustments made to foods, including moisture changes","id":1002,"foodAttributes":[{"value":"Moisture change: 0%","id":3320594}]},{"name":"Attribute","description":"Generic attributes","id":999,"foodAttributes":[{"value":"2502","name":"WWEIA Category number","id":3301855},{"value":"Eggs and omelets","name":"WWEIA Category description","id":3301856}]}],"foodVersionIds":[]}],"aggregations":{"dataType":{"Branded":50939,"SR Legacy":722,"Survey (FNDDS)":324,"Foundation":43,"Experimental":6},"nutrients":{}}}
