{"totalHits":102258,"currentPage":1,"totalPages":102258,"pageList":[1,2,3,4,5,6,7,8,9,10],"foodSearchCriteria":{"query":"Ice Cream (chocolate)","generalSearchInput":"Ice Cream (chocolate)","pageNumber":1,"numberOfResultsPerPage":50,"pageSize":1,"requireAllWords":false},"foods":[{"fdcId":2705632,"description":"Ice cream, chocolate","commonNames":"","additionalDescriptions":"in a cup;scoop","dataType":"Survey (FNDDS)","foodCode":13110110,"publishedDate":"2024-10-31","foodCategory":"Ice cream and frozen dairy desserts","foodCategoryId":3298812,"allHighlightFields":"","score":595.44763,"microbes":[],"foodNutrients":[{"nutrientId":1003,"nutrientName":"Protein","nutrientNumber":"203","unitName":"G","value":3.8,"rank":600,"indentLevel":1,"foodNutrientId":34152279},{"nutrientId":1004,"nutrientName":"Total lipid (fat)","nutrientNumber":"204","unitName":"G","value":11,"rank":800,"indentLevel":1,"foodNutrientId":34152280},{"nutrientId":1005,"nutrientName":"Carbohydrate, by difference","nutrientNumber":"205","unitName":"G","value":28.2,"rank":1110,"indentLevel":2,"foodNutrientId":34152281},{"nutrientId":1008,"nutrientName":"Energy","nutrientNumber":"208","unitName":"KCAL","value":216,"rank":300,"indentLevel":1,"foodNutrientId":34152282},{"nutrientId":1018,"nutrientName":"Alcohol, ethyl","nutrientNumber":"221","unitName":"G","value":0,"rank":18200,"indentLevel":1,"foodNutrientId":34152283},{"nutrientId":1051,"nutrientName":"Water","nutrientNumber":"255","unitName":"G","value":55.7,"rank":100,"indentLevel":1,"foodNutrientId":34152284},{"nutrientId":1057,"nutrientName":"Caffeine","nutrientNumber":"262","unitName":"MG","value":3,"rank":18300,"indentLevel":0,"foodNutrientId":34152285},{"nutrientId":1058,"nutrientName":"Theobromine","nutrientNumber":"263","unitName":"MG","value":62,"rank":18400,"indentLevel":0,"foodNutrientId":34152286},{"nutrientId":2000,"nutrientName":"Total Sugars","nutrientNumber":"269","unitName":"G","value":25.36,"rank":1510,"indentLevel":3,"foodNutrientId":34152287},{"nutrientId":1079,"nutrientName":"Fiber, total dietary","nutrientNumber":"291","unitName":"G","value":1.2,"rank":1200,"indentLevel":3,"foodNutrientId":34152288},{"nutrientId":1087,"nutrientName":"Calcium, Ca","nutrientNumber":"301","unitName":"MG","value":109,"rank":5300,"indentLevel":1,"foodNutrientId":34152289},{"nutrientId":1089,"nutrientName":"Iron, Fe","nutrientNumber":"303","unitName":"MG","value":0.93,"rank":5400,"indentLevel":1,"foodNutrientId":34152290},{"nutrientId":1090,"nutrientName":"Magnesium, Mg","nutrientNumber":"304","unitName":"MG","value":29,"rank":5500,"indentLevel":1,"foodNutrientId":34152291},{"nutrientId":1091,"nutrientName":"Phosphorus, P","nutrientNumber":"305","unitName":"MG","value":107,"rank":5600,"indentLevel":1,"foodNutrientId":34152292},{"nutrientId":1092,"nutrientName":"Potassium, K","nutrientNumber":"306","unitName":"MG","value":249,"rank":5700,"indentLevel":1,"foodNutrientId":34152293},{"nutrientId":1093,"nutrientName":"Sodium, Na","nutrientNumber":"307","unitName":"MG","value":76,"rank":5800,"indentLevel":1,"foodNutrientId":34152294},{"nutrientId":1095,"nutrientName":"Zinc, Zn","nutrientNumber":"309","unitName":"MG","value":0.58,"rank":5900,"indentLevel":1,"foodNutrientId":34152295},{"nutrientId":1098,"nutrientName":"Copper, Cu","nutrientNumber":"312","unitName":"MG","value":0.135,"rank":6000,"indentLevel":1,"foodNutrientId":34152296},{"nutrientId":1103,"nutrientName":"Selenium, Se","nutrientNumber":"317","unitName":"UG","value":2.5,"rank":6200,"indentLevel":1,"foodNutrientId":34152297},{"nutrientId":1105,"nutrientName":"Retinol","nutrientNumber":"319","unitName":"UG","value":116,"rank":7430,"indentLevel":2,"foodNutrientId":34152298},{"nutrientId":1106,"nutrientName":"Vitamin A, RAE","nutrientNumber":"320","unitName":"UG","value":118,"rank":7420,"indentLevel":1,"foodNutrientId":34152299},{"nutrientId":1107,"nutrientName":"Carotene, beta","nutrientNumber":"321","unitName":"UG","value":19,"rank":7440,"indentLevel":2,"foodNutrientId":34152300},{"nutrientId":1108,"nutrientName":"Carotene, alpha","nutrientNumber":"322","unitName":"UG","value":0,"rank":7450,"indentLevel":2,"foodNutrientId":34152301},{"nutrientId":1109,"nutrientName":"Vitamin E (alpha-tocopherol)","nutrientNumber":"323","unitName":"MG","value":0.3,"rank":7905,"indentLevel":1,"foodNutrientId":34152302},{"nutrientId":1114,"nutrientName":"Vitamin D (D2 + D3)","nutrientNumber":"328","unitName":"UG","value":0.2,"rank":8700,"indentLevel":1,"foodNutrientId":34152303},{"nutrientId":1120,"nutrientName":"Cryptoxanthin, beta","nutrientNumber":"334","unitName":"UG","value":0,"rank":7460,"indentLevel":2,"foodNutrientId":34152304},{"nutrientId":1122,"nutrientName":"Lycopene","nutrientNumber":"337","unitName":"UG","value":0,"rank":7530,"indentLevel":1,"foodNutrientId":34152305},{"nutrientId":1123,"nutrientName":"Lutein + zeaxanthin","nutrientNumber":"338","unitName":"UG","value":0,"rank":7560,"indentLevel":1,"foodNutrientId":34152306},{"nutrientId":1162,"nutrientName":"Vitamin C, total ascorbic acid","nutrientNumber":"401","unitName":"MG","value":0.7,"rank":6300,"indentLevel":1,"foodNutrientId":34152307},{"nutrientId":1165,"nutrientName":"Thiamin","nutrientNumber":"404","unitName":"MG","value":0.042,"rank":6400,"indentLevel":1,"foodNutrientId":34152308},{"nutrientId":1166,"nutrientName":"Riboflavin","nutrientNumber":"405","unitName":"MG","value":0.194,"rank":6500,"indentLevel":1,"foodNutrientId":34152309},{"nutrientId":1167,"nutrientName":"Niacin","nutrientNumber":"406","unitName":"MG","value":0.226,"rank":6600,"indentLevel":1,"foodNutrientId":34152310},{"nutrientId":1175,"nutrientName":"Vitamin B-6","nutrientNumber":"415","unitName":"MG","value":0.055,"rank":6800,"indentLevel":1,"foodNutrientId":34152311},{"nutrientId":1177,"nutrientName":"Folate, total","nutrientNumber":"417","unitName":"UG","value":16,"rank":6900,"indentLevel":1,"foodNutrientId":34152312},{"nutrientId":1178,"nutrientName":"Vitamin B-12","nutrientNumber":"418","unitName":"UG","value":0.29,"rank":7300,"indentLevel":1,"foodNutrientId":34152313},{"nutrientId":1180,"nutrientName":"Choline, total","nutrientNumber":"421","unitName":"MG","value":22.5,"rank":7220,"indentLevel":1,"foodNutrientId":34152314},{"nutrientId":1185,"nutrientName":"Vitamin K (phylloquinone)","nutrientNumber":"430","unitName":"UG","value":0.3,"rank":8800,"indentLevel":1,"foodNutrientId":34152315},{"nutrientId":1186,"nutrientName":"Folic acid","nutrientNumber":"431","unitName":"UG","value":0,"rank":7000,"indentLevel":0,"foodNutrientId":34152316},{"nutrientId":1187,"nutrientName":"Folate, food","nutrientNumber":"432","unitName":"UG","value":16,"rank":7100,"indentLevel":1,"foodNutrientId":34152317},{"nutrientId":1190,"nutrientName":"Folate, DFE","nutrientNumber":"435","unitName":"UG","value":16,"rank":7200,"indentLevel":1,"foodNutrientId":34152318},{"nutrientId":1242,"nutrientName":"Vitamin E, added","nutrientNumber":"573","unitName":"MG","value":0,"rank":7920,"indentLevel":0,"foodNutrientId":34152319},{"nutrientId":1246,"nutrientName":"Vitamin B-12, added","nutrientNumber":"578","unitName":"UG","value":0,"rank":7340,"indentLevel":0,"foodNutrientId":34152320},{"nutrientId":1253,"nutrientName":"Cholesterol","nutrientNumber":"601","unitName":"MG","value":34,"rank":15700,"indentLevel":1,"foodNutrientId":34152321},{"nutrientId":1258,"nutrientName":"Fatty acids, total saturated","nutrientNumber":"606","unitName":"G","value":6.8,"rank":9700,"indentLevel":1,"foodNutrientId":34152322},{"nutrientId":1259,"nutrientName":"SFA 4:0","nutrientNumber":"607","unitName":"G","value":0.34,"rank":9800,"indentLevel":2,"foodNutrientId":34152323},{"nutrientId":1260,"nutrientName":"SFA 6:0","nutrientNumber":"608","unitName":"G","value":0.2,"rank":9900,"indentLevel":2,"foodNutrientId":34152324},{"nutrientId":1261,"nutrientName":"SFA 8:0","nutrientNumber":"609","unitName":"G","value":0.12,"rank":10000,"indentLevel":2,"foodNutrientId":34152325},{"nutrientId":1262,"nutrientName":"SFA 10:0","nutrientNumber":"610","unitName":"G","value":0.26,"rank":10100,"indentLevel":2,"foodNutrientId":34152326},{"nutrientId":1263,"nutrientName":"SFA 12:0","nutrientNumber":"611","unitName":"G","value":0.29,"rank":10300,"indentLevel":2,"foodNutrientId":34152327},{"nutrientId":1264,"nutrientName":"SFA 14:0","nutrientNumber":"612","unitName":"G","value":1.07,"rank":10500,"indentLevel":2,"foodNutrientId":34152328},{"nutrientId":1265,"nutrientName":"SFA 16:0","nutrientNumber":"613","unitName":"G","value":3.06,"rank":10700,"indentLevel":2,"foodNutrientId":34152329},{"nutrientId":1266,"nutrientName":"SFA 18:0","nutrientNumber":"614","unitName":"G","value":1.46,"rank":10900,"indentLevel":2,"foodNutrientId":34152330},{"nutrientId":1268,"nutrientName":"MUFA 18:1","nutrientNumber":"617","unitName":"G","value":2.97,"rank":12100,"indentLevel":2,"foodNutrientId":34152331},{"nutrientId":1269,"nutrientName":"PUFA 18:2","nutrientNumber":"618","unitName":"G","value":0.25,"rank":13100,"indentLevel":2,"foodNutrientId":34152332},{"nutrientId":1270,"nutrientName":"PUFA 18:3","nutrientNumber":"619","unitName":"G","value":0.15,"rank":13900,"indentLevel":2,"foodNutrientId":34152333},{"nutrientId":1271,"nutrientName":"PUFA 20:4","nutrientNumber":"620","unitName":"G","value":0,"rank":14700,"indentLevel":2,"foodNutrientId":34152334},{"nutrientId":1272,"nutrientName":"PUFA 22:6 n-3 (DHA)","nutrientNumber":"621","unitName":"G","value":0,"rank":15300,"indentLevel":2,"foodNutrientId":34152335},{"nutrientId":1275,"nutrientName":"MUFA 16:1","nutrientNumber":"626","unitName":"G","value":0.24,"rank":11700,"indentLevel":2,"foodNutrientId":34152336},{"nutrientId":1276,"nutrientName":"PUFA 18:4","nutrientNumber":"627","unitName":"G","value":0,"rank":14250,"indentLevel":2,"foodNutrientId":34152337},{"nutrientId":1277,"nutrientName":"MUFA 20:1","nutrientNumber":"628","unitName":"G","value":0,"rank":12400,"indentLevel":2,"foodNutrientId":34152338},{"nutrientId":1278,"nutrientName":"PUFA 20:5 n-3 (EPA)","nutrientNumber":"629","unitName":"G","value":0,"rank":15000,"indentLevel":2,"foodNutrientId":34152339},{"nutrientId":1279,"nutrientName":"MUFA 22:1","nutrientNumber":"630","unitName":"G","value":0,"rank":12500,"indentLevel":2,"foodNutrientId":34152340},{"nutrientId":1280,"nutrientName":"PUFA 22:5 n-3 (DPA)","nutrientNumber":"631","unitName":"G","value":0,"rank":15200,"indentLevel":2,"foodNutrientId":34152341},{"nutrientId":1292,"nutrientName":"Fatty acids, total monounsaturated","nutrientNumber":"645","unitName":"G","value":3.21,"rank":11400,"indentLevel":1,"foodNutrientId":34152342},{"nutrientId":1293,"nutrientName":"Fatty acids, total polyunsaturated","nutrientNumber":"646","unitName":"G","value":0.41,"rank":12900,"indentLevel":1,"foodNutrientId":34152343}],"finalFoodInputFoods":[{"foodDescription":"Ice creams, chocolate","gramWeight":100,"id":124787,"portionCode":"0","portionDescription":"NONE","unit":"GM","rank":1,"retentionCode":0,"srCode":19270,"value":100}],"foodMeasures":[{"disseminationText":"1 individual container","gramWeight":75,"id":291321,"modifier":"60868","rank":7,"measureUnitAbbreviation":"undetermined","measureUnitName":"undetermined","measureUnitId":9999},{"disseminationText":"Quantity not specified","gramWeight":135,"id":291322,"modifier":"90000","rank":8,"measureUnitAbbreviation":"undetermined","measureUnitName":"undetermined","measureUnitId":9999},{"disseminationText":"1 large ice cream cup","gramWeight":360,"id":291319,"modifier":"64735","rank":5,"measureUnitAbbreviation":"undetermined","measureUnitName":"undetermined","measureUnitId":9999},{"disseminationText":"1 cubic inch","gramWeight":9.2,"id":291320,"modifier":"51000","rank":6,"measureUnitAbbreviation":"undetermined","measureUnitName":"undetermined","measureUnitId":9999},{"disseminationText":"1 medium ice cream cup","gramWeight":240,"id":291318,"modifier":"64734","rank":4,"measureUnitAbbreviation":"undetermined","measureUnitName":"undetermined","measureUnitId":9999},{"disseminationText":"1 cup","gramWeight":135,"id":291315,"modifier":"10205","rank":1,"measureUnitAbbreviation":"undetermined","measureUnitName":"undetermined","measureUnitId":9999},{"disseminationText":"1 scoop","gramWeight":120,"id":291316,"modifier":"64289","rank":2,"measureUnitAbbreviation":"undetermined","measureUnitName":"undetermined","measureUnitId":9999},{"disseminationText":"1 small ice cream cup","gramWeight":120,"id":291317,"modifier":"64733","rank":3,"measureUnitAbbreviation":"undetermined","measureUnitName":"undetermined","measureUnitId":9999}],"foodAttributes":[{"value":"5802","name":"WWEIA Category number","id":3298811},{"value":"Moisture change: 0%","id":3319072},{"value":"Ice cream and frozen dairy desserts","name":"WWEIA Category description","id":3298812},{"value":"in a cup","id":3309615,"sequenceNumber":1},{"value":"scoop","id":3309616,"sequenceNumber":2}],"foodAttributeTypes":[{"name":"Additional Description","description":"Additional descriptions for the food.","id":1001,"foodAttributes":[{"value":"in a cup","id":3309615,"sequenceNumber":1},{"value":"scoop","id":3309616,"sequenceNumber":2}]},{"name":"Adjustments","description":"Adjustments made to foods, including moisture changes","id":1002,"foodAttributes":[{"value":"Moisture change: 0%","id":3319072}]},{"name":"Attribute","description":"Generic attributes","id":999,"foodAttributes":[{"value":"5802","name":"WWEIA Category number","id":3298811},{"value":"Ice cream and frozen dairy desserts","name":"WWEIA Category description","id":3298812}]}],"foodVersionIds":[]}],"aggregations":{"dataType":{"Branded":101220,"Survey (FNDDS)":641,"SR Legacy":394,"Foundation":3},"nutrients":{}}}
