{"totalHits":2458,"currentPage":1,"totalPages":2458,"pageList":[1,2,3,4,5,6,7,8,9,10],"foodSearchCriteria":{"query":"Sushi (tuna)","generalSearchInput":"Sushi (tuna)","pageNumber":1,"numberOfResultsPerPage":50,"pageSize":1,"requireAllWords":false},"foods":[{"fdcId":2708971,"description":"Sushi, topped with tuna","commonNames":"","additionalDescriptions":"Nigiri;sushi topped with other seafood, NFS","dataType":"Survey (FNDDS)","foodCode":58151440,"publishedDate":"2024-10-31","foodCategory":"Egg rolls, dumplings, sushi","foodCategoryId":3305490,"allHighlightFields":"<b>Includes</b>: Nigiri;<em>sushi</em> topped with other seafood, NFS","score":878.4508,"microbes":[],"foodNutrients":[{"nutrientId":1003,"nutrientName":"Protein","nutrientNumber":"203","unitName":"G","value":9.66,"rank":600,"indentLevel":1,"foodNutrientId":34369314},{"nutrientId":1004,"nutrientName":"Total lipid (fat)","nutrientNumber":"204","unitName":"G","value":0.29,"rank":800,"indentLevel":1,"foodNutrientId":34369315},{"nutrientId":1005,"nutrientName":"Carbohydrate, by difference","nutrientNumber":"205","unitName":"G","value":13.39,"rank":1110,"indentLevel":2,"foodNutrientId":34369316},{"nutrientId":1008,"nutrientName":"Energy","nutrientNumber":"208","unitName":"KCAL","value":100,"rank":300,"indentLevel":1,"foodNutrientId":34369317},{"nutrientId":1018,"nutrientName":"Alcohol, ethyl","nutrientNumber":"221","unitName":"G","value":0,"rank":18200,"indentLevel":1,"foodNutrientId":34369318},{"nutrientId":1051,"nutrientName":"Water","nutrientNumber":"255","unitName":"G","value":75.3,"rank":100,"indentLevel":1,"foodNutrientId":34369319},{"nutrientId":1057,"nutrientName":"Caffeine","nutrientNumber":"262","unitName":"MG","value":0,"rank":18300,"indentLevel":0,"foodNutrientId":34369320},{"nutrientId":1058,"nutrientName":"Theobromine","nutrientNumber":"263","unitName":"MG","value":0,"rank":18400,"indentLevel":0,"foodNutrientId":34369321},{"nutrientId":2000,"nutrientName":"Total Sugars","nutrientNumber":"269","unitName":"G","value":0.8,"rank":1510,"indentLevel":3,"foodNutrientId":34369322},{"nutrientId":1079,"nutrientName":"Fiber, total dietary","nutrientNumber":"291","unitName":"G","value":0.6,"rank":1200,"indentLevel":3,"foodNutrientId":34369323},{"nutrientId":1087,"nutrientName":"Calcium, Ca","nutrientNumber":"301","unitName":"MG","value":3,"rank":5300,"indentLevel":1,"foodNutrientId":34369324},{"nutrientId":1089,"nutrientName":"Iron, Fe","nutrientNumber":"303","unitName":"MG","value":0.35,"rank":5400,"indentLevel":1,"foodNutrientId":34369325},{"nutrientId":1090,"nutrientName":"Magnesium, Mg","nutrientNumber":"304","unitName":"MG","value":15,"rank":5500,"indentLevel":1,"foodNutrientId":34369326},{"nutrientId":1091,"nutrientName":"Phosphorus, P","nutrientNumber":"305","unitName":"MG","value":101,"rank":5600,"indentLevel":1,"foodNutrientId":34369327},{"nutrientId":1092,"nutrientName":"Potassium, K","nutrientNumber":"306","unitName":"MG","value":159,"rank":5700,"indentLevel":1,"foodNutrientId":34369328},{"nutrientId":1093,"nutrientName":"Sodium, Na","nutrientNumber":"307","unitName":"MG","value":306,"rank":5800,"indentLevel":1,"foodNutrientId":34369329},{"nutrientId":1095,"nutrientName":"Zinc, Zn","nutrientNumber":"309","unitName":"MG","value":0.37,"rank":5900,"indentLevel":1,"foodNutrientId":34369330},{"nutrientId":1098,"nutrientName":"Copper, Cu","nutrientNumber":"312","unitName":"MG","value":0.042,"rank":6000,"indentLevel":1,"foodNutrientId":34369331},{"nutrientId":1103,"nutrientName":"Selenium, Se","nutrientNumber":"317","unitName":"UG","value":34.8,"rank":6200,"indentLevel":1,"foodNutrientId":34369332},{"nutrientId":1105,"nutrientName":"Retinol","nutrientNumber":"319","unitName":"UG","value":6,"rank":7430,"indentLevel":2,"foodNutrientId":34369333},{"nutrientId":1106,"nutrientName":"Vitamin A, RAE","nutrientNumber":"320","unitName":"UG","value":6,"rank":7420,"indentLevel":1,"foodNutrientId":34369334},{"nutrientId":1107,"nutrientName":"Carotene, beta","nutrientNumber":"321","unitName":"UG","value":0,"rank":7440,"indentLevel":2,"foodNutrientId":34369335},{"nutrientId":1108,"nutrientName":"Carotene, alpha","nutrientNumber":"322","unitName":"UG","value":0,"rank":7450,"indentLevel":2,"foodNutrientId":34369336},{"nutrientId":1109,"nutrientName":"Vitamin E (alpha-tocopherol)","nutrientNumber":"323","unitName":"MG","value":0.11,"rank":7905,"indentLevel":1,"foodNutrientId":34369337},{"nutrientId":1114,"nutrientName":"Vitamin D (D2 + D3)","nutrientNumber":"328","unitName":"UG","value":0.6,"rank":8700,"indentLevel":1,"foodNutrientId":34369338},{"nutrientId":1120,"nutrientName":"Cryptoxanthin, beta","nutrientNumber":"334","unitName":"UG","value":0,"rank":7460,"indentLevel":2,"foodNutrientId":34369339},{"nutrientId":1122,"nutrientName":"Lycopene","nutrientNumber":"337","unitName":"UG","value":0,"rank":7530,"indentLevel":1,"foodNutrientId":34369340},{"nutrientId":1123,"nutrientName":"Lutein + zeaxanthin","nutrientNumber":"338","unitName":"UG","value":0,"rank":7560,"indentLevel":1,"foodNutrientId":34369341},{"nutrientId":1162,"nutrientName":"Vitamin C, total ascorbic acid","nutrientNumber":"401","unitName":"MG","value":0,"rank":6300,"indentLevel":1,"foodNutrientId":34369342},{"nutrientId":1165,"nutrientName":"Thiamin","nutrientNumber":"404","unitName":"MG","value":0.053,"rank":6400,"indentLevel":1,"foodNutrientId":34369343},{"nutrientId":1166,"nutrientName":"Riboflavin","nutrientNumber":"405","unitName":"MG","value":0.048,"rank":6500,"indentLevel":1,"foodNutrientId":34369344},{"nutrientId":1167,"nutrientName":"Niacin","nutrientNumber":"406","unitName":"MG","value":6.574,"rank":6600,"indentLevel":1,"foodNutrientId":34369345},{"nutrientId":1175,"nutrientName":"Vitamin B-6","nutrientNumber":"415","unitName":"MG","value":0.339,"rank":6800,"indentLevel":1,"foodNutrientId":34369346},{"nutrientId":1177,"nutrientName":"Folate, total","nutrientNumber":"417","unitName":"UG","value":1,"rank":6900,"indentLevel":1,"foodNutrientId":34369347},{"nutrientId":1178,"nutrientName":"Vitamin B-12","nutrientNumber":"418","unitName":"UG","value":0.72,"rank":7300,"indentLevel":1,"foodNutrientId":34369348},{"nutrientId":1180,"nutrientName":"Choline, total","nutrientNumber":"421","unitName":"MG","value":23.8,"rank":7220,"indentLevel":1,"foodNutrientId":34369349},{"nutrientId":1185,"nutrientName":"Vitamin K (phylloquinone)","nutrientNumber":"430","unitName":"UG","value":0,"rank":8800,"indentLevel":1,"foodNutrientId":34369350},{"nutrientId":1186,"nutrientName":"Folic acid","nutrientNumber":"431","unitName":"UG","value":0,"rank":7000,"indentLevel":0,"foodNutrientId":34369351},{"nutrientId":1187,"nutrientName":"Folate, food","nutrientNumber":"432","unitName":"UG","value":1,"rank":7100,"indentLevel":1,"foodNutrientId":34369352},{"nutrientId":1190,"nutrientName":"Folate, DFE","nutrientNumber":"435","unitName":"UG","value":1,"rank":7200,"indentLevel":1,"foodNutrientId":34369353},{"nutrientId":1242,"nutrientName":"Vitamin E, added","nutrientNumber":"573","unitName":"MG","value":0,"rank":7920,"indentLevel":0,"foodNutrientId":34369354},{"nutrientId":1246,"nutrientName":"Vitamin B-12, added","nutrientNumber":"578","unitName":"UG","value":0,"rank":7340,"indentLevel":0,"foodNutrientId":34369355},{"nutrientId":1253,"nutrientName":"Cholesterol","nutrientNumber":"601","unitName":"MG","value":14,"rank":15700,"indentLevel":1,"foodNutrientId":34369356},{"nutrientId":1258,"nutrientName":"Fatty acids, total saturated","nutrientNumber":"606","unitName":"G","value":0.083,"rank":9700,"indentLevel":1,"foodNutrientId":34369357},{"nutrientId":1259,"nutrientName":"SFA 4:0","nutrientNumber":"607","unitName":"G","value":0,"rank":9800,"indentLevel":2,"foodNutrientId":34369358},{"nutrientId":1260,"nutrientName":"SFA 6:0","nutrientNumber":"608","unitName":"G","value":0,"rank":9900,"indentLevel":2,"foodNutrientId":34369359},{"nutrientId":1261,"nutrientName":"SFA 8:0","nutrientNumber":"609","unitName":"G","value":0,"rank":10000,"indentLevel":2,"foodNutrientId":34369360},{"nutrientId":1262,"nutrientName":"SFA 10:0","nutrientNumber":"610","unitName":"G","value":0,"rank":10100,"indentLevel":2,"foodNutrientId":34369361},{"nutrientId":1263,"nutrientName":"SFA 12:0","nutrientNumber":"611","unitName":"G","value":0,"rank":10300,"indentLevel":2,"foodNutrientId":34369362},{"nutrientId":1264,"nutrientName":"SFA 14:0","nutrientNumber":"612","unitName":"G","value":0.004,"rank":10500,"indentLevel":2,"foodNutrientId":34369363},{"nutrientId":1265,"nutrientName":"SFA 16:0","nutrientNumber":"613","unitName":"G","value":0.056,"rank":10700,"indentLevel":2,"foodNutrientId":34369364},{"nutrientId":1266,"nutrientName":"SFA 18:0","nutrientNumber":"614","unitName":"G","value":0.017,"rank":10900,"indentLevel":2,"foodNutrientId":34369365},{"nutrientId":1268,"nutrientName":"MUFA 18:1","nutrientNumber":"617","unitName":"G","value":0.071,"rank":12100,"indentLevel":2,"foodNutrientId":34369366},{"nutrientId":1269,"nutrientName":"PUFA 18:2","nutrientNumber":"618","unitName":"G","value":0.046,"rank":13100,"indentLevel":2,"foodNutrientId":34369367},{"nutrientId":1270,"nutrientName":"PUFA 18:3","nutrientNumber":"619","unitName":"G","value":0.002,"rank":13900,"indentLevel":2,"foodNutrientId":34369368},{"nutrientId":1271,"nutrientName":"PUFA 20:4","nutrientNumber":"620","unitName":"G","value":0.005,"rank":14700,"indentLevel":2,"foodNutrientId":34369369},{"nutrientId":1272,"nutrientName":"PUFA 22:6 n-3 (DHA)","nutrientNumber":"621","unitName":"G","value":0.03,"rank":15300,"indentLevel":2,"foodNutrientId":34369370},{"nutrientId":1275,"nutrientName":"MUFA 16:1","nutrientNumber":"626","unitName":"G","value":0.004,"rank":11700,"indentLevel":2,"foodNutrientId":34369371},{"nutrientId":1276,"nutrientName":"PUFA 18:4","nutrientNumber":"627","unitName":"G","value":0,"rank":14250,"indentLevel":2,"foodNutrientId":34369372},{"nutrientId":1277,"nutrientName":"MUFA 20:1","nutrientNumber":"628","unitName":"G","value":0.003,"rank":12400,"indentLevel":2,"foodNutrientId":34369373},{"nutrientId":1278,"nutrientName":"PUFA 20:5 n-3 (EPA)","nutrientNumber":"629","unitName":"G","value":0.004,"rank":15000,"indentLevel":2,"foodNutrientId":34369374},{"nutrientId":1279,"nutrientName":"MUFA 22:1","nutrientNumber":"630","unitName":"G","value":0,"rank":12500,"indentLevel":2,"foodNutrientId":34369375},{"nutrientId":1280,"nutrientName":"PUFA 22:5 n-3 (DPA)","nutrientNumber":"631","unitName":"G","value":0.001,"rank":15200,"indentLevel":2,"foodNutrientId":34369376},{"nutrientId":1292,"nutrientName":"Fatty acids, total monounsaturated","nutrientNumber":"645","unitName":"G","value":0.082,"rank":11400,"indentLevel":1,"foodNutrientId":34369377},{"nutrientId":1293,"nutrientName":"Fatty acids, total polyunsaturated","nutrientNumber":"646","unitName":"G","value":0.092,"rank":12900,"indentLevel":1,"foodNutrientId":34369378}],"finalFoodInputFoods":[{"foodDescription":"Vinegar, distilled","gramWeight":19.5,"id":137630,"portionCode":"10205","portionDescription":"1 cup","unit":"TB","rank":2,"retentionCode":0,"srCode":2053,"value":1.3},{"foodDescription":"Salt, table","gramWeight":3.6,"id":137632,"portionCode":"10205","portionDescription":"1 cup","unit":"TS","rank":4,"retentionCode":0,"srCode":2047,"value":0.6},{"foodDescription":"Fish, tuna, fresh, yellowfin, raw","gramWeight":168,"id":137633,"portionCode":"0","portionDescription":"NONE","unit":"GM","rank":5,"retentionCode":0,"srCode":15127,"value":168},{"foodDescription":"Rice, white, glutinous, unenriched, cooked","gramWeight":290.058,"id":137629,"portionCode":"10043","portionDescription":"1 cup, cooked","unit":"C","rank":1,"retentionCode":0,"srCode":20055,"value":1.67},{"foodDescription":"Sugars, granulated","gramWeight":3.75,"id":137631,"portionCode":"10205","portionDescription":"1 cup","unit":"TB","rank":3,"retentionCode":0,"srCode":19335,"value":0.3}],"foodMeasures":[{"disseminationText":"1 piece","gramWeight":35,"id":305417,"modifier":"61667","rank":1,"measureUnitAbbreviation":"undetermined","measureUnitName":"undetermined","measureUnitId":9999},{"disseminationText":"Quantity not specified","gramWeight":210,"id":305419,"modifier":"90000","rank":3,"measureUnitAbbreviation":"undetermined","measureUnitName":"undetermined","measureUnitId":9999},{"disseminationText":"1 cup","gramWeight":140,"id":305418,"modifier":"10205","rank":2,"measureUnitAbbreviation":"undetermined","measureUnitName":"undetermined","measureUnitId":9999}],"foodAttributes":[{"value":"sushi topped with other seafood, NFS","id":3315572,"sequenceNumber":1},{"value":"Nigiri","id":3315573,"sequenceNumber":2},{"value":"Egg rolls, dumplings, sushi","name":"WWEIA Category description","id":3305490},{"value":"Moisture change: 0%","id":3322411},{"value":"3406","name":"WWEIA Category number","id":3305489}],"foodAttributeTypes":[{"name":"Additional Description","description":"Additional descriptions for the food.","id":1001,"foodAttributes":[{"value":"sushi topped with other seafood, NFS","id":3315572,"sequenceNumber":1},{"value":"Nigiri","id":3315573,"sequenceNumber":2}]},{"name":"Adjustments","description":"Adjustments made to foods, including moisture changes","id":1002,"foodAttributes":[{"value":"Moisture change: 0%","id":3322411}]},{"name":"Attribute","description":"Generic attributes","id":999,"foodAttributes":[{"value":"Egg rolls, dumplings, sushi","name":"WWEIA Category description","id":3305490},{"value":"3406","name":"WWEIA Category number","id":3305489}]}],"foodVersionIds":[]}],"aggregations":{"dataType":{"Branded":2375,"Survey (FNDDS)":65,"SR Legacy":17,"Foundation":1},"nutrients":{}}}
