{"totalHits":70147,"currentPage":1,"totalPages":70147,"pageList":[1,2,3,4,5,6,7,8,9,10],"foodSearchCriteria":{"query":"Stuffed Bell Peppers","generalSearchInput":"Stuffed Bell Peppers","pageNumber":1,"numberOfResultsPerPage":50,"pageSize":1,"requireAllWords":false},"foods":[{"fdcId":2258588,"description":"Peppers, bell, green, raw","commonNames":"","additionalDescriptions":"","dataType":"Foundation","ndbNumber":11333,"publishedDate":"2022-04-28","foodCategory":"Vegetables and Vegetable Products","mostRecentAcquisitionDate":"2021-11-17","allHighlightFields":"","score":602.0706,"microbes":[],"foodNutrients":[{"nutrientId":1089,"nutrientName":"Iron, Fe","nutrientNumber":"303","unitName":"MG","derivationCode":"A","derivationDescription":"Analytical","derivationId":1,"value":0.186,"foodNutrientSourceId":1,"foodNutrientSourceCode":"1","foodNutrientSourceDescription":"Analytical or derived from analytical","rank":5400,"indentLevel":1,"foodNutrientId":27791463,"dataPoints":8,"min":0.0,"max":0.326,"median":0.271},{"nutrientId":1090,"nutrientName":"Magnesium, Mg","nutrientNumber":"304","unitName":"MG","derivationCode":"A","derivationDescription":"Analytical","derivationId":1,"value":9.0,"foodNutrientSourceId":1,"foodNutrientSourceCode":"1","foodNutrientSourceDescription":"Analytical or derived from analytical","rank":5500,"indentLevel":1,"foodNutrientId":27791464,"dataPoints":8,"min":7.82,"max":11.2,"median":8.71},{"nutrientId":1091,"nutrientName":"Phosphorus, P","nutrientNumber":"305","unitName":"MG","derivationCode":"A","derivationDescription":"Analytical","derivationId":1,"value":16.8,"foodNutrientSourceId":1,"foodNutrientSourceCode":"1","foodNutrientSourceDescription":"Analytical or derived from analytical","rank":5600,"indentLevel":1,"foodNutrientId":27791465,"dataPoints":8,"min":14.5,"max":20.2,"median":16.4},{"nutrientId":1092,"nutrientName":"Potassium, K","nutrientNumber":"306","unitName":"MG","derivationCode":"A","derivationDescription":"Analytical","derivationId":1,"value":163,"foodNutrientSourceId":1,"foodNutrientSourceCode":"1","foodNutrientSourceDescription":"Analytical or derived from analytical","rank":5700,"indentLevel":1,"foodNutrientId":27791466,"dataPoints":8,"min":143,"max":175,"median":166},{"nutrientId":1093,"nutrientName":"Sodium, Na","nutrientNumber":"307","unitName":"MG","derivationCode":"A","derivationDescription":"Analytical","derivationId":1,"value":0.0,"foodNutrientSourceId":1,"foodNutrientSourceCode":"1","foodNutrientSourceDescription":"Analytical or derived from analytical","rank":5800,"indentLevel":1,"foodNutrientId":27791467,"dataPoints":8,"min":0.0,"max":0.0,"median":0.0},{"nutrientId":1095,"nutrientName":"Zinc, Zn","nutrientNumber":"309","unitName":"MG","derivationCode":"A","derivationDescription":"Analytical","derivationId":1,"value":0.126,"foodNutrientSourceId":1,"foodNutrientSourceCode":"1","foodNutrientSourceDescription":"Analytical or derived from analytical","rank":5900,"indentLevel":1,"foodNutrientId":27791468,"dataPoints":8,"min":0.0742,"max":0.171,"median":0.12},{"nutrientId":1098,"nutrientName":"Copper, Cu","nutrientNumber":"312","unitName":"MG","derivationCode":"A","derivationDescription":"Analytical","derivationId":1,"value":0.0578,"foodNutrientSourceId":1,"foodNutrientSourceCode":"1","foodNutrientSourceDescription":"Analytical or derived from analytical","rank":6000,"indentLevel":1,"foodNutrientId":27791469,"dataPoints":8,"min":0.0343,"max":0.0732,"median":0.061},{"nutrientId":1002,"nutrientName":"Nitrogen","nutrientNumber":"202","unitName":"G","derivationCode":"A","derivationDescription":"Analytical","derivationId":1,"value":0.114,"foodNutrientSourceId":1,"foodNutrientSourceCode":"1","foodNutrientSourceDescription":"Analytical or derived from analytical","rank":500,"indentLevel":1,"foodNutrientId":27791470,"dataPoints":8,"min":0.1,"max":0.13,"median":0.115},{"nutrientId":1162,"nutrientName":"Vitamin C, total ascorbic acid","nutrientNumber":"401","unitName":"MG","derivationCode":"A","derivationDescription":"Analytical","derivationId":1,"value":99.5,"foodNutrientSourceId":1,"foodNutrientSourceCode":"1","foodNutrientSourceDescription":"Analytical or derived from analytical","rank":6300,"indentLevel":1,"foodNutrientId":27791471,"dataPoints":8,"min":70.4,"max":138,"median":96.2},{"nutrientId":1004,"nutrientName":"Total lipid (fat)","nutrientNumber":"204","unitName":"G","derivationCode":"A","derivationDescription":"Analytical","derivationId":1,"value":0.106,"foodNutrientSourceId":1,"foodNutrientSourceCode":"1","foodNutrientSourceDescription":"Analytical or derived from analytical","rank":800,"indentLevel":1,"foodNutrientId":27791472,"dataPoints":8,"min":0.0,"max":0.48,"median":0.0},{"nutrientId":1101,"nutrientName":"Manganese, Mn","nutrientNumber":"315","unitName":"MG","derivationCode":"A","derivationDescription":"Analytical","derivationId":1,"value":0.0999,"foodNutrientSourceId":1,"foodNutrientSourceCode":"1","foodNutrientSourceDescription":"Analytical or derived from analytical","rank":6100,"indentLevel":1,"foodNutrientId":27791473,"dataPoints":8,"min":0.0689,"max":0.248,"median":0.0792},{"nutrientId":1165,"nutrientName":"Thiamin","nutrientNumber":"404","unitName":"MG","derivationCode":"A","derivationDescription":"Analytical","derivationId":1,"value":0.0391,"foodNutrientSourceId":1,"foodNutrientSourceCode":"1","foodNutrientSourceDescription":"Analytical or derived from analytical","rank":6400,"indentLevel":1,"foodNutrientId":27791474,"dataPoints":8,"min":0.028,"max":0.05,"median":0.0388},{"nutrientId":1166,"nutrientName":"Riboflavin","nutrientNumber":"405","unitName":"MG","derivationCode":"A","derivationDescription":"Analytical","derivationId":1,"value":0.0888,"foodNutrientSourceId":1,"foodNutrientSourceCode":"1","foodNutrientSourceDescription":"Analytical or derived from analytical","rank":6500,"indentLevel":1,"foodNutrientId":27791475,"dataPoints":8,"min":0.08,"max":0.1,"median":0.09},{"nutrientId":1007,"nutrientName":"Ash","nutrientNumber":"207","unitName":"G","derivationCode":"A","derivationDescription":"Analytical","derivationId":1,"value":0.281,"foodNutrientSourceId":1,"foodNutrientSourceCode":"1","foodNutrientSourceDescription":"Analytical or derived from analytical","rank":1000,"indentLevel":1,"foodNutrientId":27791476,"dataPoints":8,"min":0.195,"max":0.36,"median":0.285},{"nutrientId":1167,"nutrientName":"Niacin","nutrientNumber":"406","unitName":"MG","derivationCode":"A","derivationDescription":"Analytical","derivationId":1,"value":0.636,"foodNutrientSourceId":1,"foodNutrientSourceCode":"1","foodNutrientSourceDescription":"Analytical or derived from analytical","rank":6600,"indentLevel":1,"foodNutrientId":27791477,"dataPoints":8,"min":0.56,"max":0.71,"median":0.62},{"nutrientId":1103,"nutrientName":"Selenium, Se","nutrientNumber":"317","unitName":"UG","derivationCode":"A","derivationDescription":"Analytical","derivationId":1,"value":0.0,"foodNutrientSourceId":1,"foodNutrientSourceCode":"1","foodNutrientSourceDescription":"Analytical or derived from analytical","rank":6200,"indentLevel":1,"foodNutrientId":27791478,"dataPoints":8,"min":0.0,"max":0.0,"median":0.0},{"nutrientId":1079,"nutrientName":"Fiber, total dietary","nutrientNumber":"291","unitName":"G","derivationCode":"A","derivationDescription":"Analytical","derivationId":1,"value":0.942,"foodNutrientSourceId":1,"foodNutrientSourceCode":"1","foodNutrientSourceDescription":"Analytical or derived from analytical","rank":1200,"indentLevel":3,"foodNutrientId":27791479,"dataPoints":8,"min":0.831,"max":1.1,"median":0.917},{"nutrientId":1175,"nutrientName":"Vitamin B-6","nutrientNumber":"415","unitName":"MG","derivationCode":"A","derivationDescription":"Analytical","derivationId":1,"value":0.247,"foodNutrientSourceId":1,"foodNutrientSourceCode":"1","foodNutrientSourceDescription":"Analytical or derived from analytical","rank":6800,"indentLevel":1,"foodNutrientId":27791480,"dataPoints":8,"min":0.212,"max":0.278,"median":0.242},{"nutrientId":1176,"nutrientName":"Biotin","nutrientNumber":"416","unitName":"UG","derivationCode":"A","derivationDescription":"Analytical","derivationId":1,"value":0.0,"foodNutrientSourceId":1,"foodNutrientSourceCode":"1","foodNutrientSourceDescription":"Analytical or derived from analytical","rank":6850,"indentLevel":1,"foodNutrientId":27791481,"dataPoints":8,"min":0.0,"max":0.0,"median":0.0},{"nutrientId":1177,"nutrientName":"Folate, total","nutrientNumber":"417","unitName":"UG","derivationCode":"A","derivationDescription":"Analytical","derivationId":1,"value":22.2,"foodNutrientSourceId":1,"foodNutrientSourceCode":"1","foodNutrientSourceDescription":"Analytical or derived from analytical","rank":6900,"indentLevel":1,"foodNutrientId":27791482,"dataPoints":8,"min":16.0,"max":33.7,"median":19.4},{"nutrientId":1051,"nutrientName":"Water","nutrientNumber":"255","unitName":"G","derivationCode":"A","derivationDescription":"Analytical","derivationId":1,"value":94.1,"foodNutrientSourceId":1,"foodNutrientSourceCode":"1","foodNutrientSourceDescription":"Analytical or derived from analytical","rank":100,"indentLevel":1,"foodNutrientId":27791483,"dataPoints":8,"min":93.9,"max":94.3,"median":94.2},{"nutrientId":1087,"nutrientName":"Calcium, Ca","nutrientNumber":"301","unitName":"MG","derivationCode":"A","derivationDescription":"Analytical","derivationId":1,"value":7.5,"foodNutrientSourceId":1,"foodNutrientSourceCode":"1","foodNutrientSourceDescription":"Analytical or derived from analytical","rank":5300,"indentLevel":1,"foodNutrientId":27791484,"dataPoints":8,"min":4.45,"max":10.5,"median":7.92},{"nutrientId":1003,"nutrientName":"Protein","nutrientNumber":"203","unitName":"G","derivationCode":"NC","derivationDescription":"Calculated","derivationId":49,"value":0.715,"foodNutrientSourceId":2,"foodNutrientSourceCode":"4","foodNutrientSourceDescription":"Calculated or imputed","rank":600,"indentLevel":1,"foodNutrientId":27791515,"min":0.625,"max":0.812,"median":0.719},{"nutrientId":1005,"nutrientName":"Carbohydrate, by difference","nutrientNumber":"205","unitName":"G","derivationCode":"NC","derivationDescription":"Calculated","derivationId":49,"value":4.78,"foodNutrientSourceId":2,"foodNutrientSourceCode":"4","foodNutrientSourceDescription":"Calculated or imputed","rank":1110,"indentLevel":2,"foodNutrientId":27791516},{"nutrientId":2047,"nutrientName":"Energy (Atwater General Factors)","nutrientNumber":"957","unitName":"KCAL","derivationCode":"NC","derivationDescription":"Calculated","derivationId":49,"value":22.9,"foodNutrientSourceId":2,"foodNutrientSourceCode":"4","foodNutrientSourceDescription":"Calculated or imputed","rank":280,"indentLevel":1,"foodNutrientId":27791517},{"nutrientId":2048,"nutrientName":"Energy (Atwater Specific Factors)","nutrientNumber":"958","unitName":"KCAL","derivationCode":"NC","derivationDescription":"Calculated","derivationId":49,"value":19.7,"foodNutrientSourceId":2,"foodNutrientSourceCode":"4","foodNutrientSourceDescription":"Calculated or imputed","rank":290,"indentLevel":1,"foodNutrientId":27791518}],"finalFoodInputFoods":[],"foodMeasures":[],"foodAttributes":[],"foodAttributeTypes":[],"foodVersionIds":[]}],"aggregations":{"dataType":{"Branded":69847,"Survey (FNDDS)":220,"SR Legacy":75,"Foundation":5},"nutrients":{}}}
