{"totalHits":1559,"currentPage":1,"totalPages":1559,"pageList":[1,2,3,4,5,6,7,8,9,10],"foodSearchCriteria":{"query":"Spaghetti Bolognese","generalSearchInput":"Spaghetti Bolognese","pageNumber":1,"numberOfResultsPerPage":50,"pageSize":1,"requireAllWords":false},"foods":[{"fdcId":2601287,"description":"SPAGHETTI BOLOGNESE ITALIAN RECIPE SPAGHETTI WITH BEEF BOLOGNESE SAUCE, SPAGHETTI BOLOGNESE","dataType":"Branded","gtinUpc":"041220978373","publishedDate":"2023-07-13","brandOwner":"H E Butt Grocery Company","brandName":"H-E-B","subbrandName":"MEAL SIMPLE","ingredients":"BEEF BOLOGNESE SAUCE (BEEF, TOMATOES [PEAR TOMATOES, TOMATO PUREE, SEA SALT, CITRIC ACID], WATER, ONIONS, BURGUNDY WINE, CELERY, CARROTS, TOMATO PASTE, CANOLA OIL, GARLIC [GARLIC, CITRIC ACID, ASCORBIC ACID TO MAINTAIN COLOR}], SALT, EXTRA VIRGIN OLIVE OIL, CORN STARCH, CREAM [WHOLE MILK], BEEF FLAVOR CONCENTRATE [BEEF BROTH {CONCENTRATED BEEF STOCK, SALT, WATER}, BEEF FLAVOR, SALT, NATURAL FLAVOR, GARLIC POWDER, ONION POWDER, TOMATO PASTE], PECTIN [PECTIN, SUGAR], BASIL, SUGAR, SPICES, OREGANO), COOKED SPAGHETTI (SPAGHETTI [DURUM WHEAT SEMOLINA, NIACIN, IRON, THIAMINE MONONITRATE, RIBOFLAVIN, FOLIC ACID], CANOLA OIL), PARMESAN CHEESE (PASTEURIZED MILK, CHEESE CULTURE, ENZYMES, SALT, CELLULOSE POWDER), PARSLEY.","marketCountry":"United States","foodCategory":"Bacon, Sausages & Ribs","modifiedDate":"2023-05-16","dataSource":"LI","packageWeight":"32 oz/2 lbs/907 g","servingSizeUnit":"GRM","servingSize":197.0,"householdServingFullText":"1 cup","shortDescription":"","tradeChannels":["NO_TRADE_CHANNEL"],"allHighlightFields":"<b>Ingredients</b>: BEEF <em>BOLOGNESE</em> SAUCE (BEEF, TOMATOES [PEAR TOMATOES, TOMATO PUREE, SEA SALT, CITRIC ACID], WATER","score":585.1355,"microbes":[],"foodNutrients":[{"nutrientId":1003,"nutrientName":"Protein","nutrientNumber":"203","unitName":"G","derivationCode":"LCCS","derivationDescription":"Calculated from value per serving size measure","derivationId":70,"value":6.09,"foodNutrientSourceId":9,"foodNutrientSourceCode":"12","foodNutrientSourceDescription":"Manufacturer's analytical; partial documentation","rank":600,"indentLevel":1,"foodNutrientId":32482884},{"nutrientId":1004,"nutrientName":"Total lipid (fat)","nutrientNumber":"204","unitName":"G","derivationCode":"LCCS","derivationDescription":"Calculated from value per serving size measure","derivationId":70,"value":6.6,"foodNutrientSourceId":9,"foodNutrientSourceCode":"12","foodNutrientSourceDescription":"Manufacturer's analytical; partial documentation","rank":800,"indentLevel":1,"foodNutrientId":32482885,"percentDailyValue":17},{"nutrientId":1005,"nutrientName":"Carbohydrate, by difference","nutrientNumber":"205","unitName":"G","derivationCode":"LCCS","derivationDescription":"Calculated from value per serving size measure","derivationId":70,"value":7.61,"foodNutrientSourceId":9,"foodNutrientSourceCode":"12","foodNutrientSourceDescription":"Manufacturer's analytical; partial documentation","rank":1110,"indentLevel":2,"foodNutrientId":32482886,"percentDailyValue":5},{"nutrientId":1008,"nutrientName":"Energy","nutrientNumber":"208","unitName":"KCAL","derivationCode":"LCCS","derivationDescription":"Calculated from value per serving size measure","derivationId":70,"value":112,"foodNutrientSourceId":9,"foodNutrientSourceCode":"12","foodNutrientSourceDescription":"Manufacturer's analytical; partial documentation","rank":300,"indentLevel":1,"foodNutrientId":32482887},{"nutrientId":2000,"nutrientName":"Total Sugars","nutrientNumber":"269","unitName":"G","derivationCode":"LCCS","derivationDescription":"Calculated from value per serving size measure","derivationId":70,"value":1.02,"foodNutrientSourceId":9,"foodNutrientSourceCode":"12","foodNutrientSourceDescription":"Manufacturer's analytical; partial documentation","rank":1510,"indentLevel":3,"foodNutrientId":32482888},{"nutrientId":1079,"nutrientName":"Fiber, total dietary","nutrientNumber":"291","unitName":"G","derivationCode":"LCCS","derivationDescription":"Calculated from value per serving size measure","derivationId":70,"value":0.5,"foodNutrientSourceId":9,"foodNutrientSourceCode":"12","foodNutrientSourceDescription":"Manufacturer's analytical; partial documentation","rank":1200,"indentLevel":3,"foodNutrientId":32482889,"percentDailyValue":4},{"nutrientId":1087,"nutrientName":"Calcium, Ca","nutrientNumber":"301","unitName":"MG","derivationCode":"LCCS","derivationDescription":"Calculated from value per serving size measure","derivationId":70,"value":46.0,"foodNutrientSourceId":9,"foodNutrientSourceCode":"12","foodNutrientSourceDescription":"Manufacturer's analytical; partial documentation","rank":5300,"indentLevel":1,"foodNutrientId":32482890,"percentDailyValue":6},{"nutrientId":1089,"nutrientName":"Iron, Fe","nutrientNumber":"303","unitName":"MG","derivationCode":"LCCS","derivationDescription":"Calculated from value per serving size measure","derivationId":70,"value":1.02,"foodNutrientSourceId":9,"foodNutrientSourceCode":"12","foodNutrientSourceDescription":"Manufacturer's analytical; partial documentation","rank":5400,"indentLevel":1,"foodNutrientId":32482891,"percentDailyValue":10},{"nutrientId":1092,"nutrientName":"Potassium, K","nutrientNumber":"306","unitName":"MG","derivationCode":"LCCS","derivationDescription":"Calculated from value per serving size measure","derivationId":70,"value":122,"foodNutrientSourceId":9,"foodNutrientSourceCode":"12","foodNutrientSourceDescription":"Manufacturer's analytical; partial documentation","rank":5700,"indentLevel":1,"foodNutrientId":32482892,"percentDailyValue":6},{"nutrientId":1093,"nutrientName":"Sodium, Na","nutrientNumber":"307","unitName":"MG","derivationCode":"LCCS","derivationDescription":"Calculated from value per serving size measure","derivationId":70,"value":259,"foodNutrientSourceId":9,"foodNutrientSourceCode":"12","foodNutrientSourceDescription":"Manufacturer's analytical; partial documentation","rank":5800,"indentLevel":1,"foodNutrientId":32482893,"percentDailyValue":22},{"nutrientId":1114,"nutrientName":"Vitamin D (D2 + D3)","nutrientNumber":"328","unitName":"UG","derivationCode":"LCCS","derivationDescription":"Calculated from value per serving size measure","derivationId":70,"value":0.0,"foodNutrientSourceId":9,"foodNutrientSourceCode":"12","foodNutrientSourceDescription":"Manufacturer's analytical; partial documentation","rank":8700,"indentLevel":1,"foodNutrientId":32482894,"percentDailyValue":0},{"nutrientId":1235,"nutrientName":"Sugars, added","nutrientNumber":"539","unitName":"G","derivationCode":"LCCS","derivationDescription":"Calculated from value per serving size measure","derivationId":70,"value":0.0,"foodNutrientSourceId":9,"foodNutrientSourceCode":"12","foodNutrientSourceDescription":"Manufacturer's analytical; partial documentation","rank":1540,"indentLevel":0,"foodNutrientId":32482895,"percentDailyValue":0},{"nutrientId":1253,"nutrientName":"Cholesterol","nutrientNumber":"601","unitName":"MG","derivationCode":"LCCS","derivationDescription":"Calculated from value per serving size measure","derivationId":70,"value":18.0,"foodNutrientSourceId":9,"foodNutrientSourceCode":"12","foodNutrientSourceDescription":"Manufacturer's analytical; partial documentation","rank":15700,"indentLevel":1,"foodNutrientId":32482896,"percentDailyValue":12},{"nutrientId":1257,"nutrientName":"Fatty acids, total trans","nutrientNumber":"605","unitName":"G","derivationCode":"LCCS","derivationDescription":"Calculated from value per serving size measure","derivationId":70,"value":0.25,"foodNutrientSourceId":9,"foodNutrientSourceCode":"12","foodNutrientSourceDescription":"Manufacturer's analytical; partial documentation","rank":15400,"indentLevel":1,"foodNutrientId":32482897},{"nutrientId":1258,"nutrientName":"Fatty acids, total saturated","nutrientNumber":"606","unitName":"G","derivationCode":"LCCS","derivationDescription":"Calculated from value per serving size measure","derivationId":70,"value":2.28,"foodNutrientSourceId":9,"foodNutrientSourceCode":"12","foodNutrientSourceDescription":"Manufacturer's analytical; partial documentation","rank":9700,"indentLevel":1,"foodNutrientId":32482898,"percentDailyValue":23}],"finalFoodInputFoods":[],"foodMeasures":[],"foodAttributes":[],"foodAttributeTypes":[],"foodVersionIds":[]}],"aggregations":{"dataType":{"Branded":1405,"Survey (FNDDS)":119,"SR Legacy":33,"Foundation":2},"nutrients":{}}}
