{"totalHits":21086,"currentPage":1,"totalPages":21086,"pageList":[1,2,3,4,5,6,7,8,9,10],"foodSearchCriteria":{"query":"Tacos (beef)","generalSearchInput":"Tacos (beef)","pageNumber":1,"numberOfResultsPerPage":50,"pageSize":1,"requireAllWords":false},"foods":[{"fdcId":2706750,"description":"Beef taco filling: beef, cheese, tomato, taco sauce","commonNames":"","additionalDescriptions":"","dataType":"Survey (FNDDS)","foodCode":27416300,"publishedDate":"2024-10-31","foodCategory":"Burritos and tacos","foodCategoryId":3301048,"allHighlightFields":"","score":616.6492,"microbes":[],"foodNutrients":[{"nutrientId":1003,"nutrientName":"Protein","nutrientNumber":"203","unitName":"G","value":12.97,"rank":600,"indentLevel":1,"foodNutrientId":34224949},{"nutrientId":1004,"nutrientName":"Total lipid (fat)","nutrientNumber":"204","unitName":"G","value":11.32,"rank":800,"indentLevel":1,"foodNutrientId":34224950},{"nutrientId":1005,"nutrientName":"Carbohydrate, by difference","nutrientNumber":"205","unitName":"G","value":6.37,"rank":1110,"indentLevel":2,"foodNutrientId":34224951},{"nutrientId":1008,"nutrientName":"Energy","nutrientNumber":"208","unitName":"KCAL","value":181,"rank":300,"indentLevel":1,"foodNutrientId":34224952},{"nutrientId":1018,"nutrientName":"Alcohol, ethyl","nutrientNumber":"221","unitName":"G","value":0,"rank":18200,"indentLevel":1,"foodNutrientId":34224953},{"nutrientId":1051,"nutrientName":"Water","nutrientNumber":"255","unitName":"G","value":65.94,"rank":100,"indentLevel":1,"foodNutrientId":34224954},{"nutrientId":1057,"nutrientName":"Caffeine","nutrientNumber":"262","unitName":"MG","value":0,"rank":18300,"indentLevel":0,"foodNutrientId":34224955},{"nutrientId":1058,"nutrientName":"Theobromine","nutrientNumber":"263","unitName":"MG","value":0,"rank":18400,"indentLevel":0,"foodNutrientId":34224956},{"nutrientId":2000,"nutrientName":"Total Sugars","nutrientNumber":"269","unitName":"G","value":4.06,"rank":1510,"indentLevel":3,"foodNutrientId":34224957},{"nutrientId":1079,"nutrientName":"Fiber, total dietary","nutrientNumber":"291","unitName":"G","value":0.9,"rank":1200,"indentLevel":3,"foodNutrientId":34224958},{"nutrientId":1087,"nutrientName":"Calcium, Ca","nutrientNumber":"301","unitName":"MG","value":130,"rank":5300,"indentLevel":1,"foodNutrientId":34224959},{"nutrientId":1089,"nutrientName":"Iron, Fe","nutrientNumber":"303","unitName":"MG","value":1.12,"rank":5400,"indentLevel":1,"foodNutrientId":34224960},{"nutrientId":1090,"nutrientName":"Magnesium, Mg","nutrientNumber":"304","unitName":"MG","value":17,"rank":5500,"indentLevel":1,"foodNutrientId":34224961},{"nutrientId":1091,"nutrientName":"Phosphorus, P","nutrientNumber":"305","unitName":"MG","value":160,"rank":5600,"indentLevel":1,"foodNutrientId":34224962},{"nutrientId":1092,"nutrientName":"Potassium, K","nutrientNumber":"306","unitName":"MG","value":273,"rank":5700,"indentLevel":1,"foodNutrientId":34224963},{"nutrientId":1093,"nutrientName":"Sodium, Na","nutrientNumber":"307","unitName":"MG","value":473,"rank":5800,"indentLevel":1,"foodNutrientId":34224964},{"nutrientId":1095,"nutrientName":"Zinc, Zn","nutrientNumber":"309","unitName":"MG","value":2.65,"rank":5900,"indentLevel":1,"foodNutrientId":34224965},{"nutrientId":1098,"nutrientName":"Copper, Cu","nutrientNumber":"312","unitName":"MG","value":0.077,"rank":6000,"indentLevel":1,"foodNutrientId":34224966},{"nutrientId":1103,"nutrientName":"Selenium, Se","nutrientNumber":"317","unitName":"UG","value":11.7,"rank":6200,"indentLevel":1,"foodNutrientId":34224967},{"nutrientId":1105,"nutrientName":"Retinol","nutrientNumber":"319","unitName":"UG","value":51,"rank":7430,"indentLevel":2,"foodNutrientId":34224968},{"nutrientId":1106,"nutrientName":"Vitamin A, RAE","nutrientNumber":"320","unitName":"UG","value":69,"rank":7420,"indentLevel":1,"foodNutrientId":34224969},{"nutrientId":1107,"nutrientName":"Carotene, beta","nutrientNumber":"321","unitName":"UG","value":207,"rank":7440,"indentLevel":2,"foodNutrientId":34224970},{"nutrientId":1108,"nutrientName":"Carotene, alpha","nutrientNumber":"322","unitName":"UG","value":21,"rank":7450,"indentLevel":2,"foodNutrientId":34224971},{"nutrientId":1109,"nutrientName":"Vitamin E (alpha-tocopherol)","nutrientNumber":"323","unitName":"MG","value":0.75,"rank":7905,"indentLevel":1,"foodNutrientId":34224972},{"nutrientId":1114,"nutrientName":"Vitamin D (D2 + D3)","nutrientNumber":"328","unitName":"UG","value":0.1,"rank":8700,"indentLevel":1,"foodNutrientId":34224973},{"nutrientId":1120,"nutrientName":"Cryptoxanthin, beta","nutrientNumber":"334","unitName":"UG","value":0,"rank":7460,"indentLevel":2,"foodNutrientId":34224974},{"nutrientId":1122,"nutrientName":"Lycopene","nutrientNumber":"337","unitName":"UG","value":3668,"rank":7530,"indentLevel":1,"foodNutrientId":34224975},{"nutrientId":1123,"nutrientName":"Lutein + zeaxanthin","nutrientNumber":"338","unitName":"UG","value":49,"rank":7560,"indentLevel":1,"foodNutrientId":34224976},{"nutrientId":1162,"nutrientName":"Vitamin C, total ascorbic acid","nutrientNumber":"401","unitName":"MG","value":6.6,"rank":6300,"indentLevel":1,"foodNutrientId":34224977},{"nutrientId":1165,"nutrientName":"Thiamin","nutrientNumber":"404","unitName":"MG","value":0.054,"rank":6400,"indentLevel":1,"foodNutrientId":34224978},{"nutrientId":1166,"nutrientName":"Riboflavin","nutrientNumber":"405","unitName":"MG","value":0.154,"rank":6500,"indentLevel":1,"foodNutrientId":34224979},{"nutrientId":1167,"nutrientName":"Niacin","nutrientNumber":"406","unitName":"MG","value":2.255,"rank":6600,"indentLevel":1,"foodNutrientId":34224980},{"nutrientId":1175,"nutrientName":"Vitamin B-6","nutrientNumber":"415","unitName":"MG","value":0.206,"rank":6800,"indentLevel":1,"foodNutrientId":34224981},{"nutrientId":1177,"nutrientName":"Folate, total","nutrientNumber":"417","unitName":"UG","value":15,"rank":6900,"indentLevel":1,"foodNutrientId":34224982},{"nutrientId":1178,"nutrientName":"Vitamin B-12","nutrientNumber":"418","unitName":"UG","value":1.07,"rank":7300,"indentLevel":1,"foodNutrientId":34224983},{"nutrientId":1180,"nutrientName":"Choline, total","nutrientNumber":"421","unitName":"MG","value":34.1,"rank":7220,"indentLevel":1,"foodNutrientId":34224984},{"nutrientId":1185,"nutrientName":"Vitamin K (phylloquinone)","nutrientNumber":"430","unitName":"UG","value":5.8,"rank":8800,"indentLevel":1,"foodNutrientId":34224985},{"nutrientId":1186,"nutrientName":"Folic acid","nutrientNumber":"431","unitName":"UG","value":0,"rank":7000,"indentLevel":0,"foodNutrientId":34224986},{"nutrientId":1187,"nutrientName":"Folate, food","nutrientNumber":"432","unitName":"UG","value":15,"rank":7100,"indentLevel":1,"foodNutrientId":34224987},{"nutrientId":1190,"nutrientName":"Folate, DFE","nutrientNumber":"435","unitName":"UG","value":15,"rank":7200,"indentLevel":1,"foodNutrientId":34224988},{"nutrientId":1242,"nutrientName":"Vitamin E, added","nutrientNumber":"573","unitName":"MG","value":0,"rank":7920,"indentLevel":0,"foodNutrientId":34224989},{"nutrientId":1246,"nutrientName":"Vitamin B-12, added","nutrientNumber":"578","unitName":"UG","value":0,"rank":7340,"indentLevel":0,"foodNutrientId":34224990},{"nutrientId":1253,"nutrientName":"Cholesterol","nutrientNumber":"601","unitName":"MG","value":44,"rank":15700,"indentLevel":1,"foodNutrientId":34224991},{"nutrientId":1258,"nutrientName":"Fatty acids, total saturated","nutrientNumber":"606","unitName":"G","value":5.26,"rank":9700,"indentLevel":1,"foodNutrientId":34224992},{"nutrientId":1259,"nutrientName":"SFA 4:0","nutrientNumber":"607","unitName":"G","value":0.102,"rank":9800,"indentLevel":2,"foodNutrientId":34224993},{"nutrientId":1260,"nutrientName":"SFA 6:0","nutrientNumber":"608","unitName":"G","value":0.085,"rank":9900,"indentLevel":2,"foodNutrientId":34224994},{"nutrientId":1261,"nutrientName":"SFA 8:0","nutrientNumber":"609","unitName":"G","value":0.055,"rank":10000,"indentLevel":2,"foodNutrientId":34224995},{"nutrientId":1262,"nutrientName":"SFA 10:0","nutrientNumber":"610","unitName":"G","value":0.132,"rank":10100,"indentLevel":2,"foodNutrientId":34224996},{"nutrientId":1263,"nutrientName":"SFA 12:0","nutrientNumber":"611","unitName":"G","value":0.155,"rank":10300,"indentLevel":2,"foodNutrientId":34224997},{"nutrientId":1264,"nutrientName":"SFA 14:0","nutrientNumber":"612","unitName":"G","value":0.623,"rank":10500,"indentLevel":2,"foodNutrientId":34224998},{"nutrientId":1265,"nutrientName":"SFA 16:0","nutrientNumber":"613","unitName":"G","value":2.393,"rank":10700,"indentLevel":2,"foodNutrientId":34224999},{"nutrientId":1266,"nutrientName":"SFA 18:0","nutrientNumber":"614","unitName":"G","value":1.55,"rank":10900,"indentLevel":2,"foodNutrientId":34225000},{"nutrientId":1268,"nutrientName":"MUFA 18:1","nutrientNumber":"617","unitName":"G","value":3.006,"rank":12100,"indentLevel":2,"foodNutrientId":34225001},{"nutrientId":1269,"nutrientName":"PUFA 18:2","nutrientNumber":"618","unitName":"G","value":0.36,"rank":13100,"indentLevel":2,"foodNutrientId":34225002},{"nutrientId":1270,"nutrientName":"PUFA 18:3","nutrientNumber":"619","unitName":"G","value":0.031,"rank":13900,"indentLevel":2,"foodNutrientId":34225003},{"nutrientId":1271,"nutrientName":"PUFA 20:4","nutrientNumber":"620","unitName":"G","value":0.023,"rank":14700,"indentLevel":2,"foodNutrientId":34225004},{"nutrientId":1272,"nutrientName":"PUFA 22:6 n-3 (DHA)","nutrientNumber":"621","unitName":"G","value":0,"rank":15300,"indentLevel":2,"foodNutrientId":34225005},{"nutrientId":1275,"nutrientName":"MUFA 16:1","nutrientNumber":"626","unitName":"G","value":0.258,"rank":11700,"indentLevel":2,"foodNutrientId":34225006},{"nutrientId":1276,"nutrientName":"PUFA 18:4","nutrientNumber":"627","unitName":"G","value":0,"rank":14250,"indentLevel":2,"foodNutrientId":34225007},{"nutrientId":1277,"nutrientName":"MUFA 20:1","nutrientNumber":"628","unitName":"G","value":0.025,"rank":12400,"indentLevel":2,"foodNutrientId":34225008},{"nutrientId":1278,"nutrientName":"PUFA 20:5 n-3 (EPA)","nutrientNumber":"629","unitName":"G","value":0.002,"rank":15000,"indentLevel":2,"foodNutrientId":34225009},{"nutrientId":1279,"nutrientName":"MUFA 22:1","nutrientNumber":"630","unitName":"G","value":0,"rank":12500,"indentLevel":2,"foodNutrientId":34225010},{"nutrientId":1280,"nutrientName":"PUFA 22:5 n-3 (DPA)","nutrientNumber":"631","unitName":"G","value":0.003,"rank":15200,"indentLevel":2,"foodNutrientId":34225011},{"nutrientId":1292,"nutrientName":"Fatty acids, total monounsaturated","nutrientNumber":"645","unitName":"G","value":3.836,"rank":11400,"indentLevel":1,"foodNutrientId":34225012},{"nutrientId":1293,"nutrientName":"Fatty acids, total polyunsaturated","nutrientNumber":"646","unitName":"G","value":0.405,"rank":12900,"indentLevel":1,"foodNutrientId":34225013}],"finalFoodInputFoods":[{"foodDescription":"Beef, ground, 75% lean meat / 25% fat, crumbles, cooked, pan-browned","gramWeight":21.75,"id":129115,"portionCode":"0","portionDescription":"NONE","unit":"GM","rank":1,"retentionCode":0,"srCode":23580,"value":21.8},{"foodDescription":"Tomatoes, red, ripe, raw, year round average","gramWeight":11.25,"id":129118,"portionCode":"0","portionDescription":"NONE","unit":"GM","rank":4,"retentionCode":0,"srCode":11529,"value":11.2},{"foodDescription":"Sauce, tomato chili sauce, bottled, with salt","gramWeight":17.063,"id":129119,"portionCode":"0","portionDescription":"NONE","unit":"GM","rank":5,"retentionCode":0,"srCode":6972,"value":17.1},{"foodDescription":"Lettuce, iceberg, raw","gramWeight":6.875,"id":129117,"portionCode":"0","portionDescription":"NONE","unit":"GM","rank":3,"retentionCode":0,"srCode":11252,"value":6.88},{"foodDescription":"Cheese, cheddar","gramWeight":10.594,"id":129116,"portionCode":"10159","portionDescription":"1 cup, shredded","unit":"TB","rank":2,"retentionCode":0,"srCode":1009,"value":1.5}],"foodMeasures":[{"disseminationText":"Quantity not specified","gramWeight":153,"id":296117,"modifier":"90000","rank":2,"measureUnitAbbreviation":"undetermined","measureUnitName":"undetermined","measureUnitId":9999},{"disseminationText":"1 cup","gramWeight":204,"id":296116,"modifier":"10205","rank":1,"measureUnitAbbreviation":"undetermined","measureUnitName":"undetermined","measureUnitId":9999}],"foodAttributes":[{"value":"Burritos and tacos","name":"WWEIA Category description","id":3301048},{"value":"Moisture change: 0%","id":3320190},{"value":"3502","name":"WWEIA Category number","id":3301047}],"foodAttributeTypes":[{"name":"Adjustments","description":"Adjustments made to foods, including moisture changes","id":1002,"foodAttributes":[{"value":"Moisture change: 0%","id":3320190}]},{"name":"Attribute","description":"Generic attributes","id":999,"foodAttributes":[{"value":"Burritos and tacos","name":"WWEIA Category description","id":3301048},{"value":"3502","name":"WWEIA Category number","id":3301047}]}],"foodVersionIds":[]}],"aggregations":{"dataType":{"Branded":19650,"SR Legacy":1119,"Survey (FNDDS)":296,"Foundation":17,"Experimental":4},"nutrients":{}}}
