{"totalHits":80125,"currentPage":1,"totalPages":80125,"pageList":[1,2,3,4,5,6,7,8,9,10],"foodSearchCriteria":{"query":"Baked Potato","generalSearchInput":"Baked Potato","pageNumber":1,"numberOfResultsPerPage":50,"pageSize":1,"requireAllWords":false},"foods":[{"fdcId":2709383,"description":"Potato, baked, NFS","commonNames":"","additionalDescriptions":"","dataType":"Survey (FNDDS)","foodCode":71100100,"publishedDate":"2024-10-31","foodCategory":"White potatoes, baked or boiled","foodCategoryId":3306314,"allHighlightFields":"","score":514.26166,"microbes":[],"foodNutrients":[{"nutrientId":1003,"nutrientName":"Protein","nutrientNumber":"203","unitName":"G","value":1.95,"rank":600,"indentLevel":1,"foodNutrientId":34396094},{"nutrientId":1004,"nutrientName":"Total lipid (fat)","nutrientNumber":"204","unitName":"G","value":0.1,"rank":800,"indentLevel":1,"foodNutrientId":34396095},{"nutrientId":1005,"nutrientName":"Carbohydrate, by difference","nutrientNumber":"205","unitName":"G","value":21.45,"rank":1110,"indentLevel":2,"foodNutrientId":34396096},{"nutrientId":1008,"nutrientName":"Energy","nutrientNumber":"208","unitName":"KCAL","value":93,"rank":300,"indentLevel":1,"foodNutrientId":34396097},{"nutrientId":1018,"nutrientName":"Alcohol, ethyl","nutrientNumber":"221","unitName":"G","value":0,"rank":18200,"indentLevel":1,"foodNutrientId":34396098},{"nutrientId":1051,"nutrientName":"Water","nutrientNumber":"255","unitName":"G","value":75.08,"rank":100,"indentLevel":1,"foodNutrientId":34396099},{"nutrientId":1057,"nutrientName":"Caffeine","nutrientNumber":"262","unitName":"MG","value":0,"rank":18300,"indentLevel":0,"foodNutrientId":34396100},{"nutrientId":1058,"nutrientName":"Theobromine","nutrientNumber":"263","unitName":"MG","value":0,"rank":18400,"indentLevel":0,"foodNutrientId":34396101},{"nutrientId":2000,"nutrientName":"Total Sugars","nutrientNumber":"269","unitName":"G","value":1.69,"rank":1510,"indentLevel":3,"foodNutrientId":34396102},{"nutrientId":1079,"nutrientName":"Fiber, total dietary","nutrientNumber":"291","unitName":"G","value":1.5,"rank":1200,"indentLevel":3,"foodNutrientId":34396103},{"nutrientId":1087,"nutrientName":"Calcium, Ca","nutrientNumber":"301","unitName":"MG","value":5,"rank":5300,"indentLevel":1,"foodNutrientId":34396104},{"nutrientId":1089,"nutrientName":"Iron, Fe","nutrientNumber":"303","unitName":"MG","value":0.35,"rank":5400,"indentLevel":1,"foodNutrientId":34396105},{"nutrientId":1090,"nutrientName":"Magnesium, Mg","nutrientNumber":"304","unitName":"MG","value":25,"rank":5500,"indentLevel":1,"foodNutrientId":34396106},{"nutrientId":1091,"nutrientName":"Phosphorus, P","nutrientNumber":"305","unitName":"MG","value":50,"rank":5600,"indentLevel":1,"foodNutrientId":34396107},{"nutrientId":1092,"nutrientName":"Potassium, K","nutrientNumber":"306","unitName":"MG","value":389,"rank":5700,"indentLevel":1,"foodNutrientId":34396108},{"nutrientId":1093,"nutrientName":"Sodium, Na","nutrientNumber":"307","unitName":"MG","value":181,"rank":5800,"indentLevel":1,"foodNutrientId":34396109},{"nutrientId":1095,"nutrientName":"Zinc, Zn","nutrientNumber":"309","unitName":"MG","value":0.29,"rank":5900,"indentLevel":1,"foodNutrientId":34396110},{"nutrientId":1098,"nutrientName":"Copper, Cu","nutrientNumber":"312","unitName":"MG","value":0.214,"rank":6000,"indentLevel":1,"foodNutrientId":34396111},{"nutrientId":1103,"nutrientName":"Selenium, Se","nutrientNumber":"317","unitName":"UG","value":0.3,"rank":6200,"indentLevel":1,"foodNutrientId":34396112},{"nutrientId":1105,"nutrientName":"Retinol","nutrientNumber":"319","unitName":"UG","value":0,"rank":7430,"indentLevel":2,"foodNutrientId":34396113},{"nutrientId":1106,"nutrientName":"Vitamin A, RAE","nutrientNumber":"320","unitName":"UG","value":0,"rank":7420,"indentLevel":1,"foodNutrientId":34396114},{"nutrientId":1107,"nutrientName":"Carotene, beta","nutrientNumber":"321","unitName":"UG","value":0,"rank":7440,"indentLevel":2,"foodNutrientId":34396115},{"nutrientId":1108,"nutrientName":"Carotene, alpha","nutrientNumber":"322","unitName":"UG","value":0,"rank":7450,"indentLevel":2,"foodNutrientId":34396116},{"nutrientId":1109,"nutrientName":"Vitamin E (alpha-tocopherol)","nutrientNumber":"323","unitName":"MG","value":0.04,"rank":7905,"indentLevel":1,"foodNutrientId":34396117},{"nutrientId":1114,"nutrientName":"Vitamin D (D2 + D3)","nutrientNumber":"328","unitName":"UG","value":0,"rank":8700,"indentLevel":1,"foodNutrientId":34396118},{"nutrientId":1120,"nutrientName":"Cryptoxanthin, beta","nutrientNumber":"334","unitName":"UG","value":0,"rank":7460,"indentLevel":2,"foodNutrientId":34396119},{"nutrientId":1122,"nutrientName":"Lycopene","nutrientNumber":"337","unitName":"UG","value":0,"rank":7530,"indentLevel":1,"foodNutrientId":34396120},{"nutrientId":1123,"nutrientName":"Lutein + zeaxanthin","nutrientNumber":"338","unitName":"UG","value":0,"rank":7560,"indentLevel":1,"foodNutrientId":34396121},{"nutrientId":1162,"nutrientName":"Vitamin C, total ascorbic acid","nutrientNumber":"401","unitName":"MG","value":12.7,"rank":6300,"indentLevel":1,"foodNutrientId":34396122},{"nutrientId":1165,"nutrientName":"Thiamin","nutrientNumber":"404","unitName":"MG","value":0.105,"rank":6400,"indentLevel":1,"foodNutrientId":34396123},{"nutrientId":1166,"nutrientName":"Riboflavin","nutrientNumber":"405","unitName":"MG","value":0.021,"rank":6500,"indentLevel":1,"foodNutrientId":34396124},{"nutrientId":1167,"nutrientName":"Niacin","nutrientNumber":"406","unitName":"MG","value":1.389,"rank":6600,"indentLevel":1,"foodNutrientId":34396125},{"nutrientId":1175,"nutrientName":"Vitamin B-6","nutrientNumber":"415","unitName":"MG","value":0.3,"rank":6800,"indentLevel":1,"foodNutrientId":34396126},{"nutrientId":1177,"nutrientName":"Folate, total","nutrientNumber":"417","unitName":"UG","value":9,"rank":6900,"indentLevel":1,"foodNutrientId":34396127},{"nutrientId":1178,"nutrientName":"Vitamin B-12","nutrientNumber":"418","unitName":"UG","value":0,"rank":7300,"indentLevel":1,"foodNutrientId":34396128},{"nutrientId":1180,"nutrientName":"Choline, total","nutrientNumber":"421","unitName":"MG","value":14.4,"rank":7220,"indentLevel":1,"foodNutrientId":34396129},{"nutrientId":1185,"nutrientName":"Vitamin K (phylloquinone)","nutrientNumber":"430","unitName":"UG","value":0.3,"rank":8800,"indentLevel":1,"foodNutrientId":34396130},{"nutrientId":1186,"nutrientName":"Folic acid","nutrientNumber":"431","unitName":"UG","value":0,"rank":7000,"indentLevel":0,"foodNutrientId":34396131},{"nutrientId":1187,"nutrientName":"Folate, food","nutrientNumber":"432","unitName":"UG","value":9,"rank":7100,"indentLevel":1,"foodNutrientId":34396132},{"nutrientId":1190,"nutrientName":"Folate, DFE","nutrientNumber":"435","unitName":"UG","value":9,"rank":7200,"indentLevel":1,"foodNutrientId":34396133},{"nutrientId":1242,"nutrientName":"Vitamin E, added","nutrientNumber":"573","unitName":"MG","value":0,"rank":7920,"indentLevel":0,"foodNutrientId":34396134},{"nutrientId":1246,"nutrientName":"Vitamin B-12, added","nutrientNumber":"578","unitName":"UG","value":0,"rank":7340,"indentLevel":0,"foodNutrientId":34396135},{"nutrientId":1253,"nutrientName":"Cholesterol","nutrientNumber":"601","unitName":"MG","value":0,"rank":15700,"indentLevel":1,"foodNutrientId":34396136},{"nutrientId":1258,"nutrientName":"Fatty acids, total saturated","nutrientNumber":"606","unitName":"G","value":0.026,"rank":9700,"indentLevel":1,"foodNutrientId":34396137},{"nutrientId":1259,"nutrientName":"SFA 4:0","nutrientNumber":"607","unitName":"G","value":0,"rank":9800,"indentLevel":2,"foodNutrientId":34396138},{"nutrientId":1260,"nutrientName":"SFA 6:0","nutrientNumber":"608","unitName":"G","value":0,"rank":9900,"indentLevel":2,"foodNutrientId":34396139},{"nutrientId":1261,"nutrientName":"SFA 8:0","nutrientNumber":"609","unitName":"G","value":0,"rank":10000,"indentLevel":2,"foodNutrientId":34396140},{"nutrientId":1262,"nutrientName":"SFA 10:0","nutrientNumber":"610","unitName":"G","value":0.001,"rank":10100,"indentLevel":2,"foodNutrientId":34396141},{"nutrientId":1263,"nutrientName":"SFA 12:0","nutrientNumber":"611","unitName":"G","value":0.003,"rank":10300,"indentLevel":2,"foodNutrientId":34396142},{"nutrientId":1264,"nutrientName":"SFA 14:0","nutrientNumber":"612","unitName":"G","value":0.001,"rank":10500,"indentLevel":2,"foodNutrientId":34396143},{"nutrientId":1265,"nutrientName":"SFA 16:0","nutrientNumber":"613","unitName":"G","value":0.016,"rank":10700,"indentLevel":2,"foodNutrientId":34396144},{"nutrientId":1266,"nutrientName":"SFA 18:0","nutrientNumber":"614","unitName":"G","value":0.004,"rank":10900,"indentLevel":2,"foodNutrientId":34396145},{"nutrientId":1268,"nutrientName":"MUFA 18:1","nutrientNumber":"617","unitName":"G","value":0.001,"rank":12100,"indentLevel":2,"foodNutrientId":34396146},{"nutrientId":1269,"nutrientName":"PUFA 18:2","nutrientNumber":"618","unitName":"G","value":0.032,"rank":13100,"indentLevel":2,"foodNutrientId":34396147},{"nutrientId":1270,"nutrientName":"PUFA 18:3","nutrientNumber":"619","unitName":"G","value":0.01,"rank":13900,"indentLevel":2,"foodNutrientId":34396148},{"nutrientId":1271,"nutrientName":"PUFA 20:4","nutrientNumber":"620","unitName":"G","value":0,"rank":14700,"indentLevel":2,"foodNutrientId":34396149},{"nutrientId":1272,"nutrientName":"PUFA 22:6 n-3 (DHA)","nutrientNumber":"621","unitName":"G","value":0,"rank":15300,"indentLevel":2,"foodNutrientId":34396150},{"nutrientId":1275,"nutrientName":"MUFA 16:1","nutrientNumber":"626","unitName":"G","value":0.001,"rank":11700,"indentLevel":2,"foodNutrientId":34396151},{"nutrientId":1276,"nutrientName":"PUFA 18:4","nutrientNumber":"627","unitName":"G","value":0,"rank":14250,"indentLevel":2,"foodNutrientId":34396152},{"nutrientId":1277,"nutrientName":"MUFA 20:1","nutrientNumber":"628","unitName":"G","value":0,"rank":12400,"indentLevel":2,"foodNutrientId":34396153},{"nutrientId":1278,"nutrientName":"PUFA 20:5 n-3 (EPA)","nutrientNumber":"629","unitName":"G","value":0,"rank":15000,"indentLevel":2,"foodNutrientId":34396154},{"nutrientId":1279,"nutrientName":"MUFA 22:1","nutrientNumber":"630","unitName":"G","value":0,"rank":12500,"indentLevel":2,"foodNutrientId":34396155},{"nutrientId":1280,"nutrientName":"PUFA 22:5 n-3 (DPA)","nutrientNumber":"631","unitName":"G","value":0,"rank":15200,"indentLevel":2,"foodNutrientId":34396156},{"nutrientId":1292,"nutrientName":"Fatty acids, total monounsaturated","nutrientNumber":"645","unitName":"G","value":0.002,"rank":11400,"indentLevel":1,"foodNutrientId":34396157},{"nutrientId":1293,"nutrientName":"Fatty acids, total polyunsaturated","nutrientNumber":"646","unitName":"G","value":0.043,"rank":12900,"indentLevel":1,"foodNutrientId":34396158}],"finalFoodInputFoods":[{"foodDescription":"Potato, baked, peel not eaten","gramWeight":285,"id":139091,"portionCode":"0","portionDescription":"NONE","unit":"GM","rank":1,"retentionCode":0,"srCode":71101000,"value":285}],"foodMeasures":[{"disseminationText":"1 small","gramWeight":230,"id":306713,"modifier":"62015","rank":1,"measureUnitAbbreviation":"undetermined","measureUnitName":"undetermined","measureUnitId":9999},{"disseminationText":"1 large","gramWeight":400,"id":306715,"modifier":"60919","rank":3,"measureUnitAbbreviation":"undetermined","measureUnitName":"undetermined","measureUnitId":9999},{"disseminationText":"1 medium","gramWeight":285,"id":306714,"modifier":"61238","rank":2,"measureUnitAbbreviation":"undetermined","measureUnitName":"undetermined","measureUnitId":9999},{"disseminationText":"Quantity not specified","gramWeight":285,"id":306717,"modifier":"90000","rank":5,"measureUnitAbbreviation":"undetermined","measureUnitName":"undetermined","measureUnitId":9999},{"disseminationText":"1 cup","gramWeight":130,"id":306716,"modifier":"10205","rank":4,"measureUnitAbbreviation":"undetermined","measureUnitName":"undetermined","measureUnitId":9999}],"foodAttributes":[{"value":"White potatoes, baked or boiled","name":"WWEIA Category description","id":3306314},{"value":"Moisture change: 0%","id":3322823},{"value":"6802","name":"WWEIA Category number","id":3306313}],"foodAttributeTypes":[{"name":"Adjustments","description":"Adjustments made to foods, including moisture changes","id":1002,"foodAttributes":[{"value":"Moisture change: 0%","id":3322823}]},{"name":"Attribute","description":"Generic attributes","id":999,"foodAttributes":[{"value":"White potatoes, baked or boiled","name":"WWEIA Category description","id":3306314},{"value":"6802","name":"WWEIA Category number","id":3306313}]}],"foodVersionIds":[]}],"aggregations":{"dataType":{"Branded":78922,"SR Legacy":726,"Survey (FNDDS)":466,"Foundation":8,"Experimental":3},"nutrients":{}}}
