{"totalHits":965,"currentPage":1,"totalPages":965,"pageList":[1,2,3,4,5,6,7,8,9,10],"foodSearchCriteria":{"query":"Burrito","generalSearchInput":"Burrito","pageNumber":1,"numberOfResultsPerPage":50,"pageSize":1,"requireAllWords":false},"foods":[{"fdcId":508729,"description":"BURRITO","dataType":"Branded","gtinUpc":"5051379103989","publishedDate":"2019-04-01","brandOwner":"FRESH & EASY, LLC","ingredients":"BURRITO MIX {BURRITO RICE [ENRICHED LONG GRAIN WHITE RICE (LONG GRAIN RICE, NIACIN, FERRIC ORTHOPHOSPHATE, THIAMIN MONONITRATE, FOLIC ACID), GROUND TOMATOES (TOMATO, TOMATO PUREE, SALT, CITRIC ACID), ONION, CELERY, CANOLA OIL, TOMATO PASTE, CHICKEN BASE (CHICKEN STOCK, NATURAL FLAVOR, SALT, SUGAR, YEAST EXTRACT), SALT, GARLIC PUREE, CUMIN POWDER, CORIANDER POWDER, BLACK PEPPER], PICO DE GALLO SALSA (TOMATO, ONION, LIME JUICE, CILANTRO, GARLIC PUREE, SALT, JALAPENO CHILE, SERRANO CHILE, CORN STARCH), CHEESE BLEND [PART-SKIM MOZZARELLA CHEESE (CULTURED PASTEURIZED PART-SKIM MILK, SALT, ENZYMES), CHEDDAR CHEESE (CULTURED PASTEURIZED MILK, SALT, ENZYMES, ANNATTO)]}, TORTILLA [ENRICHED BLEACHED WHEAT FLOUR (WHEAT FLOUR, NIACIN, REDUCED IRON, THIAMIN MONONITRATE, RIBOFLAVIN, FOLIC ACID), WATER, SOYBEAN OIL, PALM SHORTENING, CULTURED WHEAT FLOUR, CONTAINS 2% OR LESS OF: MONO- AND DI-GLYCERIDES, SODIUM BICARBONATE, WHEAT GLUTEN, SALT, GUAR GUM, SUGAR, SODIUM ACID PYROPHOSPHATE, CITRIC ACID, ENZYMES, SODIUM METABISULFITE], AL PASTOR CHICKEN [CHICKEN BREAST WITH RIB MEAT, WATER, CONTAINS LESS THAN 2% OF: SALT, SOYBEAN OIL, SOY PROTEIN ISOLATE, TOMATO POWDER, DISTILLED WHITE VINEGAR, CHILE PEPPER, FRUCTOSE, SODIUM PHOSPHATE, MODIFIED CORN STARCH, CHIPOTLE PEPPER, SUGAR, SOY SAUCE POWDER (WHEAT, SOYBEAN, SALT, MALTODEXTRIN), WHEY PROTEIN CONCENTRATE, DEHYDRATED GARLIC, MOLASSES POWDER (MOLASSES, MALTODEXTRIN), SPICES, CITRIC ACID, DEHYDRATED ORANGE PEEL, EXTRACTIVES OF TURMERIC, SWEETENER (CANE SYRUP, HONEY), ORANGE OIL, TOMATO ESSENCE (TOMATO ESSENCE, MALTODEXTRIN, CITRIC ACID), XANTHAN GUM].","marketCountry":"United States","foodCategory":"Prepared Wraps and Burittos","modifiedDate":"2018-10-05","dataSource":"LI","servingSizeUnit":"g","servingSize":170.0,"householdServingFullText":"1 BURRITO","tradeChannels":["NO_TRADE_CHANNEL"],"allHighlightFields":"<b>Ingredients</b>: <em>BURRITO</em> MIX {<em>BURRITO</em> RICE [ENRICHED LONG GRAIN WHITE RICE (LONG GRAIN RICE, NIACIN, FERRIC","score":1171.0382,"microbes":[],"foodNutrients":[{"nutrientId":1087,"nutrientName":"Calcium, Ca","nutrientNumber":"301","unitName":"MG","derivationCode":"LCCD","derivationDescription":"Calculated from a daily value percentage per serving size measure","derivationId":75,"value":59.0,"foodNutrientSourceId":9,"foodNutrientSourceCode":"12","foodNutrientSourceDescription":"Manufacturer's analytical; partial documentation","rank":5300,"indentLevel":1,"foodNutrientId":4083443,"percentDailyValue":10},{"nutrientId":1089,"nutrientName":"Iron, Fe","nutrientNumber":"303","unitName":"MG","derivationCode":"LCCD","derivationDescription":"Calculated from a daily value percentage per serving size measure","derivationId":75,"value":2.12,"foodNutrientSourceId":9,"foodNutrientSourceCode":"12","foodNutrientSourceDescription":"Manufacturer's analytical; partial documentation","rank":5400,"indentLevel":1,"foodNutrientId":4083444,"percentDailyValue":20},{"nutrientId":1104,"nutrientName":"Vitamin A, IU","nutrientNumber":"318","unitName":"IU","derivationCode":"LCCD","derivationDescription":"Calculated from a daily value percentage per serving size measure","derivationId":75,"value":235,"foodNutrientSourceId":9,"foodNutrientSourceCode":"12","foodNutrientSourceDescription":"Manufacturer's analytical; partial documentation","rank":7500,"indentLevel":1,"foodNutrientId":4083445,"percentDailyValue":8},{"nutrientId":1162,"nutrientName":"Vitamin C, total ascorbic acid","nutrientNumber":"401","unitName":"MG","derivationCode":"LCCD","derivationDescription":"Calculated from a daily value percentage per serving size measure","derivationId":75,"value":3.5,"foodNutrientSourceId":9,"foodNutrientSourceCode":"12","foodNutrientSourceDescription":"Manufacturer's analytical; partial documentation","rank":6300,"indentLevel":1,"foodNutrientId":4083446,"percentDailyValue":10},{"nutrientId":1003,"nutrientName":"Protein","nutrientNumber":"203","unitName":"G","derivationCode":"LCCS","derivationDescription":"Calculated from value per serving size measure","derivationId":70,"value":9.41,"foodNutrientSourceId":9,"foodNutrientSourceCode":"12","foodNutrientSourceDescription":"Manufacturer's analytical; partial documentation","rank":600,"indentLevel":1,"foodNutrientId":6047849,"percentDailyValue":0},{"nutrientId":1004,"nutrientName":"Total lipid (fat)","nutrientNumber":"204","unitName":"G","derivationCode":"LCCS","derivationDescription":"Calculated from value per serving size measure","derivationId":70,"value":4.12,"foodNutrientSourceId":9,"foodNutrientSourceCode":"12","foodNutrientSourceDescription":"Manufacturer's analytical; partial documentation","rank":800,"indentLevel":1,"foodNutrientId":6047850,"percentDailyValue":11},{"nutrientId":1005,"nutrientName":"Carbohydrate, by difference","nutrientNumber":"205","unitName":"G","derivationCode":"LCCS","derivationDescription":"Calculated from value per serving size measure","derivationId":70,"value":32.9,"foodNutrientSourceId":9,"foodNutrientSourceCode":"12","foodNutrientSourceDescription":"Manufacturer's analytical; partial documentation","rank":1110,"indentLevel":2,"foodNutrientId":6047851,"percentDailyValue":19},{"nutrientId":1008,"nutrientName":"Energy","nutrientNumber":"208","unitName":"KCAL","derivationCode":"LCCS","derivationDescription":"Calculated from value per serving size measure","derivationId":70,"value":212,"foodNutrientSourceId":9,"foodNutrientSourceCode":"12","foodNutrientSourceDescription":"Manufacturer's analytical; partial documentation","rank":300,"indentLevel":1,"foodNutrientId":6047852,"percentDailyValue":0},{"nutrientId":2000,"nutrientName":"Total Sugars","nutrientNumber":"269","unitName":"G","derivationCode":"LCCS","derivationDescription":"Calculated from value per serving size measure","derivationId":70,"value":1.18,"foodNutrientSourceId":9,"foodNutrientSourceCode":"12","foodNutrientSourceDescription":"Manufacturer's analytical; partial documentation","rank":1510,"indentLevel":3,"foodNutrientId":6047853,"percentDailyValue":0},{"nutrientId":1079,"nutrientName":"Fiber, total dietary","nutrientNumber":"291","unitName":"G","derivationCode":"LCCS","derivationDescription":"Calculated from value per serving size measure","derivationId":70,"value":1.2,"foodNutrientSourceId":9,"foodNutrientSourceCode":"12","foodNutrientSourceDescription":"Manufacturer's analytical; partial documentation","rank":1200,"indentLevel":3,"foodNutrientId":6047854,"percentDailyValue":8},{"nutrientId":1093,"nutrientName":"Sodium, Na","nutrientNumber":"307","unitName":"MG","derivationCode":"LCCS","derivationDescription":"Calculated from value per serving size measure","derivationId":70,"value":424,"foodNutrientSourceId":9,"foodNutrientSourceCode":"12","foodNutrientSourceDescription":"Manufacturer's analytical; partial documentation","rank":5800,"indentLevel":1,"foodNutrientId":6047855,"percentDailyValue":30},{"nutrientId":1253,"nutrientName":"Cholesterol","nutrientNumber":"601","unitName":"MG","derivationCode":"LCCS","derivationDescription":"Calculated from value per serving size measure","derivationId":70,"value":18.0,"foodNutrientSourceId":9,"foodNutrientSourceCode":"12","foodNutrientSourceDescription":"Manufacturer's analytical; partial documentation","rank":15700,"indentLevel":1,"foodNutrientId":6047856,"percentDailyValue":10},{"nutrientId":1257,"nutrientName":"Fatty acids, total trans","nutrientNumber":"605","unitName":"G","derivationCode":"LCCS","derivationDescription":"Calculated from value per serving size measure","derivationId":70,"value":0.0,"foodNutrientSourceId":9,"foodNutrientSourceCode":"12","foodNutrientSourceDescription":"Manufacturer's analytical; partial documentation","rank":15400,"indentLevel":1,"foodNutrientId":6047857,"percentDailyValue":0},{"nutrientId":1258,"nutrientName":"Fatty acids, total saturated","nutrientNumber":"606","unitName":"G","derivationCode":"LCCS","derivationDescription":"Calculated from value per serving size measure","derivationId":70,"value":1.47,"foodNutrientSourceId":9,"foodNutrientSourceCode":"12","foodNutrientSourceDescription":"Manufacturer's analytical; partial documentation","rank":9700,"indentLevel":1,"foodNutrientId":6047858,"percentDailyValue":13}],"finalFoodInputFoods":[],"foodMeasures":[],"foodAttributes":[],"foodAttributeTypes":[],"foodVersionIds":[]}],"aggregations":{"dataType":{"Branded":890,"Survey (FNDDS)":62,"SR Legacy":13},"nutrients":{}}}
