{"totalHits":2434,"currentPage":1,"totalPages":2434,"pageList":[1,2,3,4,5,6,7,8,9,10],"foodSearchCriteria":{"query":"Veg Burger","generalSearchInput":"Veg Burger","pageNumber":1,"numberOfResultsPerPage":50,"pageSize":1,"requireAllWords":false},"foods":[{"fdcId":2707481,"description":"Veggie burger, on bun","commonNames":"","additionalDescriptions":"vegetarian;on bread or roll;soy or bean burger","dataType":"Survey (FNDDS)","foodCode":41901010,"publishedDate":"2024-10-31","foodCategory":"Vegetable sandwiches/burgers","foodCategoryId":3302510,"allHighlightFields":"<b>Includes</b>: vegetarian;on bread or roll;soy or bean <em>burger</em>","score":389.24985,"microbes":[],"foodNutrients":[{"nutrientId":1003,"nutrientName":"Protein","nutrientNumber":"203","unitName":"G","value":12.96,"rank":600,"indentLevel":1,"foodNutrientId":34272464},{"nutrientId":1004,"nutrientName":"Total lipid (fat)","nutrientNumber":"204","unitName":"G","value":5.2,"rank":800,"indentLevel":1,"foodNutrientId":34272465},{"nutrientId":1005,"nutrientName":"Carbohydrate, by difference","nutrientNumber":"205","unitName":"G","value":30.82,"rank":1110,"indentLevel":2,"foodNutrientId":34272466},{"nutrientId":1008,"nutrientName":"Energy","nutrientNumber":"208","unitName":"KCAL","value":224,"rank":300,"indentLevel":1,"foodNutrientId":34272467},{"nutrientId":1018,"nutrientName":"Alcohol, ethyl","nutrientNumber":"221","unitName":"G","value":0,"rank":18200,"indentLevel":1,"foodNutrientId":34272468},{"nutrientId":1051,"nutrientName":"Water","nutrientNumber":"255","unitName":"G","value":48.81,"rank":100,"indentLevel":1,"foodNutrientId":34272469},{"nutrientId":1057,"nutrientName":"Caffeine","nutrientNumber":"262","unitName":"MG","value":0,"rank":18300,"indentLevel":0,"foodNutrientId":34272470},{"nutrientId":1058,"nutrientName":"Theobromine","nutrientNumber":"263","unitName":"MG","value":0,"rank":18400,"indentLevel":0,"foodNutrientId":34272471},{"nutrientId":2000,"nutrientName":"Total Sugars","nutrientNumber":"269","unitName":"G","value":3.94,"rank":1510,"indentLevel":3,"foodNutrientId":34272472},{"nutrientId":1079,"nutrientName":"Fiber, total dietary","nutrientNumber":"291","unitName":"G","value":3.5,"rank":1200,"indentLevel":3,"foodNutrientId":34272473},{"nutrientId":1087,"nutrientName":"Calcium, Ca","nutrientNumber":"301","unitName":"MG","value":140,"rank":5300,"indentLevel":1,"foodNutrientId":34272474},{"nutrientId":1089,"nutrientName":"Iron, Fe","nutrientNumber":"303","unitName":"MG","value":2.88,"rank":5400,"indentLevel":1,"foodNutrientId":34272475},{"nutrientId":1090,"nutrientName":"Magnesium, Mg","nutrientNumber":"304","unitName":"MG","value":41,"rank":5500,"indentLevel":1,"foodNutrientId":34272476},{"nutrientId":1091,"nutrientName":"Phosphorus, P","nutrientNumber":"305","unitName":"MG","value":158,"rank":5600,"indentLevel":1,"foodNutrientId":34272477},{"nutrientId":1092,"nutrientName":"Potassium, K","nutrientNumber":"306","unitName":"MG","value":236,"rank":5700,"indentLevel":1,"foodNutrientId":34272478},{"nutrientId":1093,"nutrientName":"Sodium, Na","nutrientNumber":"307","unitName":"MG","value":534,"rank":5800,"indentLevel":1,"foodNutrientId":34272479},{"nutrientId":1095,"nutrientName":"Zinc, Zn","nutrientNumber":"309","unitName":"MG","value":1.01,"rank":5900,"indentLevel":1,"foodNutrientId":34272480},{"nutrientId":1098,"nutrientName":"Copper, Cu","nutrientNumber":"312","unitName":"MG","value":0.158,"rank":6000,"indentLevel":1,"foodNutrientId":34272481},{"nutrientId":1103,"nutrientName":"Selenium, Se","nutrientNumber":"317","unitName":"UG","value":24.7,"rank":6200,"indentLevel":1,"foodNutrientId":34272482},{"nutrientId":1105,"nutrientName":"Retinol","nutrientNumber":"319","unitName":"UG","value":0,"rank":7430,"indentLevel":2,"foodNutrientId":34272483},{"nutrientId":1106,"nutrientName":"Vitamin A, RAE","nutrientNumber":"320","unitName":"UG","value":1,"rank":7420,"indentLevel":1,"foodNutrientId":34272484},{"nutrientId":1107,"nutrientName":"Carotene, beta","nutrientNumber":"321","unitName":"UG","value":5,"rank":7440,"indentLevel":2,"foodNutrientId":34272485},{"nutrientId":1108,"nutrientName":"Carotene, alpha","nutrientNumber":"322","unitName":"UG","value":0,"rank":7450,"indentLevel":2,"foodNutrientId":34272486},{"nutrientId":1109,"nutrientName":"Vitamin E (alpha-tocopherol)","nutrientNumber":"323","unitName":"MG","value":0.25,"rank":7905,"indentLevel":1,"foodNutrientId":34272487},{"nutrientId":1114,"nutrientName":"Vitamin D (D2 + D3)","nutrientNumber":"328","unitName":"UG","value":0,"rank":8700,"indentLevel":1,"foodNutrientId":34272488},{"nutrientId":1120,"nutrientName":"Cryptoxanthin, beta","nutrientNumber":"334","unitName":"UG","value":0,"rank":7460,"indentLevel":2,"foodNutrientId":34272489},{"nutrientId":1122,"nutrientName":"Lycopene","nutrientNumber":"337","unitName":"UG","value":0,"rank":7530,"indentLevel":1,"foodNutrientId":34272490},{"nutrientId":1123,"nutrientName":"Lutein + zeaxanthin","nutrientNumber":"338","unitName":"UG","value":3,"rank":7560,"indentLevel":1,"foodNutrientId":34272491},{"nutrientId":1162,"nutrientName":"Vitamin C, total ascorbic acid","nutrientNumber":"401","unitName":"MG","value":3,"rank":6300,"indentLevel":1,"foodNutrientId":34272492},{"nutrientId":1165,"nutrientName":"Thiamin","nutrientNumber":"404","unitName":"MG","value":1.678,"rank":6400,"indentLevel":1,"foodNutrientId":34272493},{"nutrientId":1166,"nutrientName":"Riboflavin","nutrientNumber":"405","unitName":"MG","value":0.268,"rank":6500,"indentLevel":1,"foodNutrientId":34272494},{"nutrientId":1167,"nutrientName":"Niacin","nutrientNumber":"406","unitName":"MG","value":3.95,"rank":6600,"indentLevel":1,"foodNutrientId":34272495},{"nutrientId":1175,"nutrientName":"Vitamin B-6","nutrientNumber":"415","unitName":"MG","value":0.192,"rank":6800,"indentLevel":1,"foodNutrientId":34272496},{"nutrientId":1177,"nutrientName":"Folate, total","nutrientNumber":"417","unitName":"UG","value":110,"rank":6900,"indentLevel":1,"foodNutrientId":34272497},{"nutrientId":1178,"nutrientName":"Vitamin B-12","nutrientNumber":"418","unitName":"UG","value":1.18,"rank":7300,"indentLevel":1,"foodNutrientId":34272498},{"nutrientId":1180,"nutrientName":"Choline, total","nutrientNumber":"421","unitName":"MG","value":17.2,"rank":7220,"indentLevel":1,"foodNutrientId":34272499},{"nutrientId":1185,"nutrientName":"Vitamin K (phylloquinone)","nutrientNumber":"430","unitName":"UG","value":4.5,"rank":8800,"indentLevel":1,"foodNutrientId":34272500},{"nutrientId":1186,"nutrientName":"Folic acid","nutrientNumber":"431","unitName":"UG","value":24,"rank":7000,"indentLevel":0,"foodNutrientId":34272501},{"nutrientId":1187,"nutrientName":"Folate, food","nutrientNumber":"432","unitName":"UG","value":86,"rank":7100,"indentLevel":1,"foodNutrientId":34272502},{"nutrientId":1190,"nutrientName":"Folate, DFE","nutrientNumber":"435","unitName":"UG","value":127,"rank":7200,"indentLevel":1,"foodNutrientId":34272503},{"nutrientId":1242,"nutrientName":"Vitamin E, added","nutrientNumber":"573","unitName":"MG","value":0,"rank":7920,"indentLevel":0,"foodNutrientId":34272504},{"nutrientId":1246,"nutrientName":"Vitamin B-12, added","nutrientNumber":"578","unitName":"UG","value":1.08,"rank":7340,"indentLevel":0,"foodNutrientId":34272505},{"nutrientId":1253,"nutrientName":"Cholesterol","nutrientNumber":"601","unitName":"MG","value":3,"rank":15700,"indentLevel":1,"foodNutrientId":34272506},{"nutrientId":1258,"nutrientName":"Fatty acids, total saturated","nutrientNumber":"606","unitName":"G","value":1.164,"rank":9700,"indentLevel":1,"foodNutrientId":34272507},{"nutrientId":1259,"nutrientName":"SFA 4:0","nutrientNumber":"607","unitName":"G","value":0.002,"rank":9800,"indentLevel":2,"foodNutrientId":34272508},{"nutrientId":1260,"nutrientName":"SFA 6:0","nutrientNumber":"608","unitName":"G","value":0.001,"rank":9900,"indentLevel":2,"foodNutrientId":34272509},{"nutrientId":1261,"nutrientName":"SFA 8:0","nutrientNumber":"609","unitName":"G","value":0.054,"rank":10000,"indentLevel":2,"foodNutrientId":34272510},{"nutrientId":1262,"nutrientName":"SFA 10:0","nutrientNumber":"610","unitName":"G","value":0.046,"rank":10100,"indentLevel":2,"foodNutrientId":34272511},{"nutrientId":1263,"nutrientName":"SFA 12:0","nutrientNumber":"611","unitName":"G","value":0.02,"rank":10300,"indentLevel":2,"foodNutrientId":34272512},{"nutrientId":1264,"nutrientName":"SFA 14:0","nutrientNumber":"612","unitName":"G","value":0.07,"rank":10500,"indentLevel":2,"foodNutrientId":34272513},{"nutrientId":1265,"nutrientName":"SFA 16:0","nutrientNumber":"613","unitName":"G","value":0.675,"rank":10700,"indentLevel":2,"foodNutrientId":34272514},{"nutrientId":1266,"nutrientName":"SFA 18:0","nutrientNumber":"614","unitName":"G","value":0.259,"rank":10900,"indentLevel":2,"foodNutrientId":34272515},{"nutrientId":1268,"nutrientName":"MUFA 18:1","nutrientNumber":"617","unitName":"G","value":1.253,"rank":12100,"indentLevel":2,"foodNutrientId":34272516},{"nutrientId":1269,"nutrientName":"PUFA 18:2","nutrientNumber":"618","unitName":"G","value":1.781,"rank":13100,"indentLevel":2,"foodNutrientId":34272517},{"nutrientId":1270,"nutrientName":"PUFA 18:3","nutrientNumber":"619","unitName":"G","value":0.084,"rank":13900,"indentLevel":2,"foodNutrientId":34272518},{"nutrientId":1271,"nutrientName":"PUFA 20:4","nutrientNumber":"620","unitName":"G","value":0.001,"rank":14700,"indentLevel":2,"foodNutrientId":34272519},{"nutrientId":1272,"nutrientName":"PUFA 22:6 n-3 (DHA)","nutrientNumber":"621","unitName":"G","value":0,"rank":15300,"indentLevel":2,"foodNutrientId":34272520},{"nutrientId":1275,"nutrientName":"MUFA 16:1","nutrientNumber":"626","unitName":"G","value":0.022,"rank":11700,"indentLevel":2,"foodNutrientId":34272521},{"nutrientId":1276,"nutrientName":"PUFA 18:4","nutrientNumber":"627","unitName":"G","value":0,"rank":14250,"indentLevel":2,"foodNutrientId":34272522},{"nutrientId":1277,"nutrientName":"MUFA 20:1","nutrientNumber":"628","unitName":"G","value":0.02,"rank":12400,"indentLevel":2,"foodNutrientId":34272523},{"nutrientId":1278,"nutrientName":"PUFA 20:5 n-3 (EPA)","nutrientNumber":"629","unitName":"G","value":0,"rank":15000,"indentLevel":2,"foodNutrientId":34272524},{"nutrientId":1279,"nutrientName":"MUFA 22:1","nutrientNumber":"630","unitName":"G","value":0,"rank":12500,"indentLevel":2,"foodNutrientId":34272525},{"nutrientId":1280,"nutrientName":"PUFA 22:5 n-3 (DPA)","nutrientNumber":"631","unitName":"G","value":0,"rank":15200,"indentLevel":2,"foodNutrientId":34272526},{"nutrientId":1292,"nutrientName":"Fatty acids, total monounsaturated","nutrientNumber":"645","unitName":"G","value":1.303,"rank":11400,"indentLevel":1,"foodNutrientId":34272527},{"nutrientId":1293,"nutrientName":"Fatty acids, total polyunsaturated","nutrientNumber":"646","unitName":"G","value":1.911,"rank":12900,"indentLevel":1,"foodNutrientId":34272528}],"finalFoodInputFoods":[{"foodDescription":"Rolls, hamburger or hotdog, plain","gramWeight":60,"id":132309,"portionCode":"0","portionDescription":"NONE","unit":"GM","rank":1,"retentionCode":0,"srCode":18350,"value":60.0},{"foodDescription":"Veggie burgers or soyburgers, unprepared","gramWeight":70,"id":132310,"portionCode":"0","portionDescription":"NONE","unit":"GM","rank":2,"retentionCode":0,"srCode":16147,"value":70.0}],"foodMeasures":[{"disseminationText":"Quantity not specified","gramWeight":160,"id":298258,"modifier":"90000","rank":2,"measureUnitAbbreviation":"undetermined","measureUnitName":"undetermined","measureUnitId":9999},{"disseminationText":"1 sandwich","gramWeight":160,"id":298257,"modifier":"61853","rank":1,"measureUnitAbbreviation":"undetermined","measureUnitName":"undetermined","measureUnitId":9999}],"foodAttributes":[{"value":"Moisture change: 0%","id":3320921},{"value":"vegetarian","id":3312462,"sequenceNumber":1},{"value":"soy or bean burger","id":3312463,"sequenceNumber":2},{"value":"on bread or roll","id":3312464,"sequenceNumber":3},{"value":"Vegetable sandwiches/burgers","name":"WWEIA Category description","id":3302510},{"value":"3744","name":"WWEIA Category number","id":3302509}],"foodAttributeTypes":[{"name":"Additional Description","description":"Additional descriptions for the food.","id":1001,"foodAttributes":[{"value":"vegetarian","id":3312462,"sequenceNumber":1},{"value":"soy or bean burger","id":3312463,"sequenceNumber":2},{"value":"on bread or roll","id":3312464,"sequenceNumber":3}]},{"name":"Adjustments","description":"Adjustments made to foods, including moisture changes","id":1002,"foodAttributes":[{"value":"Moisture change: 0%","id":3320921}]},{"name":"Attribute","description":"Generic attributes","id":999,"foodAttributes":[{"value":"Vegetable sandwiches/burgers","name":"WWEIA Category description","id":3302510},{"value":"3744","name":"WWEIA Category number","id":3302509}]}],"foodVersionIds":[]}],"aggregations":{"dataType":{"Branded":2334,"Survey (FNDDS)":81,"SR Legacy":19},"nutrients":{}}}
