{"totalHits":47395,"currentPage":1,"totalPages":47395,"pageList":[1,2,3,4,5,6,7,8,9,10],"foodSearchCriteria":{"query":"Smoothie (fruit)","generalSearchInput":"Smoothie (fruit)","pageNumber":1,"numberOfResultsPerPage":50,"pageSize":1,"requireAllWords":false},"foods":[{"fdcId":2709338,"description":"Fruit smoothie, light","commonNames":"","additionalDescriptions":"Jamba Light;Cold Stone Sinless;fat free, low fat, no sugar added, reduced fat;Orange Julius Light;Smoothie King Skinny","dataType":"Survey (FNDDS)","foodCode":64134100,"publishedDate":"2024-10-31","foodCategory":"Smoothies and grain drinks","foodCategoryId":3306224,"allHighlightFields":"<b>Includes</b>: Jamba Light;Cold Stone Sinless;fat free, low fat, no sugar added, reduced fat;Orange Julius Light;<em>Smoothie</em> King Skinny","score":615.38477,"microbes":[],"foodNutrients":[{"nutrientId":1003,"nutrientName":"Protein","nutrientNumber":"203","unitName":"G","value":2.61,"rank":600,"indentLevel":1,"foodNutrientId":34393169},{"nutrientId":1004,"nutrientName":"Total lipid (fat)","nutrientNumber":"204","unitName":"G","value":0.61,"rank":800,"indentLevel":1,"foodNutrientId":34393170},{"nutrientId":1005,"nutrientName":"Carbohydrate, by difference","nutrientNumber":"205","unitName":"G","value":9.71,"rank":1110,"indentLevel":2,"foodNutrientId":34393171},{"nutrientId":1008,"nutrientName":"Energy","nutrientNumber":"208","unitName":"KCAL","value":53,"rank":300,"indentLevel":1,"foodNutrientId":34393172},{"nutrientId":1018,"nutrientName":"Alcohol, ethyl","nutrientNumber":"221","unitName":"G","value":0,"rank":18200,"indentLevel":1,"foodNutrientId":34393173},{"nutrientId":1051,"nutrientName":"Water","nutrientNumber":"255","unitName":"G","value":86.38,"rank":100,"indentLevel":1,"foodNutrientId":34393174},{"nutrientId":1057,"nutrientName":"Caffeine","nutrientNumber":"262","unitName":"MG","value":0,"rank":18300,"indentLevel":0,"foodNutrientId":34393175},{"nutrientId":1058,"nutrientName":"Theobromine","nutrientNumber":"263","unitName":"MG","value":0,"rank":18400,"indentLevel":0,"foodNutrientId":34393176},{"nutrientId":2000,"nutrientName":"Total Sugars","nutrientNumber":"269","unitName":"G","value":7.47,"rank":1510,"indentLevel":3,"foodNutrientId":34393177},{"nutrientId":1079,"nutrientName":"Fiber, total dietary","nutrientNumber":"291","unitName":"G","value":1,"rank":1200,"indentLevel":3,"foodNutrientId":34393178},{"nutrientId":1087,"nutrientName":"Calcium, Ca","nutrientNumber":"301","unitName":"MG","value":91,"rank":5300,"indentLevel":1,"foodNutrientId":34393179},{"nutrientId":1089,"nutrientName":"Iron, Fe","nutrientNumber":"303","unitName":"MG","value":0.17,"rank":5400,"indentLevel":1,"foodNutrientId":34393180},{"nutrientId":1090,"nutrientName":"Magnesium, Mg","nutrientNumber":"304","unitName":"MG","value":14,"rank":5500,"indentLevel":1,"foodNutrientId":34393181},{"nutrientId":1091,"nutrientName":"Phosphorus, P","nutrientNumber":"305","unitName":"MG","value":75,"rank":5600,"indentLevel":1,"foodNutrientId":34393182},{"nutrientId":1092,"nutrientName":"Potassium, K","nutrientNumber":"306","unitName":"MG","value":184,"rank":5700,"indentLevel":1,"foodNutrientId":34393183},{"nutrientId":1093,"nutrientName":"Sodium, Na","nutrientNumber":"307","unitName":"MG","value":31,"rank":5800,"indentLevel":1,"foodNutrientId":34393184},{"nutrientId":1095,"nutrientName":"Zinc, Zn","nutrientNumber":"309","unitName":"MG","value":0.42,"rank":5900,"indentLevel":1,"foodNutrientId":34393185},{"nutrientId":1098,"nutrientName":"Copper, Cu","nutrientNumber":"312","unitName":"MG","value":0.031,"rank":6000,"indentLevel":1,"foodNutrientId":34393186},{"nutrientId":1103,"nutrientName":"Selenium, Se","nutrientNumber":"317","unitName":"UG","value":1.6,"rank":6200,"indentLevel":1,"foodNutrientId":34393187},{"nutrientId":1105,"nutrientName":"Retinol","nutrientNumber":"319","unitName":"UG","value":21,"rank":7430,"indentLevel":2,"foodNutrientId":34393188},{"nutrientId":1106,"nutrientName":"Vitamin A, RAE","nutrientNumber":"320","unitName":"UG","value":22,"rank":7420,"indentLevel":1,"foodNutrientId":34393189},{"nutrientId":1107,"nutrientName":"Carotene, beta","nutrientNumber":"321","unitName":"UG","value":11,"rank":7440,"indentLevel":2,"foodNutrientId":34393190},{"nutrientId":1108,"nutrientName":"Carotene, alpha","nutrientNumber":"322","unitName":"UG","value":1,"rank":7450,"indentLevel":2,"foodNutrientId":34393191},{"nutrientId":1109,"nutrientName":"Vitamin E (alpha-tocopherol)","nutrientNumber":"323","unitName":"MG","value":0.15,"rank":7905,"indentLevel":1,"foodNutrientId":34393192},{"nutrientId":1114,"nutrientName":"Vitamin D (D2 + D3)","nutrientNumber":"328","unitName":"UG","value":0.3,"rank":8700,"indentLevel":1,"foodNutrientId":34393193},{"nutrientId":1120,"nutrientName":"Cryptoxanthin, beta","nutrientNumber":"334","unitName":"UG","value":0,"rank":7460,"indentLevel":2,"foodNutrientId":34393194},{"nutrientId":1122,"nutrientName":"Lycopene","nutrientNumber":"337","unitName":"UG","value":0,"rank":7530,"indentLevel":1,"foodNutrientId":34393195},{"nutrientId":1123,"nutrientName":"Lutein + zeaxanthin","nutrientNumber":"338","unitName":"UG","value":18,"rank":7560,"indentLevel":1,"foodNutrientId":34393196},{"nutrientId":1162,"nutrientName":"Vitamin C, total ascorbic acid","nutrientNumber":"401","unitName":"MG","value":8.9,"rank":6300,"indentLevel":1,"foodNutrientId":34393197},{"nutrientId":1165,"nutrientName":"Thiamin","nutrientNumber":"404","unitName":"MG","value":0.043,"rank":6400,"indentLevel":1,"foodNutrientId":34393198},{"nutrientId":1166,"nutrientName":"Riboflavin","nutrientNumber":"405","unitName":"MG","value":0.106,"rank":6500,"indentLevel":1,"foodNutrientId":34393199},{"nutrientId":1167,"nutrientName":"Niacin","nutrientNumber":"406","unitName":"MG","value":0.309,"rank":6600,"indentLevel":1,"foodNutrientId":34393200},{"nutrientId":1175,"nutrientName":"Vitamin B-6","nutrientNumber":"415","unitName":"MG","value":0.07,"rank":6800,"indentLevel":1,"foodNutrientId":34393201},{"nutrientId":1177,"nutrientName":"Folate, total","nutrientNumber":"417","unitName":"UG","value":9,"rank":6900,"indentLevel":1,"foodNutrientId":34393202},{"nutrientId":1178,"nutrientName":"Vitamin B-12","nutrientNumber":"418","unitName":"UG","value":0.31,"rank":7300,"indentLevel":1,"foodNutrientId":34393203},{"nutrientId":1180,"nutrientName":"Choline, total","nutrientNumber":"421","unitName":"MG","value":12.1,"rank":7220,"indentLevel":1,"foodNutrientId":34393204},{"nutrientId":1185,"nutrientName":"Vitamin K (phylloquinone)","nutrientNumber":"430","unitName":"UG","value":3.1,"rank":8800,"indentLevel":1,"foodNutrientId":34393205},{"nutrientId":1186,"nutrientName":"Folic acid","nutrientNumber":"431","unitName":"UG","value":0,"rank":7000,"indentLevel":0,"foodNutrientId":34393206},{"nutrientId":1187,"nutrientName":"Folate, food","nutrientNumber":"432","unitName":"UG","value":9,"rank":7100,"indentLevel":1,"foodNutrientId":34393207},{"nutrientId":1190,"nutrientName":"Folate, DFE","nutrientNumber":"435","unitName":"UG","value":9,"rank":7200,"indentLevel":1,"foodNutrientId":34393208},{"nutrientId":1242,"nutrientName":"Vitamin E, added","nutrientNumber":"573","unitName":"MG","value":0,"rank":7920,"indentLevel":0,"foodNutrientId":34393209},{"nutrientId":1246,"nutrientName":"Vitamin B-12, added","nutrientNumber":"578","unitName":"UG","value":0,"rank":7340,"indentLevel":0,"foodNutrientId":34393210},{"nutrientId":1253,"nutrientName":"Cholesterol","nutrientNumber":"601","unitName":"MG","value":2,"rank":15700,"indentLevel":1,"foodNutrientId":34393211},{"nutrientId":1258,"nutrientName":"Fatty acids, total saturated","nutrientNumber":"606","unitName":"G","value":0.315,"rank":9700,"indentLevel":1,"foodNutrientId":34393212},{"nutrientId":1259,"nutrientName":"SFA 4:0","nutrientNumber":"607","unitName":"G","value":0.014,"rank":9800,"indentLevel":2,"foodNutrientId":34393213},{"nutrientId":1260,"nutrientName":"SFA 6:0","nutrientNumber":"608","unitName":"G","value":0.009,"rank":9900,"indentLevel":2,"foodNutrientId":34393214},{"nutrientId":1261,"nutrientName":"SFA 8:0","nutrientNumber":"609","unitName":"G","value":0.006,"rank":10000,"indentLevel":2,"foodNutrientId":34393215},{"nutrientId":1262,"nutrientName":"SFA 10:0","nutrientNumber":"610","unitName":"G","value":0.013,"rank":10100,"indentLevel":2,"foodNutrientId":34393216},{"nutrientId":1263,"nutrientName":"SFA 12:0","nutrientNumber":"611","unitName":"G","value":0.016,"rank":10300,"indentLevel":2,"foodNutrientId":34393217},{"nutrientId":1264,"nutrientName":"SFA 14:0","nutrientNumber":"612","unitName":"G","value":0.048,"rank":10500,"indentLevel":2,"foodNutrientId":34393218},{"nutrientId":1265,"nutrientName":"SFA 16:0","nutrientNumber":"613","unitName":"G","value":0.142,"rank":10700,"indentLevel":2,"foodNutrientId":34393219},{"nutrientId":1266,"nutrientName":"SFA 18:0","nutrientNumber":"614","unitName":"G","value":0.047,"rank":10900,"indentLevel":2,"foodNutrientId":34393220},{"nutrientId":1268,"nutrientName":"MUFA 18:1","nutrientNumber":"617","unitName":"G","value":0.123,"rank":12100,"indentLevel":2,"foodNutrientId":34393221},{"nutrientId":1269,"nutrientName":"PUFA 18:2","nutrientNumber":"618","unitName":"G","value":0.048,"rank":13100,"indentLevel":2,"foodNutrientId":34393222},{"nutrientId":1270,"nutrientName":"PUFA 18:3","nutrientNumber":"619","unitName":"G","value":0.029,"rank":13900,"indentLevel":2,"foodNutrientId":34393223},{"nutrientId":1271,"nutrientName":"PUFA 20:4","nutrientNumber":"620","unitName":"G","value":0,"rank":14700,"indentLevel":2,"foodNutrientId":34393224},{"nutrientId":1272,"nutrientName":"PUFA 22:6 n-3 (DHA)","nutrientNumber":"621","unitName":"G","value":0,"rank":15300,"indentLevel":2,"foodNutrientId":34393225},{"nutrientId":1275,"nutrientName":"MUFA 16:1","nutrientNumber":"626","unitName":"G","value":0.011,"rank":11700,"indentLevel":2,"foodNutrientId":34393226},{"nutrientId":1276,"nutrientName":"PUFA 18:4","nutrientNumber":"627","unitName":"G","value":0,"rank":14250,"indentLevel":2,"foodNutrientId":34393227},{"nutrientId":1277,"nutrientName":"MUFA 20:1","nutrientNumber":"628","unitName":"G","value":0,"rank":12400,"indentLevel":2,"foodNutrientId":34393228},{"nutrientId":1278,"nutrientName":"PUFA 20:5 n-3 (EPA)","nutrientNumber":"629","unitName":"G","value":0,"rank":15000,"indentLevel":2,"foodNutrientId":34393229},{"nutrientId":1279,"nutrientName":"MUFA 22:1","nutrientNumber":"630","unitName":"G","value":0,"rank":12500,"indentLevel":2,"foodNutrientId":34393230},{"nutrientId":1280,"nutrientName":"PUFA 22:5 n-3 (DPA)","nutrientNumber":"631","unitName":"G","value":0,"rank":15200,"indentLevel":2,"foodNutrientId":34393231},{"nutrientId":1292,"nutrientName":"Fatty acids, total monounsaturated","nutrientNumber":"645","unitName":"G","value":0.144,"rank":11400,"indentLevel":1,"foodNutrientId":34393232},{"nutrientId":1293,"nutrientName":"Fatty acids, total polyunsaturated","nutrientNumber":"646","unitName":"G","value":0.078,"rank":12900,"indentLevel":1,"foodNutrientId":34393233}],"finalFoodInputFoods":[{"foodDescription":"Blueberries, frozen, unsweetened (Includes foods for USDA's Food Distribution Program)","gramWeight":150,"id":139013,"portionCode":"10205","portionDescription":"1 cup","unit":"C","rank":2,"retentionCode":0,"srCode":9054,"value":1.0},{"foodDescription":"Milk, nonfat, fluid, with added vitamin A and vitamin D (fat free or skim)","gramWeight":244,"id":139016,"portionCode":"10205","portionDescription":"1 cup","unit":"C","rank":5,"retentionCode":0,"srCode":1085,"value":1.0},{"foodDescription":"Yogurt, plain, low fat","gramWeight":254,"id":139015,"portionCode":"0","portionDescription":"NONE","unit":"GM","rank":4,"retentionCode":0,"srCode":1117,"value":254},{"foodDescription":"Strawberries, frozen, unsweetened (Includes foods for USDA's Food Distribution Program)","gramWeight":149,"id":139012,"portionCode":"10299","portionDescription":"1 cup, unthawed","unit":"C","rank":1,"retentionCode":0,"srCode":9318,"value":1.0},{"foodDescription":"Bananas, ripe and slightly ripe, raw","gramWeight":118,"id":139014,"portionCode":"0","portionDescription":"NONE","unit":"GM","rank":3,"retentionCode":0,"srCode":9040,"value":118}],"foodMeasures":[{"disseminationText":"1 large","gramWeight":1080,"id":306522,"modifier":"60919","rank":5,"measureUnitAbbreviation":"undetermined","measureUnitName":"undetermined","measureUnitId":9999},{"disseminationText":"1 medium","gramWeight":864,"id":306521,"modifier":"61238","rank":4,"measureUnitAbbreviation":"undetermined","measureUnitName":"undetermined","measureUnitId":9999},{"disseminationText":"1 fl oz","gramWeight":27,"id":306518,"modifier":"30000","rank":1,"measureUnitAbbreviation":"undetermined","measureUnitName":"undetermined","measureUnitId":9999},{"disseminationText":"Quantity not specified","gramWeight":324,"id":306523,"modifier":"90000","rank":6,"measureUnitAbbreviation":"undetermined","measureUnitName":"undetermined","measureUnitId":9999},{"disseminationText":"1 small","gramWeight":540,"id":306520,"modifier":"62015","rank":3,"measureUnitAbbreviation":"undetermined","measureUnitName":"undetermined","measureUnitId":9999},{"disseminationText":"1 cup","gramWeight":216,"id":306519,"modifier":"10205","rank":2,"measureUnitAbbreviation":"undetermined","measureUnitName":"undetermined","measureUnitId":9999}],"foodAttributes":[{"value":"Moisture change: 0%","id":3322778},{"value":"Orange Julius Light","id":3316052,"sequenceNumber":2},{"value":"7220","name":"WWEIA Category number","id":3306223},{"value":"Jamba Light","id":3316054,"sequenceNumber":4},{"value":"fat free, low fat, no sugar added, reduced fat","id":3316051,"sequenceNumber":1},{"value":"Smoothies and grain drinks","name":"WWEIA Category description","id":3306224},{"value":"Smoothie King Skinny","id":3316055,"sequenceNumber":5},{"value":"Cold Stone Sinless","id":3316053,"sequenceNumber":3}],"foodAttributeTypes":[{"name":"Additional Description","description":"Additional descriptions for the food.","id":1001,"foodAttributes":[{"value":"Orange Julius Light","id":3316052,"sequenceNumber":2},{"value":"Jamba Light","id":3316054,"sequenceNumber":4},{"value":"fat free, low fat, no sugar added, reduced fat","id":3316051,"sequenceNumber":1},{"value":"Smoothie King Skinny","id":3316055,"sequenceNumber":5},{"value":"Cold Stone Sinless","id":3316053,"sequenceNumber":3}]},{"name":"Adjustments","description":"Adjustments made to foods, including moisture changes","id":1002,"foodAttributes":[{"value":"Moisture change: 0%","id":3322778}]},{"name":"Attribute","description":"Generic attributes","id":999,"foodAttributes":[{"value":"7220","name":"WWEIA Category number","id":3306223},{"value":"Smoothies and grain drinks","name":"WWEIA Category description","id":3306224}]}],"foodVersionIds":[]}],"aggregations":{"dataType":{"Branded":46465,"SR Legacy":498,"Survey (FNDDS)":378,"Foundation":48,"Experimental":6},"nutrients":{}}}
