{"totalHits":8062,"currentPage":1,"totalPages":8062,"pageList":[1,2,3,4,5,6,7,8,9,10],"foodSearchCriteria":{"query":"Veg Sandwich","generalSearchInput":"Veg Sandwich","pageNumber":1,"numberOfResultsPerPage":50,"pageSize":1,"requireAllWords":false},"foods":[{"fdcId":2708171,"description":"Crackers, sandwich","commonNames":"","additionalDescriptions":"","dataType":"Survey (FNDDS)","foodCode":54328000,"publishedDate":"2024-10-31","foodCategory":"Crackers, excludes saltines","foodCategoryId":3303890,"allHighlightFields":"","score":314.2181,"microbes":[],"foodNutrients":[{"nutrientId":1003,"nutrientName":"Protein","nutrientNumber":"203","unitName":"G","value":11.47,"rank":600,"indentLevel":1,"foodNutrientId":34317314},{"nutrientId":1004,"nutrientName":"Total lipid (fat)","nutrientNumber":"204","unitName":"G","value":24.54,"rank":800,"indentLevel":1,"foodNutrientId":34317315},{"nutrientId":1005,"nutrientName":"Carbohydrate, by difference","nutrientNumber":"205","unitName":"G","value":58.38,"rank":1110,"indentLevel":2,"foodNutrientId":34317316},{"nutrientId":1008,"nutrientName":"Energy","nutrientNumber":"208","unitName":"KCAL","value":494,"rank":300,"indentLevel":1,"foodNutrientId":34317317},{"nutrientId":1018,"nutrientName":"Alcohol, ethyl","nutrientNumber":"221","unitName":"G","value":0,"rank":18200,"indentLevel":1,"foodNutrientId":34317318},{"nutrientId":1051,"nutrientName":"Water","nutrientNumber":"255","unitName":"G","value":2.93,"rank":100,"indentLevel":1,"foodNutrientId":34317319},{"nutrientId":1057,"nutrientName":"Caffeine","nutrientNumber":"262","unitName":"MG","value":0,"rank":18300,"indentLevel":0,"foodNutrientId":34317320},{"nutrientId":1058,"nutrientName":"Theobromine","nutrientNumber":"263","unitName":"MG","value":0,"rank":18400,"indentLevel":0,"foodNutrientId":34317321},{"nutrientId":2000,"nutrientName":"Total Sugars","nutrientNumber":"269","unitName":"G","value":10.5,"rank":1510,"indentLevel":3,"foodNutrientId":34317322},{"nutrientId":1079,"nutrientName":"Fiber, total dietary","nutrientNumber":"291","unitName":"G","value":2.3,"rank":1200,"indentLevel":3,"foodNutrientId":34317323},{"nutrientId":1087,"nutrientName":"Calcium, Ca","nutrientNumber":"301","unitName":"MG","value":81,"rank":5300,"indentLevel":1,"foodNutrientId":34317324},{"nutrientId":1089,"nutrientName":"Iron, Fe","nutrientNumber":"303","unitName":"MG","value":2.77,"rank":5400,"indentLevel":1,"foodNutrientId":34317325},{"nutrientId":1090,"nutrientName":"Magnesium, Mg","nutrientNumber":"304","unitName":"MG","value":55,"rank":5500,"indentLevel":1,"foodNutrientId":34317326},{"nutrientId":1091,"nutrientName":"Phosphorus, P","nutrientNumber":"305","unitName":"MG","value":274,"rank":5600,"indentLevel":1,"foodNutrientId":34317327},{"nutrientId":1092,"nutrientName":"Potassium, K","nutrientNumber":"306","unitName":"MG","value":215,"rank":5700,"indentLevel":1,"foodNutrientId":34317328},{"nutrientId":1093,"nutrientName":"Sodium, Na","nutrientNumber":"307","unitName":"MG","value":801,"rank":5800,"indentLevel":1,"foodNutrientId":34317329},{"nutrientId":1095,"nutrientName":"Zinc, Zn","nutrientNumber":"309","unitName":"MG","value":1.13,"rank":5900,"indentLevel":1,"foodNutrientId":34317330},{"nutrientId":1098,"nutrientName":"Copper, Cu","nutrientNumber":"312","unitName":"MG","value":0.324,"rank":6000,"indentLevel":1,"foodNutrientId":34317331},{"nutrientId":1103,"nutrientName":"Selenium, Se","nutrientNumber":"317","unitName":"UG","value":10.8,"rank":6200,"indentLevel":1,"foodNutrientId":34317332},{"nutrientId":1105,"nutrientName":"Retinol","nutrientNumber":"319","unitName":"UG","value":1,"rank":7430,"indentLevel":2,"foodNutrientId":34317333},{"nutrientId":1106,"nutrientName":"Vitamin A, RAE","nutrientNumber":"320","unitName":"UG","value":1,"rank":7420,"indentLevel":1,"foodNutrientId":34317334},{"nutrientId":1107,"nutrientName":"Carotene, beta","nutrientNumber":"321","unitName":"UG","value":0,"rank":7440,"indentLevel":2,"foodNutrientId":34317335},{"nutrientId":1108,"nutrientName":"Carotene, alpha","nutrientNumber":"322","unitName":"UG","value":0,"rank":7450,"indentLevel":2,"foodNutrientId":34317336},{"nutrientId":1109,"nutrientName":"Vitamin E (alpha-tocopherol)","nutrientNumber":"323","unitName":"MG","value":2.06,"rank":7905,"indentLevel":1,"foodNutrientId":34317337},{"nutrientId":1114,"nutrientName":"Vitamin D (D2 + D3)","nutrientNumber":"328","unitName":"UG","value":0,"rank":8700,"indentLevel":1,"foodNutrientId":34317338},{"nutrientId":1120,"nutrientName":"Cryptoxanthin, beta","nutrientNumber":"334","unitName":"UG","value":0,"rank":7460,"indentLevel":2,"foodNutrientId":34317339},{"nutrientId":1122,"nutrientName":"Lycopene","nutrientNumber":"337","unitName":"UG","value":0,"rank":7530,"indentLevel":1,"foodNutrientId":34317340},{"nutrientId":1123,"nutrientName":"Lutein + zeaxanthin","nutrientNumber":"338","unitName":"UG","value":10,"rank":7560,"indentLevel":1,"foodNutrientId":34317341},{"nutrientId":1162,"nutrientName":"Vitamin C, total ascorbic acid","nutrientNumber":"401","unitName":"MG","value":0,"rank":6300,"indentLevel":1,"foodNutrientId":34317342},{"nutrientId":1165,"nutrientName":"Thiamin","nutrientNumber":"404","unitName":"MG","value":0.489,"rank":6400,"indentLevel":1,"foodNutrientId":34317343},{"nutrientId":1166,"nutrientName":"Riboflavin","nutrientNumber":"405","unitName":"MG","value":0.271,"rank":6500,"indentLevel":1,"foodNutrientId":34317344},{"nutrientId":1167,"nutrientName":"Niacin","nutrientNumber":"406","unitName":"MG","value":6.114,"rank":6600,"indentLevel":1,"foodNutrientId":34317345},{"nutrientId":1175,"nutrientName":"Vitamin B-6","nutrientNumber":"415","unitName":"MG","value":0.148,"rank":6800,"indentLevel":1,"foodNutrientId":34317346},{"nutrientId":1177,"nutrientName":"Folate, total","nutrientNumber":"417","unitName":"UG","value":86,"rank":6900,"indentLevel":1,"foodNutrientId":34317347},{"nutrientId":1178,"nutrientName":"Vitamin B-12","nutrientNumber":"418","unitName":"UG","value":0.01,"rank":7300,"indentLevel":1,"foodNutrientId":34317348},{"nutrientId":1180,"nutrientName":"Choline, total","nutrientNumber":"421","unitName":"MG","value":24.7,"rank":7220,"indentLevel":1,"foodNutrientId":34317349},{"nutrientId":1185,"nutrientName":"Vitamin K (phylloquinone)","nutrientNumber":"430","unitName":"UG","value":9.5,"rank":8800,"indentLevel":1,"foodNutrientId":34317350},{"nutrientId":1186,"nutrientName":"Folic acid","nutrientNumber":"431","unitName":"UG","value":52,"rank":7000,"indentLevel":0,"foodNutrientId":34317351},{"nutrientId":1187,"nutrientName":"Folate, food","nutrientNumber":"432","unitName":"UG","value":34,"rank":7100,"indentLevel":1,"foodNutrientId":34317352},{"nutrientId":1190,"nutrientName":"Folate, DFE","nutrientNumber":"435","unitName":"UG","value":122,"rank":7200,"indentLevel":1,"foodNutrientId":34317353},{"nutrientId":1242,"nutrientName":"Vitamin E, added","nutrientNumber":"573","unitName":"MG","value":0,"rank":7920,"indentLevel":0,"foodNutrientId":34317354},{"nutrientId":1246,"nutrientName":"Vitamin B-12, added","nutrientNumber":"578","unitName":"UG","value":0,"rank":7340,"indentLevel":0,"foodNutrientId":34317355},{"nutrientId":1253,"nutrientName":"Cholesterol","nutrientNumber":"601","unitName":"MG","value":0,"rank":15700,"indentLevel":1,"foodNutrientId":34317356},{"nutrientId":1258,"nutrientName":"Fatty acids, total saturated","nutrientNumber":"606","unitName":"G","value":4.803,"rank":9700,"indentLevel":1,"foodNutrientId":34317357},{"nutrientId":1259,"nutrientName":"SFA 4:0","nutrientNumber":"607","unitName":"G","value":0,"rank":9800,"indentLevel":2,"foodNutrientId":34317358},{"nutrientId":1260,"nutrientName":"SFA 6:0","nutrientNumber":"608","unitName":"G","value":0,"rank":9900,"indentLevel":2,"foodNutrientId":34317359},{"nutrientId":1261,"nutrientName":"SFA 8:0","nutrientNumber":"609","unitName":"G","value":0,"rank":10000,"indentLevel":2,"foodNutrientId":34317360},{"nutrientId":1262,"nutrientName":"SFA 10:0","nutrientNumber":"610","unitName":"G","value":0,"rank":10100,"indentLevel":2,"foodNutrientId":34317361},{"nutrientId":1263,"nutrientName":"SFA 12:0","nutrientNumber":"611","unitName":"G","value":0,"rank":10300,"indentLevel":2,"foodNutrientId":34317362},{"nutrientId":1264,"nutrientName":"SFA 14:0","nutrientNumber":"612","unitName":"G","value":0,"rank":10500,"indentLevel":2,"foodNutrientId":34317363},{"nutrientId":1265,"nutrientName":"SFA 16:0","nutrientNumber":"613","unitName":"G","value":3.008,"rank":10700,"indentLevel":2,"foodNutrientId":34317364},{"nutrientId":1266,"nutrientName":"SFA 18:0","nutrientNumber":"614","unitName":"G","value":1.222,"rank":10900,"indentLevel":2,"foodNutrientId":34317365},{"nutrientId":1268,"nutrientName":"MUFA 18:1","nutrientNumber":"617","unitName":"G","value":13.256,"rank":12100,"indentLevel":2,"foodNutrientId":34317366},{"nutrientId":1269,"nutrientName":"PUFA 18:2","nutrientNumber":"618","unitName":"G","value":4.551,"rank":13100,"indentLevel":2,"foodNutrientId":34317367},{"nutrientId":1270,"nutrientName":"PUFA 18:3","nutrientNumber":"619","unitName":"G","value":0,"rank":13900,"indentLevel":2,"foodNutrientId":34317368},{"nutrientId":1271,"nutrientName":"PUFA 20:4","nutrientNumber":"620","unitName":"G","value":0,"rank":14700,"indentLevel":2,"foodNutrientId":34317369},{"nutrientId":1272,"nutrientName":"PUFA 22:6 n-3 (DHA)","nutrientNumber":"621","unitName":"G","value":0,"rank":15300,"indentLevel":2,"foodNutrientId":34317370},{"nutrientId":1275,"nutrientName":"MUFA 16:1","nutrientNumber":"626","unitName":"G","value":0,"rank":11700,"indentLevel":2,"foodNutrientId":34317371},{"nutrientId":1276,"nutrientName":"PUFA 18:4","nutrientNumber":"627","unitName":"G","value":0,"rank":14250,"indentLevel":2,"foodNutrientId":34317372},{"nutrientId":1277,"nutrientName":"MUFA 20:1","nutrientNumber":"628","unitName":"G","value":0.212,"rank":12400,"indentLevel":2,"foodNutrientId":34317373},{"nutrientId":1278,"nutrientName":"PUFA 20:5 n-3 (EPA)","nutrientNumber":"629","unitName":"G","value":0,"rank":15000,"indentLevel":2,"foodNutrientId":34317374},{"nutrientId":1279,"nutrientName":"MUFA 22:1","nutrientNumber":"630","unitName":"G","value":0,"rank":12500,"indentLevel":2,"foodNutrientId":34317375},{"nutrientId":1280,"nutrientName":"PUFA 22:5 n-3 (DPA)","nutrientNumber":"631","unitName":"G","value":0,"rank":15200,"indentLevel":2,"foodNutrientId":34317376},{"nutrientId":1292,"nutrientName":"Fatty acids, total monounsaturated","nutrientNumber":"645","unitName":"G","value":13.468,"rank":11400,"indentLevel":1,"foodNutrientId":34317377},{"nutrientId":1293,"nutrientName":"Fatty acids, total polyunsaturated","nutrientNumber":"646","unitName":"G","value":4.551,"rank":12900,"indentLevel":1,"foodNutrientId":34317378}],"finalFoodInputFoods":[{"foodDescription":"Crackers, standard snack-type, sandwich, with peanut butter filling","gramWeight":100,"id":134058,"portionCode":"0","portionDescription":"NONE","unit":"GM","rank":1,"retentionCode":0,"srCode":18231,"value":100}],"foodMeasures":[{"disseminationText":"1 individual package","gramWeight":45,"id":301512,"modifier":"60872","rank":3,"measureUnitAbbreviation":"undetermined","measureUnitName":"undetermined","measureUnitId":9999},{"disseminationText":"1 miniature/bite size","gramWeight":3,"id":301511,"modifier":"64233","rank":2,"measureUnitAbbreviation":"undetermined","measureUnitName":"undetermined","measureUnitId":9999},{"disseminationText":"1 sandwich","gramWeight":7,"id":301510,"modifier":"61853","rank":1,"measureUnitAbbreviation":"undetermined","measureUnitName":"undetermined","measureUnitId":9999},{"disseminationText":"1 cup, NFS","gramWeight":70,"id":301513,"modifier":"10010","rank":4,"measureUnitAbbreviation":"undetermined","measureUnitName":"undetermined","measureUnitId":9999},{"disseminationText":"Quantity not specified","gramWeight":18,"id":301514,"modifier":"90000","rank":6,"measureUnitAbbreviation":"undetermined","measureUnitName":"undetermined","measureUnitId":9999}],"foodAttributes":[{"value":"Crackers, excludes saltines","name":"WWEIA Category description","id":3303890},{"value":"5202","name":"WWEIA Category number","id":3303889},{"value":"Moisture change: 0%","id":3321611}],"foodAttributeTypes":[{"name":"Adjustments","description":"Adjustments made to foods, including moisture changes","id":1002,"foodAttributes":[{"value":"Moisture change: 0%","id":3321611}]},{"name":"Attribute","description":"Generic attributes","id":999,"foodAttributes":[{"value":"Crackers, excludes saltines","name":"WWEIA Category description","id":3303890},{"value":"5202","name":"WWEIA Category number","id":3303889}]}],"foodVersionIds":[]}],"aggregations":{"dataType":{"Branded":7698,"Survey (FNDDS)":294,"SR Legacy":70},"nutrients":{}}}
