{"totalHits":142956,"currentPage":1,"totalPages":142956,"pageList":[1,2,3,4,5,6,7,8,9,10],"foodSearchCriteria":{"query":"Milk (skim)","generalSearchInput":"Milk (skim)","pageNumber":1,"numberOfResultsPerPage":50,"pageSize":1,"requireAllWords":false},"foods":[{"fdcId":2705388,"description":"Milk, fat free (skim)","commonNames":"","additionalDescriptions":"","dataType":"Survey (FNDDS)","foodCode":11113000,"publishedDate":"2024-10-31","foodCategory":"Milk, nonfat","foodCategoryId":3298324,"allHighlightFields":"","score":551.6597,"microbes":[],"foodNutrients":[{"nutrientId":1003,"nutrientName":"Protein","nutrientNumber":"203","unitName":"G","value":3.43,"rank":600,"indentLevel":1,"foodNutrientId":34136419},{"nutrientId":1004,"nutrientName":"Total lipid (fat)","nutrientNumber":"204","unitName":"G","value":0.08,"rank":800,"indentLevel":1,"foodNutrientId":34136420},{"nutrientId":1005,"nutrientName":"Carbohydrate, by difference","nutrientNumber":"205","unitName":"G","value":4.92,"rank":1110,"indentLevel":2,"foodNutrientId":34136421},{"nutrientId":1008,"nutrientName":"Energy","nutrientNumber":"208","unitName":"KCAL","value":34,"rank":300,"indentLevel":1,"foodNutrientId":34136422},{"nutrientId":1018,"nutrientName":"Alcohol, ethyl","nutrientNumber":"221","unitName":"G","value":0,"rank":18200,"indentLevel":1,"foodNutrientId":34136423},{"nutrientId":1051,"nutrientName":"Water","nutrientNumber":"255","unitName":"G","value":90.8,"rank":100,"indentLevel":1,"foodNutrientId":34136424},{"nutrientId":1057,"nutrientName":"Caffeine","nutrientNumber":"262","unitName":"MG","value":0,"rank":18300,"indentLevel":0,"foodNutrientId":34136425},{"nutrientId":1058,"nutrientName":"Theobromine","nutrientNumber":"263","unitName":"MG","value":0,"rank":18400,"indentLevel":0,"foodNutrientId":34136426},{"nutrientId":2000,"nutrientName":"Total Sugars","nutrientNumber":"269","unitName":"G","value":5.05,"rank":1510,"indentLevel":3,"foodNutrientId":34136427},{"nutrientId":1079,"nutrientName":"Fiber, total dietary","nutrientNumber":"291","unitName":"G","value":0,"rank":1200,"indentLevel":3,"foodNutrientId":34136428},{"nutrientId":1087,"nutrientName":"Calcium, Ca","nutrientNumber":"301","unitName":"MG","value":132,"rank":5300,"indentLevel":1,"foodNutrientId":34136429},{"nutrientId":1089,"nutrientName":"Iron, Fe","nutrientNumber":"303","unitName":"MG","value":0,"rank":5400,"indentLevel":1,"foodNutrientId":34136430},{"nutrientId":1090,"nutrientName":"Magnesium, Mg","nutrientNumber":"304","unitName":"MG","value":12,"rank":5500,"indentLevel":1,"foodNutrientId":34136431},{"nutrientId":1091,"nutrientName":"Phosphorus, P","nutrientNumber":"305","unitName":"MG","value":107,"rank":5600,"indentLevel":1,"foodNutrientId":34136432},{"nutrientId":1092,"nutrientName":"Potassium, K","nutrientNumber":"306","unitName":"MG","value":167,"rank":5700,"indentLevel":1,"foodNutrientId":34136433},{"nutrientId":1093,"nutrientName":"Sodium, Na","nutrientNumber":"307","unitName":"MG","value":41,"rank":5800,"indentLevel":1,"foodNutrientId":34136434},{"nutrientId":1095,"nutrientName":"Zinc, Zn","nutrientNumber":"309","unitName":"MG","value":0.45,"rank":5900,"indentLevel":1,"foodNutrientId":34136435},{"nutrientId":1098,"nutrientName":"Copper, Cu","nutrientNumber":"312","unitName":"MG","value":0.002,"rank":6000,"indentLevel":1,"foodNutrientId":34136436},{"nutrientId":1103,"nutrientName":"Selenium, Se","nutrientNumber":"317","unitName":"UG","value":2,"rank":6200,"indentLevel":1,"foodNutrientId":34136437},{"nutrientId":1105,"nutrientName":"Retinol","nutrientNumber":"319","unitName":"UG","value":64,"rank":7430,"indentLevel":2,"foodNutrientId":34136438},{"nutrientId":1106,"nutrientName":"Vitamin A, RAE","nutrientNumber":"320","unitName":"UG","value":64,"rank":7420,"indentLevel":1,"foodNutrientId":34136439},{"nutrientId":1107,"nutrientName":"Carotene, beta","nutrientNumber":"321","unitName":"UG","value":2,"rank":7440,"indentLevel":2,"foodNutrientId":34136440},{"nutrientId":1108,"nutrientName":"Carotene, alpha","nutrientNumber":"322","unitName":"UG","value":0,"rank":7450,"indentLevel":2,"foodNutrientId":34136441},{"nutrientId":1109,"nutrientName":"Vitamin E (alpha-tocopherol)","nutrientNumber":"323","unitName":"MG","value":0,"rank":7905,"indentLevel":1,"foodNutrientId":34136442},{"nutrientId":1114,"nutrientName":"Vitamin D (D2 + D3)","nutrientNumber":"328","unitName":"UG","value":1.1,"rank":8700,"indentLevel":1,"foodNutrientId":34136443},{"nutrientId":1120,"nutrientName":"Cryptoxanthin, beta","nutrientNumber":"334","unitName":"UG","value":0,"rank":7460,"indentLevel":2,"foodNutrientId":34136444},{"nutrientId":1122,"nutrientName":"Lycopene","nutrientNumber":"337","unitName":"UG","value":0,"rank":7530,"indentLevel":1,"foodNutrientId":34136445},{"nutrientId":1123,"nutrientName":"Lutein + zeaxanthin","nutrientNumber":"338","unitName":"UG","value":0,"rank":7560,"indentLevel":1,"foodNutrientId":34136446},{"nutrientId":1162,"nutrientName":"Vitamin C, total ascorbic acid","nutrientNumber":"401","unitName":"MG","value":0,"rank":6300,"indentLevel":1,"foodNutrientId":34136447},{"nutrientId":1165,"nutrientName":"Thiamin","nutrientNumber":"404","unitName":"MG","value":0.056,"rank":6400,"indentLevel":1,"foodNutrientId":34136448},{"nutrientId":1166,"nutrientName":"Riboflavin","nutrientNumber":"405","unitName":"MG","value":0.131,"rank":6500,"indentLevel":1,"foodNutrientId":34136449},{"nutrientId":1167,"nutrientName":"Niacin","nutrientNumber":"406","unitName":"MG","value":0.118,"rank":6600,"indentLevel":1,"foodNutrientId":34136450},{"nutrientId":1175,"nutrientName":"Vitamin B-6","nutrientNumber":"415","unitName":"MG","value":0.058,"rank":6800,"indentLevel":1,"foodNutrientId":34136451},{"nutrientId":1177,"nutrientName":"Folate, total","nutrientNumber":"417","unitName":"UG","value":2,"rank":6900,"indentLevel":1,"foodNutrientId":34136452},{"nutrientId":1178,"nutrientName":"Vitamin B-12","nutrientNumber":"418","unitName":"UG","value":0.58,"rank":7300,"indentLevel":1,"foodNutrientId":34136453},{"nutrientId":1180,"nutrientName":"Choline, total","nutrientNumber":"421","unitName":"MG","value":18.2,"rank":7220,"indentLevel":1,"foodNutrientId":34136454},{"nutrientId":1185,"nutrientName":"Vitamin K (phylloquinone)","nutrientNumber":"430","unitName":"UG","value":0,"rank":8800,"indentLevel":1,"foodNutrientId":34136455},{"nutrientId":1186,"nutrientName":"Folic acid","nutrientNumber":"431","unitName":"UG","value":0,"rank":7000,"indentLevel":0,"foodNutrientId":34136456},{"nutrientId":1187,"nutrientName":"Folate, food","nutrientNumber":"432","unitName":"UG","value":2,"rank":7100,"indentLevel":1,"foodNutrientId":34136457},{"nutrientId":1190,"nutrientName":"Folate, DFE","nutrientNumber":"435","unitName":"UG","value":2,"rank":7200,"indentLevel":1,"foodNutrientId":34136458},{"nutrientId":1242,"nutrientName":"Vitamin E, added","nutrientNumber":"573","unitName":"MG","value":0,"rank":7920,"indentLevel":0,"foodNutrientId":34136459},{"nutrientId":1246,"nutrientName":"Vitamin B-12, added","nutrientNumber":"578","unitName":"UG","value":0,"rank":7340,"indentLevel":0,"foodNutrientId":34136460},{"nutrientId":1253,"nutrientName":"Cholesterol","nutrientNumber":"601","unitName":"MG","value":3,"rank":15700,"indentLevel":1,"foodNutrientId":34136461},{"nutrientId":1258,"nutrientName":"Fatty acids, total saturated","nutrientNumber":"606","unitName":"G","value":0.049,"rank":9700,"indentLevel":1,"foodNutrientId":34136462},{"nutrientId":1259,"nutrientName":"SFA 4:0","nutrientNumber":"607","unitName":"G","value":0.003,"rank":9800,"indentLevel":2,"foodNutrientId":34136463},{"nutrientId":1260,"nutrientName":"SFA 6:0","nutrientNumber":"608","unitName":"G","value":0.001,"rank":9900,"indentLevel":2,"foodNutrientId":34136464},{"nutrientId":1261,"nutrientName":"SFA 8:0","nutrientNumber":"609","unitName":"G","value":0.001,"rank":10000,"indentLevel":2,"foodNutrientId":34136465},{"nutrientId":1262,"nutrientName":"SFA 10:0","nutrientNumber":"610","unitName":"G","value":0.002,"rank":10100,"indentLevel":2,"foodNutrientId":34136466},{"nutrientId":1263,"nutrientName":"SFA 12:0","nutrientNumber":"611","unitName":"G","value":0.002,"rank":10300,"indentLevel":2,"foodNutrientId":34136467},{"nutrientId":1264,"nutrientName":"SFA 14:0","nutrientNumber":"612","unitName":"G","value":0.008,"rank":10500,"indentLevel":2,"foodNutrientId":34136468},{"nutrientId":1265,"nutrientName":"SFA 16:0","nutrientNumber":"613","unitName":"G","value":0.021,"rank":10700,"indentLevel":2,"foodNutrientId":34136469},{"nutrientId":1266,"nutrientName":"SFA 18:0","nutrientNumber":"614","unitName":"G","value":0.009,"rank":10900,"indentLevel":2,"foodNutrientId":34136470},{"nutrientId":1268,"nutrientName":"MUFA 18:1","nutrientNumber":"617","unitName":"G","value":0.018,"rank":12100,"indentLevel":2,"foodNutrientId":34136471},{"nutrientId":1269,"nutrientName":"PUFA 18:2","nutrientNumber":"618","unitName":"G","value":0.005,"rank":13100,"indentLevel":2,"foodNutrientId":34136472},{"nutrientId":1270,"nutrientName":"PUFA 18:3","nutrientNumber":"619","unitName":"G","value":0,"rank":13900,"indentLevel":2,"foodNutrientId":34136473},{"nutrientId":1271,"nutrientName":"PUFA 20:4","nutrientNumber":"620","unitName":"G","value":0,"rank":14700,"indentLevel":2,"foodNutrientId":34136474},{"nutrientId":1272,"nutrientName":"PUFA 22:6 n-3 (DHA)","nutrientNumber":"621","unitName":"G","value":0,"rank":15300,"indentLevel":2,"foodNutrientId":34136475},{"nutrientId":1275,"nutrientName":"MUFA 16:1","nutrientNumber":"626","unitName":"G","value":0.001,"rank":11700,"indentLevel":2,"foodNutrientId":34136476},{"nutrientId":1276,"nutrientName":"PUFA 18:4","nutrientNumber":"627","unitName":"G","value":0,"rank":14250,"indentLevel":2,"foodNutrientId":34136477},{"nutrientId":1277,"nutrientName":"MUFA 20:1","nutrientNumber":"628","unitName":"G","value":0,"rank":12400,"indentLevel":2,"foodNutrientId":34136478},{"nutrientId":1278,"nutrientName":"PUFA 20:5 n-3 (EPA)","nutrientNumber":"629","unitName":"G","value":0,"rank":15000,"indentLevel":2,"foodNutrientId":34136479},{"nutrientId":1279,"nutrientName":"MUFA 22:1","nutrientNumber":"630","unitName":"G","value":0,"rank":12500,"indentLevel":2,"foodNutrientId":34136480},{"nutrientId":1280,"nutrientName":"PUFA 22:5 n-3 (DPA)","nutrientNumber":"631","unitName":"G","value":0,"rank":15200,"indentLevel":2,"foodNutrientId":34136481},{"nutrientId":1292,"nutrientName":"Fatty acids, total monounsaturated","nutrientNumber":"645","unitName":"G","value":0.017,"rank":11400,"indentLevel":1,"foodNutrientId":34136482},{"nutrientId":1293,"nutrientName":"Fatty acids, total polyunsaturated","nutrientNumber":"646","unitName":"G","value":0.006,"rank":12900,"indentLevel":1,"foodNutrientId":34136483}],"finalFoodInputFoods":[{"foodDescription":"Milk, nonfat, fluid, with added vitamin A and vitamin D (fat free or skim)","gramWeight":100,"id":124275,"portionCode":"0","portionDescription":"NONE","unit":"GM","rank":1,"retentionCode":0,"srCode":1085,"value":100}],"foodMeasures":[{"disseminationText":"1 fl oz","gramWeight":30.5,"id":290534,"modifier":"30000","rank":2,"measureUnitAbbreviation":"undetermined","measureUnitName":"undetermined","measureUnitId":9999},{"disseminationText":"1 cup","gramWeight":244,"id":290533,"modifier":"10205","rank":1,"measureUnitAbbreviation":"undetermined","measureUnitName":"undetermined","measureUnitId":9999},{"disseminationText":"Quantity not specified","gramWeight":244,"id":290538,"modifier":"90000","rank":6,"measureUnitAbbreviation":"undetermined","measureUnitName":"undetermined","measureUnitId":9999},{"disseminationText":"Guideline amount per cup of hot cereal","gramWeight":61,"id":290537,"modifier":"63546","rank":5,"measureUnitAbbreviation":"undetermined","measureUnitName":"undetermined","measureUnitId":9999},{"disseminationText":"Guideline amount per fl oz of beverage","gramWeight":2.5,"id":290536,"modifier":"63480","rank":4,"measureUnitAbbreviation":"undetermined","measureUnitName":"undetermined","measureUnitId":9999},{"disseminationText":"1 individual school container","gramWeight":244,"id":290535,"modifier":"64294","rank":3,"measureUnitAbbreviation":"undetermined","measureUnitName":"undetermined","measureUnitId":9999}],"foodAttributes":[{"value":"1008","name":"WWEIA Category number","id":3298323},{"value":"Milk, nonfat","name":"WWEIA Category description","id":3298324},{"value":"Moisture change: 0%","id":3318828}],"foodAttributeTypes":[{"name":"Adjustments","description":"Adjustments made to foods, including moisture changes","id":1002,"foodAttributes":[{"value":"Moisture change: 0%","id":3318828}]},{"name":"Attribute","description":"Generic attributes","id":999,"foodAttributes":[{"value":"1008","name":"WWEIA Category number","id":3298323},{"value":"Milk, nonfat","name":"WWEIA Category description","id":3298324}]}],"foodVersionIds":[]}],"aggregations":{"dataType":{"Branded":142470,"Survey (FNDDS)":243,"SR Legacy":213,"Experimental":16,"Foundation":14},"nutrients":{}}}
