{"totalHits":422,"currentPage":1,"totalPages":422,"pageList":[1,2,3,4,5,6,7,8,9,10],"foodSearchCriteria":{"query":"Veg Biryani","generalSearchInput":"Veg Biryani","pageNumber":1,"numberOfResultsPerPage":50,"pageSize":1,"requireAllWords":false},"foods":[{"fdcId":2708985,"description":"Biryani with vegetables","commonNames":"","additionalDescriptions":"plain biryani;Indian rice with vegetables;vegetarian biryani","dataType":"Survey (FNDDS)","foodCode":58160000,"publishedDate":"2024-10-31","foodCategory":"Rice mixed dishes","foodCategoryId":3305518,"allHighlightFields":"<b>Includes</b>: plain <em>biryani</em>;Indian rice with vegetables;vegetarian <em>biryani</em>","score":678.19,"microbes":[],"foodNutrients":[{"nutrientId":1003,"nutrientName":"Protein","nutrientNumber":"203","unitName":"G","value":1.93,"rank":600,"indentLevel":1,"foodNutrientId":34370224},{"nutrientId":1004,"nutrientName":"Total lipid (fat)","nutrientNumber":"204","unitName":"G","value":3.2,"rank":800,"indentLevel":1,"foodNutrientId":34370225},{"nutrientId":1005,"nutrientName":"Carbohydrate, by difference","nutrientNumber":"205","unitName":"G","value":17.91,"rank":1110,"indentLevel":2,"foodNutrientId":34370226},{"nutrientId":1008,"nutrientName":"Energy","nutrientNumber":"208","unitName":"KCAL","value":109,"rank":300,"indentLevel":1,"foodNutrientId":34370227},{"nutrientId":1018,"nutrientName":"Alcohol, ethyl","nutrientNumber":"221","unitName":"G","value":0,"rank":18200,"indentLevel":1,"foodNutrientId":34370228},{"nutrientId":1051,"nutrientName":"Water","nutrientNumber":"255","unitName":"G","value":76.14,"rank":100,"indentLevel":1,"foodNutrientId":34370229},{"nutrientId":1057,"nutrientName":"Caffeine","nutrientNumber":"262","unitName":"MG","value":0,"rank":18300,"indentLevel":0,"foodNutrientId":34370230},{"nutrientId":1058,"nutrientName":"Theobromine","nutrientNumber":"263","unitName":"MG","value":0,"rank":18400,"indentLevel":0,"foodNutrientId":34370231},{"nutrientId":2000,"nutrientName":"Total Sugars","nutrientNumber":"269","unitName":"G","value":1.18,"rank":1510,"indentLevel":3,"foodNutrientId":34370232},{"nutrientId":1079,"nutrientName":"Fiber, total dietary","nutrientNumber":"291","unitName":"G","value":1.2,"rank":1200,"indentLevel":3,"foodNutrientId":34370233},{"nutrientId":1087,"nutrientName":"Calcium, Ca","nutrientNumber":"301","unitName":"MG","value":17,"rank":5300,"indentLevel":1,"foodNutrientId":34370234},{"nutrientId":1089,"nutrientName":"Iron, Fe","nutrientNumber":"303","unitName":"MG","value":1.04,"rank":5400,"indentLevel":1,"foodNutrientId":34370235},{"nutrientId":1090,"nutrientName":"Magnesium, Mg","nutrientNumber":"304","unitName":"MG","value":11,"rank":5500,"indentLevel":1,"foodNutrientId":34370236},{"nutrientId":1091,"nutrientName":"Phosphorus, P","nutrientNumber":"305","unitName":"MG","value":35,"rank":5600,"indentLevel":1,"foodNutrientId":34370237},{"nutrientId":1092,"nutrientName":"Potassium, K","nutrientNumber":"306","unitName":"MG","value":102,"rank":5700,"indentLevel":1,"foodNutrientId":34370238},{"nutrientId":1093,"nutrientName":"Sodium, Na","nutrientNumber":"307","unitName":"MG","value":177,"rank":5800,"indentLevel":1,"foodNutrientId":34370239},{"nutrientId":1095,"nutrientName":"Zinc, Zn","nutrientNumber":"309","unitName":"MG","value":0.32,"rank":5900,"indentLevel":1,"foodNutrientId":34370240},{"nutrientId":1098,"nutrientName":"Copper, Cu","nutrientNumber":"312","unitName":"MG","value":0.069,"rank":6000,"indentLevel":1,"foodNutrientId":34370241},{"nutrientId":1103,"nutrientName":"Selenium, Se","nutrientNumber":"317","unitName":"UG","value":2.9,"rank":6200,"indentLevel":1,"foodNutrientId":34370242},{"nutrientId":1105,"nutrientName":"Retinol","nutrientNumber":"319","unitName":"UG","value":27,"rank":7430,"indentLevel":2,"foodNutrientId":34370243},{"nutrientId":1106,"nutrientName":"Vitamin A, RAE","nutrientNumber":"320","unitName":"UG","value":64,"rank":7420,"indentLevel":1,"foodNutrientId":34370244},{"nutrientId":1107,"nutrientName":"Carotene, beta","nutrientNumber":"321","unitName":"UG","value":371,"rank":7440,"indentLevel":2,"foodNutrientId":34370245},{"nutrientId":1108,"nutrientName":"Carotene, alpha","nutrientNumber":"322","unitName":"UG","value":138,"rank":7450,"indentLevel":2,"foodNutrientId":34370246},{"nutrientId":1109,"nutrientName":"Vitamin E (alpha-tocopherol)","nutrientNumber":"323","unitName":"MG","value":0.12,"rank":7905,"indentLevel":1,"foodNutrientId":34370247},{"nutrientId":1114,"nutrientName":"Vitamin D (D2 + D3)","nutrientNumber":"328","unitName":"UG","value":0,"rank":8700,"indentLevel":1,"foodNutrientId":34370248},{"nutrientId":1120,"nutrientName":"Cryptoxanthin, beta","nutrientNumber":"334","unitName":"UG","value":1,"rank":7460,"indentLevel":2,"foodNutrientId":34370249},{"nutrientId":1122,"nutrientName":"Lycopene","nutrientNumber":"337","unitName":"UG","value":195,"rank":7530,"indentLevel":1,"foodNutrientId":34370250},{"nutrientId":1123,"nutrientName":"Lutein + zeaxanthin","nutrientNumber":"338","unitName":"UG","value":131,"rank":7560,"indentLevel":1,"foodNutrientId":34370251},{"nutrientId":1162,"nutrientName":"Vitamin C, total ascorbic acid","nutrientNumber":"401","unitName":"MG","value":4.1,"rank":6300,"indentLevel":1,"foodNutrientId":34370252},{"nutrientId":1165,"nutrientName":"Thiamin","nutrientNumber":"404","unitName":"MG","value":0.103,"rank":6400,"indentLevel":1,"foodNutrientId":34370253},{"nutrientId":1166,"nutrientName":"Riboflavin","nutrientNumber":"405","unitName":"MG","value":0.024,"rank":6500,"indentLevel":1,"foodNutrientId":34370254},{"nutrientId":1167,"nutrientName":"Niacin","nutrientNumber":"406","unitName":"MG","value":0.981,"rank":6600,"indentLevel":1,"foodNutrientId":34370255},{"nutrientId":1175,"nutrientName":"Vitamin B-6","nutrientNumber":"415","unitName":"MG","value":0.071,"rank":6800,"indentLevel":1,"foodNutrientId":34370256},{"nutrientId":1177,"nutrientName":"Folate, total","nutrientNumber":"417","unitName":"UG","value":32,"rank":6900,"indentLevel":1,"foodNutrientId":34370257},{"nutrientId":1178,"nutrientName":"Vitamin B-12","nutrientNumber":"418","unitName":"UG","value":0,"rank":7300,"indentLevel":1,"foodNutrientId":34370258},{"nutrientId":1180,"nutrientName":"Choline, total","nutrientNumber":"421","unitName":"MG","value":5.2,"rank":7220,"indentLevel":1,"foodNutrientId":34370259},{"nutrientId":1185,"nutrientName":"Vitamin K (phylloquinone)","nutrientNumber":"430","unitName":"UG","value":2.9,"rank":8800,"indentLevel":1,"foodNutrientId":34370260},{"nutrientId":1186,"nutrientName":"Folic acid","nutrientNumber":"431","unitName":"UG","value":24,"rank":7000,"indentLevel":0,"foodNutrientId":34370261},{"nutrientId":1187,"nutrientName":"Folate, food","nutrientNumber":"432","unitName":"UG","value":8,"rank":7100,"indentLevel":1,"foodNutrientId":34370262},{"nutrientId":1190,"nutrientName":"Folate, DFE","nutrientNumber":"435","unitName":"UG","value":49,"rank":7200,"indentLevel":1,"foodNutrientId":34370263},{"nutrientId":1242,"nutrientName":"Vitamin E, added","nutrientNumber":"573","unitName":"MG","value":0,"rank":7920,"indentLevel":0,"foodNutrientId":34370264},{"nutrientId":1246,"nutrientName":"Vitamin B-12, added","nutrientNumber":"578","unitName":"UG","value":0,"rank":7340,"indentLevel":0,"foodNutrientId":34370265},{"nutrientId":1253,"nutrientName":"Cholesterol","nutrientNumber":"601","unitName":"MG","value":9,"rank":15700,"indentLevel":1,"foodNutrientId":34370266},{"nutrientId":1258,"nutrientName":"Fatty acids, total saturated","nutrientNumber":"606","unitName":"G","value":1.705,"rank":9700,"indentLevel":1,"foodNutrientId":34370267},{"nutrientId":1259,"nutrientName":"SFA 4:0","nutrientNumber":"607","unitName":"G","value":0.074,"rank":9800,"indentLevel":2,"foodNutrientId":34370268},{"nutrientId":1260,"nutrientName":"SFA 6:0","nutrientNumber":"608","unitName":"G","value":0.052,"rank":9900,"indentLevel":2,"foodNutrientId":34370269},{"nutrientId":1261,"nutrientName":"SFA 8:0","nutrientNumber":"609","unitName":"G","value":0.03,"rank":10000,"indentLevel":2,"foodNutrientId":34370270},{"nutrientId":1262,"nutrientName":"SFA 10:0","nutrientNumber":"610","unitName":"G","value":0.071,"rank":10100,"indentLevel":2,"foodNutrientId":34370271},{"nutrientId":1263,"nutrientName":"SFA 12:0","nutrientNumber":"611","unitName":"G","value":0.08,"rank":10300,"indentLevel":2,"foodNutrientId":34370272},{"nutrientId":1264,"nutrientName":"SFA 14:0","nutrientNumber":"612","unitName":"G","value":0.261,"rank":10500,"indentLevel":2,"foodNutrientId":34370273},{"nutrientId":1265,"nutrientName":"SFA 16:0","nutrientNumber":"613","unitName":"G","value":0.81,"rank":10700,"indentLevel":2,"foodNutrientId":34370274},{"nutrientId":1266,"nutrientName":"SFA 18:0","nutrientNumber":"614","unitName":"G","value":0.274,"rank":10900,"indentLevel":2,"foodNutrientId":34370275},{"nutrientId":1268,"nutrientName":"MUFA 18:1","nutrientNumber":"617","unitName":"G","value":0.605,"rank":12100,"indentLevel":2,"foodNutrientId":34370276},{"nutrientId":1269,"nutrientName":"PUFA 18:2","nutrientNumber":"618","unitName":"G","value":0.134,"rank":13100,"indentLevel":2,"foodNutrientId":34370277},{"nutrientId":1270,"nutrientName":"PUFA 18:3","nutrientNumber":"619","unitName":"G","value":0.021,"rank":13900,"indentLevel":2,"foodNutrientId":34370278},{"nutrientId":1271,"nutrientName":"PUFA 20:4","nutrientNumber":"620","unitName":"G","value":0.004,"rank":14700,"indentLevel":2,"foodNutrientId":34370279},{"nutrientId":1272,"nutrientName":"PUFA 22:6 n-3 (DHA)","nutrientNumber":"621","unitName":"G","value":0,"rank":15300,"indentLevel":2,"foodNutrientId":34370280},{"nutrientId":1275,"nutrientName":"MUFA 16:1","nutrientNumber":"626","unitName":"G","value":0.037,"rank":11700,"indentLevel":2,"foodNutrientId":34370281},{"nutrientId":1276,"nutrientName":"PUFA 18:4","nutrientNumber":"627","unitName":"G","value":0.001,"rank":14250,"indentLevel":2,"foodNutrientId":34370282},{"nutrientId":1277,"nutrientName":"MUFA 20:1","nutrientNumber":"628","unitName":"G","value":0.005,"rank":12400,"indentLevel":2,"foodNutrientId":34370283},{"nutrientId":1278,"nutrientName":"PUFA 20:5 n-3 (EPA)","nutrientNumber":"629","unitName":"G","value":0.001,"rank":15000,"indentLevel":2,"foodNutrientId":34370284},{"nutrientId":1279,"nutrientName":"MUFA 22:1","nutrientNumber":"630","unitName":"G","value":0,"rank":12500,"indentLevel":2,"foodNutrientId":34370285},{"nutrientId":1280,"nutrientName":"PUFA 22:5 n-3 (DPA)","nutrientNumber":"631","unitName":"G","value":0.001,"rank":15200,"indentLevel":2,"foodNutrientId":34370286},{"nutrientId":1292,"nutrientName":"Fatty acids, total monounsaturated","nutrientNumber":"645","unitName":"G","value":0.676,"rank":11400,"indentLevel":1,"foodNutrientId":34370287},{"nutrientId":1293,"nutrientName":"Fatty acids, total polyunsaturated","nutrientNumber":"646","unitName":"G","value":0.152,"rank":12900,"indentLevel":1,"foodNutrientId":34370288}],"finalFoodInputFoods":[{"foodDescription":"Butter, stick, salted","gramWeight":56,"id":137745,"portionCode":"10205","portionDescription":"1 cup","unit":"TB","rank":2,"retentionCode":0,"srCode":1001,"value":4.0},{"foodDescription":"Spices, cumin seed","gramWeight":2,"id":137749,"portionCode":"21000","portionDescription":"1 tablespoon","unit":"TS","rank":6,"retentionCode":0,"srCode":2014,"value":1.0},{"foodDescription":"Potatoes, flesh and skin, raw","gramWeight":75,"id":137752,"portionCode":"62957","portionDescription":"1/2 cup diced","unit":"","rank":9,"retentionCode":3456,"srCode":11352,"value":1.0},{"foodDescription":"Carrots, mature, raw","gramWeight":64,"id":137751,"portionCode":"0","portionDescription":"NONE","unit":"GM","rank":8,"retentionCode":3456,"srCode":11124,"value":64.0},{"foodDescription":"Spices, turmeric, ground","gramWeight":2.267,"id":137750,"portionCode":"21000","portionDescription":"1 tablespoon","unit":"TS","rank":7,"retentionCode":0,"srCode":2043,"value":1.0},{"foodDescription":"Peas, green, raw","gramWeight":72.5,"id":137753,"portionCode":"10205","portionDescription":"1 cup","unit":"C","rank":10,"retentionCode":3776,"srCode":11304,"value":0.5},{"foodDescription":"Tomatoes, red, ripe, raw, year round average","gramWeight":123,"id":137754,"portionCode":"0","portionDescription":"NONE","unit":"GM","rank":11,"retentionCode":3751,"srCode":11529,"value":123},{"foodDescription":"Spices, cinnamon, ground","gramWeight":3.9,"id":137748,"portionCode":"21000","portionDescription":"1 tablespoon","unit":"TS","rank":5,"retentionCode":0,"srCode":2010,"value":1.5},{"foodDescription":"Beverages, water, tap, drinking","gramWeight":711,"id":137746,"portionCode":"10205","portionDescription":"1 cup","unit":"C","rank":3,"retentionCode":0,"srCode":14411,"value":3.0},{"foodDescription":"Onions, raw","gramWeight":150,"id":137747,"portionCode":"0","portionDescription":"NONE","unit":"GM","rank":4,"retentionCode":3460,"srCode":11282,"value":150},{"foodDescription":"Salt, table","gramWeight":6,"id":137755,"portionCode":"10205","portionDescription":"1 cup","unit":"TS","rank":12,"retentionCode":0,"srCode":2047,"value":1.0},{"foodDescription":"Rice, white, long-grain, regular, raw, enriched","gramWeight":277.5,"id":137744,"portionCode":"10205","portionDescription":"1 cup","unit":"C","rank":1,"retentionCode":431,"srCode":20044,"value":1.5}],"foodMeasures":[{"disseminationText":"Quantity not specified","gramWeight":215,"id":305450,"modifier":"90000","rank":2,"measureUnitAbbreviation":"undetermined","measureUnitName":"undetermined","measureUnitId":9999},{"disseminationText":"1 cup","gramWeight":172,"id":305449,"modifier":"10205","rank":1,"measureUnitAbbreviation":"undetermined","measureUnitName":"undetermined","measureUnitId":9999}],"foodAttributes":[{"value":"Moisture change: 0%","id":3322425},{"value":"Rice mixed dishes","name":"WWEIA Category description","id":3305518},{"value":"vegetarian biryani","id":3315598,"sequenceNumber":3},{"value":"Indian rice with vegetables","id":3315597,"sequenceNumber":2},{"value":"3202","name":"WWEIA Category number","id":3305517},{"value":"plain biryani","id":3315596,"sequenceNumber":1}],"foodAttributeTypes":[{"name":"Additional Description","description":"Additional descriptions for the food.","id":1001,"foodAttributes":[{"value":"vegetarian biryani","id":3315598,"sequenceNumber":3},{"value":"Indian rice with vegetables","id":3315597,"sequenceNumber":2},{"value":"plain biryani","id":3315596,"sequenceNumber":1}]},{"name":"Adjustments","description":"Adjustments made to foods, including moisture changes","id":1002,"foodAttributes":[{"value":"Moisture change: 0%","id":3322425}]},{"name":"Attribute","description":"Generic attributes","id":999,"foodAttributes":[{"value":"Rice mixed dishes","name":"WWEIA Category description","id":3305518},{"value":"3202","name":"WWEIA Category number","id":3305517}]}],"foodVersionIds":[]}],"aggregations":{"dataType":{"Branded":419,"Survey (FNDDS)":3},"nutrients":{}}}
