{"totalHits":24845,"currentPage":1,"totalPages":24845,"pageList":[1,2,3,4,5,6,7,8,9,10],"foodSearchCriteria":{"query":"Curd (yogurt)","generalSearchInput":"Curd (yogurt)","pageNumber":1,"numberOfResultsPerPage":50,"pageSize":1,"requireAllWords":false},"foods":[{"fdcId":2707435,"description":"Soybean curd","commonNames":"","additionalDescriptions":"bean curd;stir fried;tofu","dataType":"Survey (FNDDS)","foodCode":41420010,"publishedDate":"2024-10-31","foodCategory":"Soy and meat-alternative products","foodCategoryId":3302418,"allHighlightFields":"<b>Includes</b>: bean <em>curd</em>;stir fried;tofu","score":463.90103,"microbes":[],"foodNutrients":[{"nutrientId":1003,"nutrientName":"Protein","nutrientNumber":"203","unitName":"G","value":7.17,"rank":600,"indentLevel":1,"foodNutrientId":34269474},{"nutrientId":1004,"nutrientName":"Total lipid (fat)","nutrientNumber":"204","unitName":"G","value":3.69,"rank":800,"indentLevel":1,"foodNutrientId":34269475},{"nutrientId":1005,"nutrientName":"Carbohydrate, by difference","nutrientNumber":"205","unitName":"G","value":1.18,"rank":1110,"indentLevel":2,"foodNutrientId":34269476},{"nutrientId":1008,"nutrientName":"Energy","nutrientNumber":"208","unitName":"KCAL","value":61,"rank":300,"indentLevel":1,"foodNutrientId":34269477},{"nutrientId":1018,"nutrientName":"Alcohol, ethyl","nutrientNumber":"221","unitName":"G","value":0,"rank":18200,"indentLevel":1,"foodNutrientId":34269478},{"nutrientId":1051,"nutrientName":"Water","nutrientNumber":"255","unitName":"G","value":87.26,"rank":100,"indentLevel":1,"foodNutrientId":34269479},{"nutrientId":1057,"nutrientName":"Caffeine","nutrientNumber":"262","unitName":"MG","value":0,"rank":18300,"indentLevel":0,"foodNutrientId":34269480},{"nutrientId":1058,"nutrientName":"Theobromine","nutrientNumber":"263","unitName":"MG","value":0,"rank":18400,"indentLevel":0,"foodNutrientId":34269481},{"nutrientId":2000,"nutrientName":"Total Sugars","nutrientNumber":"269","unitName":"G","value":0.7,"rank":1510,"indentLevel":3,"foodNutrientId":34269482},{"nutrientId":1079,"nutrientName":"Fiber, total dietary","nutrientNumber":"291","unitName":"G","value":0.2,"rank":1200,"indentLevel":3,"foodNutrientId":34269483},{"nutrientId":1087,"nutrientName":"Calcium, Ca","nutrientNumber":"301","unitName":"MG","value":111,"rank":5300,"indentLevel":1,"foodNutrientId":34269484},{"nutrientId":1089,"nutrientName":"Iron, Fe","nutrientNumber":"303","unitName":"MG","value":1.11,"rank":5400,"indentLevel":1,"foodNutrientId":34269485},{"nutrientId":1090,"nutrientName":"Magnesium, Mg","nutrientNumber":"304","unitName":"MG","value":27,"rank":5500,"indentLevel":1,"foodNutrientId":34269486},{"nutrientId":1091,"nutrientName":"Phosphorus, P","nutrientNumber":"305","unitName":"MG","value":92,"rank":5600,"indentLevel":1,"foodNutrientId":34269487},{"nutrientId":1092,"nutrientName":"Potassium, K","nutrientNumber":"306","unitName":"MG","value":120,"rank":5700,"indentLevel":1,"foodNutrientId":34269488},{"nutrientId":1093,"nutrientName":"Sodium, Na","nutrientNumber":"307","unitName":"MG","value":8,"rank":5800,"indentLevel":1,"foodNutrientId":34269489},{"nutrientId":1095,"nutrientName":"Zinc, Zn","nutrientNumber":"309","unitName":"MG","value":0.64,"rank":5900,"indentLevel":1,"foodNutrientId":34269490},{"nutrientId":1098,"nutrientName":"Copper, Cu","nutrientNumber":"312","unitName":"MG","value":0.157,"rank":6000,"indentLevel":1,"foodNutrientId":34269491},{"nutrientId":1103,"nutrientName":"Selenium, Se","nutrientNumber":"317","unitName":"UG","value":8.9,"rank":6200,"indentLevel":1,"foodNutrientId":34269492},{"nutrientId":1105,"nutrientName":"Retinol","nutrientNumber":"319","unitName":"UG","value":0,"rank":7430,"indentLevel":2,"foodNutrientId":34269493},{"nutrientId":1106,"nutrientName":"Vitamin A, RAE","nutrientNumber":"320","unitName":"UG","value":0,"rank":7420,"indentLevel":1,"foodNutrientId":34269494},{"nutrientId":1107,"nutrientName":"Carotene, beta","nutrientNumber":"321","unitName":"UG","value":4,"rank":7440,"indentLevel":2,"foodNutrientId":34269495},{"nutrientId":1108,"nutrientName":"Carotene, alpha","nutrientNumber":"322","unitName":"UG","value":0,"rank":7450,"indentLevel":2,"foodNutrientId":34269496},{"nutrientId":1109,"nutrientName":"Vitamin E (alpha-tocopherol)","nutrientNumber":"323","unitName":"MG","value":0.01,"rank":7905,"indentLevel":1,"foodNutrientId":34269497},{"nutrientId":1114,"nutrientName":"Vitamin D (D2 + D3)","nutrientNumber":"328","unitName":"UG","value":0,"rank":8700,"indentLevel":1,"foodNutrientId":34269498},{"nutrientId":1120,"nutrientName":"Cryptoxanthin, beta","nutrientNumber":"334","unitName":"UG","value":0,"rank":7460,"indentLevel":2,"foodNutrientId":34269499},{"nutrientId":1122,"nutrientName":"Lycopene","nutrientNumber":"337","unitName":"UG","value":0,"rank":7530,"indentLevel":1,"foodNutrientId":34269500},{"nutrientId":1123,"nutrientName":"Lutein + zeaxanthin","nutrientNumber":"338","unitName":"UG","value":0,"rank":7560,"indentLevel":1,"foodNutrientId":34269501},{"nutrientId":1162,"nutrientName":"Vitamin C, total ascorbic acid","nutrientNumber":"401","unitName":"MG","value":0.2,"rank":6300,"indentLevel":1,"foodNutrientId":34269502},{"nutrientId":1165,"nutrientName":"Thiamin","nutrientNumber":"404","unitName":"MG","value":0.047,"rank":6400,"indentLevel":1,"foodNutrientId":34269503},{"nutrientId":1166,"nutrientName":"Riboflavin","nutrientNumber":"405","unitName":"MG","value":0.037,"rank":6500,"indentLevel":1,"foodNutrientId":34269504},{"nutrientId":1167,"nutrientName":"Niacin","nutrientNumber":"406","unitName":"MG","value":0.535,"rank":6600,"indentLevel":1,"foodNutrientId":34269505},{"nutrientId":1175,"nutrientName":"Vitamin B-6","nutrientNumber":"415","unitName":"MG","value":0.052,"rank":6800,"indentLevel":1,"foodNutrientId":34269506},{"nutrientId":1177,"nutrientName":"Folate, total","nutrientNumber":"417","unitName":"UG","value":44,"rank":6900,"indentLevel":1,"foodNutrientId":34269507},{"nutrientId":1178,"nutrientName":"Vitamin B-12","nutrientNumber":"418","unitName":"UG","value":0,"rank":7300,"indentLevel":1,"foodNutrientId":34269508},{"nutrientId":1180,"nutrientName":"Choline, total","nutrientNumber":"421","unitName":"MG","value":27.4,"rank":7220,"indentLevel":1,"foodNutrientId":34269509},{"nutrientId":1185,"nutrientName":"Vitamin K (phylloquinone)","nutrientNumber":"430","unitName":"UG","value":2,"rank":8800,"indentLevel":1,"foodNutrientId":34269510},{"nutrientId":1186,"nutrientName":"Folic acid","nutrientNumber":"431","unitName":"UG","value":0,"rank":7000,"indentLevel":0,"foodNutrientId":34269511},{"nutrientId":1187,"nutrientName":"Folate, food","nutrientNumber":"432","unitName":"UG","value":44,"rank":7100,"indentLevel":1,"foodNutrientId":34269512},{"nutrientId":1190,"nutrientName":"Folate, DFE","nutrientNumber":"435","unitName":"UG","value":44,"rank":7200,"indentLevel":1,"foodNutrientId":34269513},{"nutrientId":1242,"nutrientName":"Vitamin E, added","nutrientNumber":"573","unitName":"MG","value":0,"rank":7920,"indentLevel":0,"foodNutrientId":34269514},{"nutrientId":1246,"nutrientName":"Vitamin B-12, added","nutrientNumber":"578","unitName":"UG","value":0,"rank":7340,"indentLevel":0,"foodNutrientId":34269515},{"nutrientId":1253,"nutrientName":"Cholesterol","nutrientNumber":"601","unitName":"MG","value":0,"rank":15700,"indentLevel":1,"foodNutrientId":34269516},{"nutrientId":1258,"nutrientName":"Fatty acids, total saturated","nutrientNumber":"606","unitName":"G","value":0.533,"rank":9700,"indentLevel":1,"foodNutrientId":34269517},{"nutrientId":1259,"nutrientName":"SFA 4:0","nutrientNumber":"607","unitName":"G","value":0,"rank":9800,"indentLevel":2,"foodNutrientId":34269518},{"nutrientId":1260,"nutrientName":"SFA 6:0","nutrientNumber":"608","unitName":"G","value":0,"rank":9900,"indentLevel":2,"foodNutrientId":34269519},{"nutrientId":1261,"nutrientName":"SFA 8:0","nutrientNumber":"609","unitName":"G","value":0,"rank":10000,"indentLevel":2,"foodNutrientId":34269520},{"nutrientId":1262,"nutrientName":"SFA 10:0","nutrientNumber":"610","unitName":"G","value":0,"rank":10100,"indentLevel":2,"foodNutrientId":34269521},{"nutrientId":1263,"nutrientName":"SFA 12:0","nutrientNumber":"611","unitName":"G","value":0,"rank":10300,"indentLevel":2,"foodNutrientId":34269522},{"nutrientId":1264,"nutrientName":"SFA 14:0","nutrientNumber":"612","unitName":"G","value":0.01,"rank":10500,"indentLevel":2,"foodNutrientId":34269523},{"nutrientId":1265,"nutrientName":"SFA 16:0","nutrientNumber":"613","unitName":"G","value":0.391,"rank":10700,"indentLevel":2,"foodNutrientId":34269524},{"nutrientId":1266,"nutrientName":"SFA 18:0","nutrientNumber":"614","unitName":"G","value":0.132,"rank":10900,"indentLevel":2,"foodNutrientId":34269525},{"nutrientId":1268,"nutrientName":"MUFA 18:1","nutrientNumber":"617","unitName":"G","value":0.804,"rank":12100,"indentLevel":2,"foodNutrientId":34269526},{"nutrientId":1269,"nutrientName":"PUFA 18:2","nutrientNumber":"618","unitName":"G","value":1.835,"rank":13100,"indentLevel":2,"foodNutrientId":34269527},{"nutrientId":1270,"nutrientName":"PUFA 18:3","nutrientNumber":"619","unitName":"G","value":0.246,"rank":13900,"indentLevel":2,"foodNutrientId":34269528},{"nutrientId":1271,"nutrientName":"PUFA 20:4","nutrientNumber":"620","unitName":"G","value":0,"rank":14700,"indentLevel":2,"foodNutrientId":34269529},{"nutrientId":1272,"nutrientName":"PUFA 22:6 n-3 (DHA)","nutrientNumber":"621","unitName":"G","value":0,"rank":15300,"indentLevel":2,"foodNutrientId":34269530},{"nutrientId":1275,"nutrientName":"MUFA 16:1","nutrientNumber":"626","unitName":"G","value":0.01,"rank":11700,"indentLevel":2,"foodNutrientId":34269531},{"nutrientId":1276,"nutrientName":"PUFA 18:4","nutrientNumber":"627","unitName":"G","value":0,"rank":14250,"indentLevel":2,"foodNutrientId":34269532},{"nutrientId":1277,"nutrientName":"MUFA 20:1","nutrientNumber":"628","unitName":"G","value":0,"rank":12400,"indentLevel":2,"foodNutrientId":34269533},{"nutrientId":1278,"nutrientName":"PUFA 20:5 n-3 (EPA)","nutrientNumber":"629","unitName":"G","value":0,"rank":15000,"indentLevel":2,"foodNutrientId":34269534},{"nutrientId":1279,"nutrientName":"MUFA 22:1","nutrientNumber":"630","unitName":"G","value":0,"rank":12500,"indentLevel":2,"foodNutrientId":34269535},{"nutrientId":1280,"nutrientName":"PUFA 22:5 n-3 (DPA)","nutrientNumber":"631","unitName":"G","value":0,"rank":15200,"indentLevel":2,"foodNutrientId":34269536},{"nutrientId":1292,"nutrientName":"Fatty acids, total monounsaturated","nutrientNumber":"645","unitName":"G","value":0.814,"rank":11400,"indentLevel":1,"foodNutrientId":34269537},{"nutrientId":1293,"nutrientName":"Fatty acids, total polyunsaturated","nutrientNumber":"646","unitName":"G","value":2.081,"rank":12900,"indentLevel":1,"foodNutrientId":34269538}],"finalFoodInputFoods":[{"foodDescription":"Tofu, soft, prepared with calcium sulfate and magnesium chloride (nigari)","gramWeight":100,"id":132152,"portionCode":"0","portionDescription":"NONE","unit":"GM","rank":1,"retentionCode":0,"srCode":16127,"value":100}],"foodMeasures":[{"disseminationText":"1 cubic inch","gramWeight":17.6,"id":298118,"modifier":"51000","rank":3,"measureUnitAbbreviation":"undetermined","measureUnitName":"undetermined","measureUnitId":9999},{"disseminationText":"1 piece (2-1/2\" x 2-3/4\" x 1\")","gramWeight":120,"id":298117,"modifier":"61718","rank":2,"measureUnitAbbreviation":"undetermined","measureUnitName":"undetermined","measureUnitId":9999},{"disseminationText":"1 cup (1/2\" cubes)","gramWeight":248,"id":298116,"modifier":"10207","rank":1,"measureUnitAbbreviation":"undetermined","measureUnitName":"undetermined","measureUnitId":9999},{"disseminationText":"Quantity not specified","gramWeight":62,"id":298119,"modifier":"90000","rank":4,"measureUnitAbbreviation":"undetermined","measureUnitName":"undetermined","measureUnitId":9999}],"foodAttributes":[{"value":"stir fried","id":3312378,"sequenceNumber":1},{"value":"tofu","id":3312380,"sequenceNumber":4},{"value":"bean curd","id":3312379,"sequenceNumber":3},{"value":"Soy and meat-alternative products","name":"WWEIA Category description","id":3302418},{"value":"2806","name":"WWEIA Category number","id":3302417},{"value":"Moisture change: 0%","id":3320875}],"foodAttributeTypes":[{"name":"Additional Description","description":"Additional descriptions for the food.","id":1001,"foodAttributes":[{"value":"stir fried","id":3312378,"sequenceNumber":1},{"value":"tofu","id":3312380,"sequenceNumber":4},{"value":"bean curd","id":3312379,"sequenceNumber":3}]},{"name":"Adjustments","description":"Adjustments made to foods, including moisture changes","id":1002,"foodAttributes":[{"value":"Moisture change: 0%","id":3320875}]},{"name":"Attribute","description":"Generic attributes","id":999,"foodAttributes":[{"value":"Soy and meat-alternative products","name":"WWEIA Category description","id":3302418},{"value":"2806","name":"WWEIA Category number","id":3302417}]}],"foodVersionIds":[]}],"aggregations":{"dataType":{"Branded":24668,"SR Legacy":89,"Survey (FNDDS)":82,"Foundation":6},"nutrients":{}}}
