{"totalHits":85786,"currentPage":1,"totalPages":85786,"pageList":[1,2,3,4,5,6,7,8,9,10],"foodSearchCriteria":{"query":"Butter Chicken","generalSearchInput":"Butter Chicken","pageNumber":1,"numberOfResultsPerPage":50,"pageSize":1,"requireAllWords":false},"foods":[{"fdcId":171314,"description":"Butter, Clarified butter (ghee)","commonNames":"","additionalDescriptions":"","dataType":"SR Legacy","ndbNumber":1323,"publishedDate":"2019-04-01","foodCategory":"Dairy and Egg Products","allHighlightFields":"","score":271.53625,"microbes":[],"foodNutrients":[{"nutrientId":1003,"nutrientName":"Protein","nutrientNumber":"203","unitName":"G","derivationCode":"LC","derivationDescription":"Label claim (back calculated from label by NDL staff; Calculated from label claim/serving (g or %RDI)","derivationId":44,"value":0.0,"foodNutrientSourceId":6,"foodNutrientSourceCode":"8","foodNutrientSourceDescription":"Calculated from nutrient label by NDL","rank":600,"indentLevel":1,"foodNutrientId":1599983,"dataPoints":0},{"nutrientId":1007,"nutrientName":"Ash","nutrientNumber":"207","unitName":"G","derivationCode":"Z","derivationDescription":"Assumed zero (Insignificant amount or not naturally occurring in a food, such as fiber in meat)","derivationId":68,"value":0.0,"foodNutrientSourceId":5,"foodNutrientSourceCode":"7","foodNutrientSourceDescription":"Assumed zero","rank":1000,"indentLevel":1,"foodNutrientId":1599984,"dataPoints":0},{"nutrientId":1062,"nutrientName":"Energy","nutrientNumber":"268","unitName":"kJ","derivationCode":"LC","derivationDescription":"Label claim (back calculated from label by NDL staff; Calculated from label claim/serving (g or %RDI)","derivationId":44,"value":3770.0,"foodNutrientSourceId":6,"foodNutrientSourceCode":"8","foodNutrientSourceDescription":"Calculated from nutrient label by NDL","rank":400,"indentLevel":1,"foodNutrientId":1599985,"dataPoints":0},{"nutrientId":1079,"nutrientName":"Fiber, total dietary","nutrientNumber":"291","unitName":"G","derivationCode":"LC","derivationDescription":"Label claim (back calculated from label by NDL staff; Calculated from label claim/serving (g or %RDI)","derivationId":44,"value":0.0,"foodNutrientSourceId":6,"foodNutrientSourceCode":"8","foodNutrientSourceDescription":"Calculated from nutrient label by NDL","rank":1200,"indentLevel":3,"foodNutrientId":1599986,"dataPoints":0},{"nutrientId":1089,"nutrientName":"Iron, Fe","nutrientNumber":"303","unitName":"MG","derivationCode":"LC","derivationDescription":"Label claim (back calculated from label by NDL staff; Calculated from label claim/serving (g or %RDI)","derivationId":44,"value":0.0,"foodNutrientSourceId":6,"foodNutrientSourceCode":"8","foodNutrientSourceDescription":"Calculated from nutrient label by NDL","rank":5400,"indentLevel":1,"foodNutrientId":1599987,"dataPoints":0},{"nutrientId":1093,"nutrientName":"Sodium, Na","nutrientNumber":"307","unitName":"MG","derivationCode":"LC","derivationDescription":"Label claim (back calculated from label by NDL staff; Calculated from label claim/serving (g or %RDI)","derivationId":44,"value":0.0,"foodNutrientSourceId":6,"foodNutrientSourceCode":"8","foodNutrientSourceDescription":"Calculated from nutrient label by NDL","rank":5800,"indentLevel":1,"foodNutrientId":1599988,"dataPoints":0},{"nutrientId":1104,"nutrientName":"Vitamin A, IU","nutrientNumber":"318","unitName":"IU","derivationCode":"LC","derivationDescription":"Label claim (back calculated from label by NDL staff; Calculated from label claim/serving (g or %RDI)","derivationId":44,"value":4000.0,"foodNutrientSourceId":6,"foodNutrientSourceCode":"8","foodNutrientSourceDescription":"Calculated from nutrient label by NDL","rank":7500,"indentLevel":1,"foodNutrientId":1599989,"dataPoints":0},{"nutrientId":1162,"nutrientName":"Vitamin C, total ascorbic acid","nutrientNumber":"401","unitName":"MG","derivationCode":"LC","derivationDescription":"Label claim (back calculated from label by NDL staff; Calculated from label claim/serving (g or %RDI)","derivationId":44,"value":0.0,"foodNutrientSourceId":6,"foodNutrientSourceCode":"8","foodNutrientSourceDescription":"Calculated from nutrient label by NDL","rank":6300,"indentLevel":1,"foodNutrientId":1599990,"dataPoints":0},{"nutrientId":1253,"nutrientName":"Cholesterol","nutrientNumber":"601","unitName":"MG","derivationCode":"LC","derivationDescription":"Label claim (back calculated from label by NDL staff; Calculated from label claim/serving (g or %RDI)","derivationId":44,"value":300,"foodNutrientSourceId":6,"foodNutrientSourceCode":"8","foodNutrientSourceDescription":"Calculated from nutrient label by NDL","rank":15700,"indentLevel":1,"foodNutrientId":1599991,"dataPoints":0},{"nutrientId":1257,"nutrientName":"Fatty acids, total trans","nutrientNumber":"605","unitName":"G","derivationCode":"LC","derivationDescription":"Label claim (back calculated from label by NDL staff; Calculated from label claim/serving (g or %RDI)","derivationId":44,"value":0.0,"foodNutrientSourceId":6,"foodNutrientSourceCode":"8","foodNutrientSourceDescription":"Calculated from nutrient label by NDL","rank":15400,"indentLevel":1,"foodNutrientId":1599992,"dataPoints":0},{"nutrientId":1258,"nutrientName":"Fatty acids, total saturated","nutrientNumber":"606","unitName":"G","derivationCode":"LC","derivationDescription":"Label claim (back calculated from label by NDL staff; Calculated from label claim/serving (g or %RDI)","derivationId":44,"value":60.0,"foodNutrientSourceId":6,"foodNutrientSourceCode":"8","foodNutrientSourceDescription":"Calculated from nutrient label by NDL","rank":9700,"indentLevel":1,"foodNutrientId":1599993,"dataPoints":0},{"nutrientId":1004,"nutrientName":"Total lipid (fat)","nutrientNumber":"204","unitName":"G","derivationCode":"LC","derivationDescription":"Label claim (back calculated from label by NDL staff; Calculated from label claim/serving (g or %RDI)","derivationId":44,"value":100,"foodNutrientSourceId":6,"foodNutrientSourceCode":"8","foodNutrientSourceDescription":"Calculated from nutrient label by NDL","rank":800,"indentLevel":1,"foodNutrientId":1599994,"dataPoints":0},{"nutrientId":1005,"nutrientName":"Carbohydrate, by difference","nutrientNumber":"205","unitName":"G","derivationCode":"LC","derivationDescription":"Label claim (back calculated from label by NDL staff; Calculated from label claim/serving (g or %RDI)","derivationId":44,"value":0.0,"foodNutrientSourceId":6,"foodNutrientSourceCode":"8","foodNutrientSourceDescription":"Calculated from nutrient label by NDL","rank":1110,"indentLevel":2,"foodNutrientId":1599995,"dataPoints":0},{"nutrientId":1008,"nutrientName":"Energy","nutrientNumber":"208","unitName":"KCAL","derivationCode":"LC","derivationDescription":"Label claim (back calculated from label by NDL staff; Calculated from label claim/serving (g or %RDI)","derivationId":44,"value":900,"foodNutrientSourceId":6,"foodNutrientSourceCode":"8","foodNutrientSourceDescription":"Calculated from nutrient label by NDL","rank":300,"indentLevel":1,"foodNutrientId":1599996,"dataPoints":0},{"nutrientId":1051,"nutrientName":"Water","nutrientNumber":"255","unitName":"G","derivationCode":"T","derivationDescription":"Taken from another source--other tables of food composition","derivationId":67,"value":0.5,"foodNutrientSourceId":2,"foodNutrientSourceCode":"4","foodNutrientSourceDescription":"Calculated or imputed","rank":100,"indentLevel":1,"foodNutrientId":1599997,"dataPoints":0},{"nutrientId":2000,"nutrientName":"Total Sugars","nutrientNumber":"269","unitName":"G","derivationCode":"LC","derivationDescription":"Label claim (back calculated from label by NDL staff; Calculated from label claim/serving (g or %RDI)","derivationId":44,"value":0.0,"foodNutrientSourceId":6,"foodNutrientSourceCode":"8","foodNutrientSourceDescription":"Calculated from nutrient label by NDL","rank":1510,"indentLevel":3,"foodNutrientId":1599998,"dataPoints":0},{"nutrientId":1087,"nutrientName":"Calcium, Ca","nutrientNumber":"301","unitName":"MG","derivationCode":"LC","derivationDescription":"Label claim (back calculated from label by NDL staff; Calculated from label claim/serving (g or %RDI)","derivationId":44,"value":0.0,"foodNutrientSourceId":6,"foodNutrientSourceCode":"8","foodNutrientSourceDescription":"Calculated from nutrient label by NDL","rank":5300,"indentLevel":1,"foodNutrientId":1599999,"dataPoints":0},{"nutrientId":1293,"nutrientName":"Fatty acids, total polyunsaturated","nutrientNumber":"646","unitName":"G","derivationCode":"T","derivationDescription":"Taken from another source--other tables of food composition","derivationId":67,"value":4.0,"foodNutrientSourceId":2,"foodNutrientSourceCode":"4","foodNutrientSourceDescription":"Calculated or imputed","rank":12900,"indentLevel":1,"foodNutrientId":1600000,"dataPoints":0}],"finalFoodInputFoods":[],"foodMeasures":[],"foodAttributes":[],"foodAttributeTypes":[],"foodVersionIds":[]}],"aggregations":{"dataType":{"Branded":84621,"Survey (FNDDS)":655,"SR Legacy":496,"Foundation":14},"nutrients":{}}}
