{"totalHits":15419,"currentPage":1,"totalPages":15419,"pageList":[1,2,3,4,5,6,7,8,9,10],"foodSearchCriteria":{"query":"Pepperoni Pizza","generalSearchInput":"Pepperoni Pizza","pageNumber":1,"numberOfResultsPerPage":50,"pageSize":1,"requireAllWords":false},"foods":[{"fdcId":1791746,"description":"PEPPERONI PIZZA","dataType":"Branded","gtinUpc":"050706900029","publishedDate":"2021-06-17","brandOwner":"T J's Pizza Company","brandName":"TJ'S","ingredients":"CRUST BLEACHED ENRICHED WHEAT FLOUR (WHEAT FLOUR, NIACIN, IRON, THIAMIN MONONITRATE, RIBOFLAVIN, FOLIC ACID, ENZYME), WATER, PARTIALLY HYDROGENATED SOYBEAN/COTTONSEED OIL, YEAST, EMULSIFIER (WATER, ETHOXYLATED MONO-DIGLYCERIDES, POLYSORBATE 60, SOYA LECITHIN, SODIUM LECITHIN, SODIUM PROPIONATE), CALCIUM PROPIONATE, SALT, BAKING POWDER, SUGAR, DOUGH IMPROVER (SODIUM METABISULFITE, CORN STARCH, MICROCRYSTALLINE CELLULOSE, DICALCIUM PHOSPHATE), WHEY CHEESE AMERICAN CHEESE (CULTURED MILK, SALT, ENZYMES), SWISS CHEESE (CULTURED MILK, SALT, ENZYMES), PROVOLONE CHEESE (CULTURED MILK, SALT, ENZYMES, SMOKE FLAVOR), CREAM, WATER, SODIUM PHOSPHATE, NATURAL FLAVOR, SALT, SMOKE FLAVOR, SODIUM CELLULOSE (ANTI-CAKING AGENT), SAUCE: TOMATO PASTE, WATER, PARMESAN CHEESE (CULTURED PART SKIM COW'S MILK, SALT, ENZYMES, POWDERED CELLULOSE), SALT, GARLIC, SPICES, PEPPERONI: PORK, BEEF, SALT, SPICES, DEXTROSE, LACTIC ACID STARTER CULTURE, OLEORESIN OF PAPRIKA, NATURAL SMOKE FLAVOR, FLAVORING, SODIUM ERYTHORBATE, SODIUM NITRITE, BHA, BHT, CITRIC ACID.","marketCountry":"United States","foodCategory":"Pizza","modifiedDate":"2018-10-05","dataSource":"LI","packageWeight":"9 oz","servingSizeUnit":"g","servingSize":32.0,"householdServingFullText":"1 SLICE","tradeChannels":["NO_TRADE_CHANNEL"],"allHighlightFields":"<b>Brand Owner</b>: T J's <em>Pizza</em> Company<br /><b>Ingredients</b>: , SALT, ENZYMES, POWDERED CELLULOSE), SALT, GARLIC, SPICES, <em>PEPPERONI</em>: PORK, BEEF, SALT, SPICES, DEXTROSE","score":1210.4082,"microbes":[],"foodNutrients":[{"nutrientId":1003,"nutrientName":"Protein","nutrientNumber":"203","unitName":"G","derivationCode":"LCCS","derivationDescription":"Calculated from value per serving size measure","derivationId":70,"value":3.12,"foodNutrientSourceId":9,"foodNutrientSourceCode":"12","foodNutrientSourceDescription":"Manufacturer's analytical; partial documentation","rank":600,"indentLevel":1,"foodNutrientId":21994578},{"nutrientId":1004,"nutrientName":"Total lipid (fat)","nutrientNumber":"204","unitName":"G","derivationCode":"LCCS","derivationDescription":"Calculated from value per serving size measure","derivationId":70,"value":12.5,"foodNutrientSourceId":9,"foodNutrientSourceCode":"12","foodNutrientSourceDescription":"Manufacturer's analytical; partial documentation","rank":800,"indentLevel":1,"foodNutrientId":21994579,"percentDailyValue":6},{"nutrientId":1005,"nutrientName":"Carbohydrate, by difference","nutrientNumber":"205","unitName":"G","derivationCode":"LCCS","derivationDescription":"Calculated from value per serving size measure","derivationId":70,"value":18.8,"foodNutrientSourceId":9,"foodNutrientSourceCode":"12","foodNutrientSourceDescription":"Manufacturer's analytical; partial documentation","rank":1110,"indentLevel":2,"foodNutrientId":21994580,"percentDailyValue":2},{"nutrientId":1008,"nutrientName":"Energy","nutrientNumber":"208","unitName":"KCAL","derivationCode":"LCCS","derivationDescription":"Calculated from value per serving size measure","derivationId":70,"value":250,"foodNutrientSourceId":9,"foodNutrientSourceCode":"12","foodNutrientSourceDescription":"Manufacturer's analytical; partial documentation","rank":300,"indentLevel":1,"foodNutrientId":21994581},{"nutrientId":2000,"nutrientName":"Total Sugars","nutrientNumber":"269","unitName":"G","derivationCode":"LCCS","derivationDescription":"Calculated from value per serving size measure","derivationId":70,"value":0.0,"foodNutrientSourceId":9,"foodNutrientSourceCode":"12","foodNutrientSourceDescription":"Manufacturer's analytical; partial documentation","rank":1510,"indentLevel":3,"foodNutrientId":21994582},{"nutrientId":1079,"nutrientName":"Fiber, total dietary","nutrientNumber":"291","unitName":"G","derivationCode":"LCCD","derivationDescription":"Calculated from a daily value percentage per serving size measure","derivationId":75,"value":0.0,"foodNutrientSourceId":9,"foodNutrientSourceCode":"12","foodNutrientSourceDescription":"Manufacturer's analytical; partial documentation","rank":1200,"indentLevel":3,"foodNutrientId":21994583,"percentDailyValue":0},{"nutrientId":1087,"nutrientName":"Calcium, Ca","nutrientNumber":"301","unitName":"MG","derivationCode":"LCCD","derivationDescription":"Calculated from a daily value percentage per serving size measure","derivationId":75,"value":312,"foodNutrientSourceId":9,"foodNutrientSourceCode":"12","foodNutrientSourceDescription":"Manufacturer's analytical; partial documentation","rank":5300,"indentLevel":1,"foodNutrientId":21994584,"percentDailyValue":10},{"nutrientId":1089,"nutrientName":"Iron, Fe","nutrientNumber":"303","unitName":"MG","derivationCode":"LCCD","derivationDescription":"Calculated from a daily value percentage per serving size measure","derivationId":75,"value":1.12,"foodNutrientSourceId":9,"foodNutrientSourceCode":"12","foodNutrientSourceDescription":"Manufacturer's analytical; partial documentation","rank":5400,"indentLevel":1,"foodNutrientId":21994585,"percentDailyValue":2},{"nutrientId":1093,"nutrientName":"Sodium, Na","nutrientNumber":"307","unitName":"MG","derivationCode":"LCCS","derivationDescription":"Calculated from value per serving size measure","derivationId":70,"value":938,"foodNutrientSourceId":9,"foodNutrientSourceCode":"12","foodNutrientSourceDescription":"Manufacturer's analytical; partial documentation","rank":5800,"indentLevel":1,"foodNutrientId":21994586,"percentDailyValue":13},{"nutrientId":1104,"nutrientName":"Vitamin A, IU","nutrientNumber":"318","unitName":"IU","derivationCode":"LCCD","derivationDescription":"Calculated from a daily value percentage per serving size measure","derivationId":75,"value":312,"foodNutrientSourceId":9,"foodNutrientSourceCode":"12","foodNutrientSourceDescription":"Manufacturer's analytical; partial documentation","rank":7500,"indentLevel":1,"foodNutrientId":21994587,"percentDailyValue":2},{"nutrientId":1162,"nutrientName":"Vitamin C, total ascorbic acid","nutrientNumber":"401","unitName":"MG","derivationCode":"LCCD","derivationDescription":"Calculated from a daily value percentage per serving size measure","derivationId":75,"value":3.8,"foodNutrientSourceId":9,"foodNutrientSourceCode":"12","foodNutrientSourceDescription":"Manufacturer's analytical; partial documentation","rank":6300,"indentLevel":1,"foodNutrientId":21994588,"percentDailyValue":2},{"nutrientId":1253,"nutrientName":"Cholesterol","nutrientNumber":"601","unitName":"MG","derivationCode":"LCCS","derivationDescription":"Calculated from value per serving size measure","derivationId":70,"value":16.0,"foodNutrientSourceId":9,"foodNutrientSourceCode":"12","foodNutrientSourceDescription":"Manufacturer's analytical; partial documentation","rank":15700,"indentLevel":1,"foodNutrientId":21994589,"percentDailyValue":2},{"nutrientId":1257,"nutrientName":"Fatty acids, total trans","nutrientNumber":"605","unitName":"G","derivationCode":"LCCS","derivationDescription":"Calculated from value per serving size measure","derivationId":70,"value":0.0,"foodNutrientSourceId":9,"foodNutrientSourceCode":"12","foodNutrientSourceDescription":"Manufacturer's analytical; partial documentation","rank":15400,"indentLevel":1,"foodNutrientId":21994590},{"nutrientId":1258,"nutrientName":"Fatty acids, total saturated","nutrientNumber":"606","unitName":"G","derivationCode":"LCCS","derivationDescription":"Calculated from value per serving size measure","derivationId":70,"value":6.25,"foodNutrientSourceId":9,"foodNutrientSourceCode":"12","foodNutrientSourceDescription":"Manufacturer's analytical; partial documentation","rank":9700,"indentLevel":1,"foodNutrientId":21994591,"percentDailyValue":10}],"finalFoodInputFoods":[],"foodMeasures":[],"foodAttributes":[{"value":"10","name":"Added Brand/Sub Brand Information","id":1881319}],"foodAttributeTypes":[{"name":"Update Log","description":"Changes that were made to this food","id":998,"foodAttributes":[{"value":"10","name":"Added Brand/Sub Brand Information","id":1881319}]}],"foodVersionIds":[]}],"aggregations":{"dataType":{"Branded":15226,"Survey (FNDDS)":112,"SR Legacy":81},"nutrients":{}}}
