{"totalHits":2532,"currentPage":1,"totalPages":2532,"pageList":[1,2,3,4,5,6,7,8,9,10],"foodSearchCriteria":{"query":"Sushi (salmon)","generalSearchInput":"Sushi (salmon)","pageNumber":1,"numberOfResultsPerPage":50,"pageSize":1,"requireAllWords":false},"foods":[{"fdcId":2708963,"description":"Sushi roll, salmon","commonNames":"","additionalDescriptions":"NS as to rolled or topped;Maki or Temaki","dataType":"Survey (FNDDS)","foodCode":58151200,"publishedDate":"2024-10-31","foodCategory":"Egg rolls, dumplings, sushi","foodCategoryId":3305474,"allHighlightFields":"","score":857.8142,"microbes":[],"foodNutrients":[{"nutrientId":1003,"nutrientName":"Protein","nutrientNumber":"203","unitName":"G","value":6.88,"rank":600,"indentLevel":1,"foodNutrientId":34368794},{"nutrientId":1004,"nutrientName":"Total lipid (fat)","nutrientNumber":"204","unitName":"G","value":1.28,"rank":800,"indentLevel":1,"foodNutrientId":34368795},{"nutrientId":1005,"nutrientName":"Carbohydrate, by difference","nutrientNumber":"205","unitName":"G","value":15.3,"rank":1110,"indentLevel":2,"foodNutrientId":34368796},{"nutrientId":1008,"nutrientName":"Energy","nutrientNumber":"208","unitName":"KCAL","value":103,"rank":300,"indentLevel":1,"foodNutrientId":34368797},{"nutrientId":1018,"nutrientName":"Alcohol, ethyl","nutrientNumber":"221","unitName":"G","value":0,"rank":18200,"indentLevel":1,"foodNutrientId":34368798},{"nutrientId":1051,"nutrientName":"Water","nutrientNumber":"255","unitName":"G","value":75.25,"rank":100,"indentLevel":1,"foodNutrientId":34368799},{"nutrientId":1057,"nutrientName":"Caffeine","nutrientNumber":"262","unitName":"MG","value":0,"rank":18300,"indentLevel":0,"foodNutrientId":34368800},{"nutrientId":1058,"nutrientName":"Theobromine","nutrientNumber":"263","unitName":"MG","value":0,"rank":18400,"indentLevel":0,"foodNutrientId":34368801},{"nutrientId":2000,"nutrientName":"Total Sugars","nutrientNumber":"269","unitName":"G","value":0.92,"rank":1510,"indentLevel":3,"foodNutrientId":34368802},{"nutrientId":1079,"nutrientName":"Fiber, total dietary","nutrientNumber":"291","unitName":"G","value":0.7,"rank":1200,"indentLevel":3,"foodNutrientId":34368803},{"nutrientId":1087,"nutrientName":"Calcium, Ca","nutrientNumber":"301","unitName":"MG","value":5,"rank":5300,"indentLevel":1,"foodNutrientId":34368804},{"nutrientId":1089,"nutrientName":"Iron, Fe","nutrientNumber":"303","unitName":"MG","value":0.22,"rank":5400,"indentLevel":1,"foodNutrientId":34368805},{"nutrientId":1090,"nutrientName":"Magnesium, Mg","nutrientNumber":"304","unitName":"MG","value":11,"rank":5500,"indentLevel":1,"foodNutrientId":34368806},{"nutrientId":1091,"nutrientName":"Phosphorus, P","nutrientNumber":"305","unitName":"MG","value":69,"rank":5600,"indentLevel":1,"foodNutrientId":34368807},{"nutrientId":1092,"nutrientName":"Potassium, K","nutrientNumber":"306","unitName":"MG","value":101,"rank":5700,"indentLevel":1,"foodNutrientId":34368808},{"nutrientId":1093,"nutrientName":"Sodium, Na","nutrientNumber":"307","unitName":"MG","value":350,"rank":5800,"indentLevel":1,"foodNutrientId":34368809},{"nutrientId":1095,"nutrientName":"Zinc, Zn","nutrientNumber":"309","unitName":"MG","value":0.4,"rank":5900,"indentLevel":1,"foodNutrientId":34368810},{"nutrientId":1098,"nutrientName":"Copper, Cu","nutrientNumber":"312","unitName":"MG","value":0.053,"rank":6000,"indentLevel":1,"foodNutrientId":34368811},{"nutrientId":1103,"nutrientName":"Selenium, Se","nutrientNumber":"317","unitName":"UG","value":11.1,"rank":6200,"indentLevel":1,"foodNutrientId":34368812},{"nutrientId":1105,"nutrientName":"Retinol","nutrientNumber":"319","unitName":"UG","value":12,"rank":7430,"indentLevel":2,"foodNutrientId":34368813},{"nutrientId":1106,"nutrientName":"Vitamin A, RAE","nutrientNumber":"320","unitName":"UG","value":15,"rank":7420,"indentLevel":1,"foodNutrientId":34368814},{"nutrientId":1107,"nutrientName":"Carotene, beta","nutrientNumber":"321","unitName":"UG","value":38,"rank":7440,"indentLevel":2,"foodNutrientId":34368815},{"nutrientId":1108,"nutrientName":"Carotene, alpha","nutrientNumber":"322","unitName":"UG","value":0,"rank":7450,"indentLevel":2,"foodNutrientId":34368816},{"nutrientId":1109,"nutrientName":"Vitamin E (alpha-tocopherol)","nutrientNumber":"323","unitName":"MG","value":0.24,"rank":7905,"indentLevel":1,"foodNutrientId":34368817},{"nutrientId":1114,"nutrientName":"Vitamin D (D2 + D3)","nutrientNumber":"328","unitName":"UG","value":3.4,"rank":8700,"indentLevel":1,"foodNutrientId":34368818},{"nutrientId":1120,"nutrientName":"Cryptoxanthin, beta","nutrientNumber":"334","unitName":"UG","value":0,"rank":7460,"indentLevel":2,"foodNutrientId":34368819},{"nutrientId":1122,"nutrientName":"Lycopene","nutrientNumber":"337","unitName":"UG","value":0,"rank":7530,"indentLevel":1,"foodNutrientId":34368820},{"nutrientId":1123,"nutrientName":"Lutein + zeaxanthin","nutrientNumber":"338","unitName":"UG","value":0,"rank":7560,"indentLevel":1,"foodNutrientId":34368821},{"nutrientId":1162,"nutrientName":"Vitamin C, total ascorbic acid","nutrientNumber":"401","unitName":"MG","value":0.5,"rank":6300,"indentLevel":1,"foodNutrientId":34368822},{"nutrientId":1165,"nutrientName":"Thiamin","nutrientNumber":"404","unitName":"MG","value":0.047,"rank":6400,"indentLevel":1,"foodNutrientId":34368823},{"nutrientId":1166,"nutrientName":"Riboflavin","nutrientNumber":"405","unitName":"MG","value":0.065,"rank":6500,"indentLevel":1,"foodNutrientId":34368824},{"nutrientId":1167,"nutrientName":"Niacin","nutrientNumber":"406","unitName":"MG","value":2.292,"rank":6600,"indentLevel":1,"foodNutrientId":34368825},{"nutrientId":1175,"nutrientName":"Vitamin B-6","nutrientNumber":"415","unitName":"MG","value":0.198,"rank":6800,"indentLevel":1,"foodNutrientId":34368826},{"nutrientId":1177,"nutrientName":"Folate, total","nutrientNumber":"417","unitName":"UG","value":4,"rank":6900,"indentLevel":1,"foodNutrientId":34368827},{"nutrientId":1178,"nutrientName":"Vitamin B-12","nutrientNumber":"418","unitName":"UG","value":1.14,"rank":7300,"indentLevel":1,"foodNutrientId":34368828},{"nutrientId":1180,"nutrientName":"Choline, total","nutrientNumber":"421","unitName":"MG","value":24.6,"rank":7220,"indentLevel":1,"foodNutrientId":34368829},{"nutrientId":1185,"nutrientName":"Vitamin K (phylloquinone)","nutrientNumber":"430","unitName":"UG","value":0.1,"rank":8800,"indentLevel":1,"foodNutrientId":34368830},{"nutrientId":1186,"nutrientName":"Folic acid","nutrientNumber":"431","unitName":"UG","value":0,"rank":7000,"indentLevel":0,"foodNutrientId":34368831},{"nutrientId":1187,"nutrientName":"Folate, food","nutrientNumber":"432","unitName":"UG","value":4,"rank":7100,"indentLevel":1,"foodNutrientId":34368832},{"nutrientId":1190,"nutrientName":"Folate, DFE","nutrientNumber":"435","unitName":"UG","value":4,"rank":7200,"indentLevel":1,"foodNutrientId":34368833},{"nutrientId":1242,"nutrientName":"Vitamin E, added","nutrientNumber":"573","unitName":"MG","value":0,"rank":7920,"indentLevel":0,"foodNutrientId":34368834},{"nutrientId":1246,"nutrientName":"Vitamin B-12, added","nutrientNumber":"578","unitName":"UG","value":0,"rank":7340,"indentLevel":0,"foodNutrientId":34368835},{"nutrientId":1253,"nutrientName":"Cholesterol","nutrientNumber":"601","unitName":"MG","value":12,"rank":15700,"indentLevel":1,"foodNutrientId":34368836},{"nutrientId":1258,"nutrientName":"Fatty acids, total saturated","nutrientNumber":"606","unitName":"G","value":0.226,"rank":9700,"indentLevel":1,"foodNutrientId":34368837},{"nutrientId":1259,"nutrientName":"SFA 4:0","nutrientNumber":"607","unitName":"G","value":0,"rank":9800,"indentLevel":2,"foodNutrientId":34368838},{"nutrientId":1260,"nutrientName":"SFA 6:0","nutrientNumber":"608","unitName":"G","value":0,"rank":9900,"indentLevel":2,"foodNutrientId":34368839},{"nutrientId":1261,"nutrientName":"SFA 8:0","nutrientNumber":"609","unitName":"G","value":0,"rank":10000,"indentLevel":2,"foodNutrientId":34368840},{"nutrientId":1262,"nutrientName":"SFA 10:0","nutrientNumber":"610","unitName":"G","value":0,"rank":10100,"indentLevel":2,"foodNutrientId":34368841},{"nutrientId":1263,"nutrientName":"SFA 12:0","nutrientNumber":"611","unitName":"G","value":0,"rank":10300,"indentLevel":2,"foodNutrientId":34368842},{"nutrientId":1264,"nutrientName":"SFA 14:0","nutrientNumber":"612","unitName":"G","value":0.031,"rank":10500,"indentLevel":2,"foodNutrientId":34368843},{"nutrientId":1265,"nutrientName":"SFA 16:0","nutrientNumber":"613","unitName":"G","value":0.157,"rank":10700,"indentLevel":2,"foodNutrientId":34368844},{"nutrientId":1266,"nutrientName":"SFA 18:0","nutrientNumber":"614","unitName":"G","value":0.027,"rank":10900,"indentLevel":2,"foodNutrientId":34368845},{"nutrientId":1268,"nutrientName":"MUFA 18:1","nutrientNumber":"617","unitName":"G","value":0.221,"rank":12100,"indentLevel":2,"foodNutrientId":34368846},{"nutrientId":1269,"nutrientName":"PUFA 18:2","nutrientNumber":"618","unitName":"G","value":0.084,"rank":13100,"indentLevel":2,"foodNutrientId":34368847},{"nutrientId":1270,"nutrientName":"PUFA 18:3","nutrientNumber":"619","unitName":"G","value":0.014,"rank":13900,"indentLevel":2,"foodNutrientId":34368848},{"nutrientId":1271,"nutrientName":"PUFA 20:4","nutrientNumber":"620","unitName":"G","value":0.004,"rank":14700,"indentLevel":2,"foodNutrientId":34368849},{"nutrientId":1272,"nutrientName":"PUFA 22:6 n-3 (DHA)","nutrientNumber":"621","unitName":"G","value":0.115,"rank":15300,"indentLevel":2,"foodNutrientId":34368850},{"nutrientId":1275,"nutrientName":"MUFA 16:1","nutrientNumber":"626","unitName":"G","value":0.034,"rank":11700,"indentLevel":2,"foodNutrientId":34368851},{"nutrientId":1276,"nutrientName":"PUFA 18:4","nutrientNumber":"627","unitName":"G","value":0.013,"rank":14250,"indentLevel":2,"foodNutrientId":34368852},{"nutrientId":1277,"nutrientName":"MUFA 20:1","nutrientNumber":"628","unitName":"G","value":0.092,"rank":12400,"indentLevel":2,"foodNutrientId":34368853},{"nutrientId":1278,"nutrientName":"PUFA 20:5 n-3 (EPA)","nutrientNumber":"629","unitName":"G","value":0.062,"rank":15000,"indentLevel":2,"foodNutrientId":34368854},{"nutrientId":1279,"nutrientName":"MUFA 22:1","nutrientNumber":"630","unitName":"G","value":0.077,"rank":12500,"indentLevel":2,"foodNutrientId":34368855},{"nutrientId":1280,"nutrientName":"PUFA 22:5 n-3 (DPA)","nutrientNumber":"631","unitName":"G","value":0.019,"rank":15200,"indentLevel":2,"foodNutrientId":34368856},{"nutrientId":1292,"nutrientName":"Fatty acids, total monounsaturated","nutrientNumber":"645","unitName":"G","value":0.383,"rank":11400,"indentLevel":1,"foodNutrientId":34368857},{"nutrientId":1293,"nutrientName":"Fatty acids, total polyunsaturated","nutrientNumber":"646","unitName":"G","value":0.32,"rank":12900,"indentLevel":1,"foodNutrientId":34368858}],"finalFoodInputFoods":[{"foodDescription":"Seaweed, laver, raw","gramWeight":5.2,"id":137588,"portionCode":"63025","portionDescription":"10 sheets","unit":"","rank":5,"retentionCode":0,"srCode":11446,"value":0.2},{"foodDescription":"Salt, table","gramWeight":3.6,"id":137587,"portionCode":"10205","portionDescription":"1 cup","unit":"TS","rank":4,"retentionCode":0,"srCode":2047,"value":0.6},{"foodDescription":"Vinegar, distilled","gramWeight":19.5,"id":137585,"portionCode":"10205","portionDescription":"1 cup","unit":"TB","rank":2,"retentionCode":0,"srCode":2053,"value":1.3},{"foodDescription":"Sugars, granulated","gramWeight":3.75,"id":137586,"portionCode":"10205","portionDescription":"1 cup","unit":"TB","rank":3,"retentionCode":0,"srCode":19335,"value":0.3},{"foodDescription":"Fish, salmon, sockeye, raw","gramWeight":104,"id":137589,"portionCode":"0","portionDescription":"NONE","unit":"GM","rank":6,"retentionCode":0,"srCode":15085,"value":104},{"foodDescription":"Rice, white, glutinous, unenriched, cooked","gramWeight":290.058,"id":137584,"portionCode":"10043","portionDescription":"1 cup, cooked","unit":"C","rank":1,"retentionCode":0,"srCode":20055,"value":1.67}],"foodMeasures":[{"disseminationText":"1 piece","gramWeight":30,"id":305393,"modifier":"61667","rank":1,"measureUnitAbbreviation":"undetermined","measureUnitName":"undetermined","measureUnitId":9999},{"disseminationText":"1 cup","gramWeight":150,"id":305394,"modifier":"10205","rank":2,"measureUnitAbbreviation":"undetermined","measureUnitName":"undetermined","measureUnitId":9999},{"disseminationText":"Quantity not specified","gramWeight":180,"id":305395,"modifier":"90000","rank":3,"measureUnitAbbreviation":"undetermined","measureUnitName":"undetermined","measureUnitId":9999}],"foodAttributes":[{"value":"Moisture change: 0%","id":3322403},{"value":"NS as to rolled or topped","id":3315557,"sequenceNumber":1},{"value":"Egg rolls, dumplings, sushi","name":"WWEIA Category description","id":3305474},{"value":"Maki or Temaki","id":3315558,"sequenceNumber":2},{"value":"3406","name":"WWEIA Category number","id":3305473}],"foodAttributeTypes":[{"name":"Additional Description","description":"Additional descriptions for the food.","id":1001,"foodAttributes":[{"value":"NS as to rolled or topped","id":3315557,"sequenceNumber":1},{"value":"Maki or Temaki","id":3315558,"sequenceNumber":2}]},{"name":"Adjustments","description":"Adjustments made to foods, including moisture changes","id":1002,"foodAttributes":[{"value":"Moisture change: 0%","id":3322403}]},{"name":"Attribute","description":"Generic attributes","id":999,"foodAttributes":[{"value":"Egg rolls, dumplings, sushi","name":"WWEIA Category description","id":3305474},{"value":"3406","name":"WWEIA Category number","id":3305473}]}],"foodVersionIds":[]}],"aggregations":{"dataType":{"Branded":2436,"SR Legacy":47,"Survey (FNDDS)":45,"Experimental":2,"Foundation":2},"nutrients":{}}}
