{"totalHits":516,"currentPage":1,"totalPages":516,"pageList":[1,2,3,4,5,6,7,8,9,10],"foodSearchCriteria":{"query":"Masala Dosa","generalSearchInput":"Masala Dosa","pageNumber":1,"numberOfResultsPerPage":50,"pageSize":1,"requireAllWords":false},"foods":[{"fdcId":2709129,"description":"Dosa, with filling","commonNames":"","additionalDescriptions":"Masala Dosa;Indian pancake or crepe","dataType":"Survey (FNDDS)","foodCode":58174100,"publishedDate":"2024-10-31","foodCategory":"Pancakes, waffles, French toast","foodCategoryId":3305806,"allHighlightFields":"<b>Includes</b>: <em>Masala</em> <em>Dosa</em>;Indian pancake or crepe","score":800.03827,"microbes":[],"foodNutrients":[{"nutrientId":1003,"nutrientName":"Protein","nutrientNumber":"203","unitName":"G","value":5.46,"rank":600,"indentLevel":1,"foodNutrientId":34379584},{"nutrientId":1004,"nutrientName":"Total lipid (fat)","nutrientNumber":"204","unitName":"G","value":4.27,"rank":800,"indentLevel":1,"foodNutrientId":34379585},{"nutrientId":1005,"nutrientName":"Carbohydrate, by difference","nutrientNumber":"205","unitName":"G","value":30.8,"rank":1110,"indentLevel":2,"foodNutrientId":34379586},{"nutrientId":1008,"nutrientName":"Energy","nutrientNumber":"208","unitName":"KCAL","value":184,"rank":300,"indentLevel":1,"foodNutrientId":34379587},{"nutrientId":1018,"nutrientName":"Alcohol, ethyl","nutrientNumber":"221","unitName":"G","value":0,"rank":18200,"indentLevel":1,"foodNutrientId":34379588},{"nutrientId":1051,"nutrientName":"Water","nutrientNumber":"255","unitName":"G","value":57.94,"rank":100,"indentLevel":1,"foodNutrientId":34379589},{"nutrientId":1057,"nutrientName":"Caffeine","nutrientNumber":"262","unitName":"MG","value":0,"rank":18300,"indentLevel":0,"foodNutrientId":34379590},{"nutrientId":1058,"nutrientName":"Theobromine","nutrientNumber":"263","unitName":"MG","value":0,"rank":18400,"indentLevel":0,"foodNutrientId":34379591},{"nutrientId":2000,"nutrientName":"Total Sugars","nutrientNumber":"269","unitName":"G","value":1.1,"rank":1510,"indentLevel":3,"foodNutrientId":34379592},{"nutrientId":1079,"nutrientName":"Fiber, total dietary","nutrientNumber":"291","unitName":"G","value":2.2,"rank":1200,"indentLevel":3,"foodNutrientId":34379593},{"nutrientId":1087,"nutrientName":"Calcium, Ca","nutrientNumber":"301","unitName":"MG","value":17,"rank":5300,"indentLevel":1,"foodNutrientId":34379594},{"nutrientId":1089,"nutrientName":"Iron, Fe","nutrientNumber":"303","unitName":"MG","value":1.87,"rank":5400,"indentLevel":1,"foodNutrientId":34379595},{"nutrientId":1090,"nutrientName":"Magnesium, Mg","nutrientNumber":"304","unitName":"MG","value":17,"rank":5500,"indentLevel":1,"foodNutrientId":34379596},{"nutrientId":1091,"nutrientName":"Phosphorus, P","nutrientNumber":"305","unitName":"MG","value":70,"rank":5600,"indentLevel":1,"foodNutrientId":34379597},{"nutrientId":1092,"nutrientName":"Potassium, K","nutrientNumber":"306","unitName":"MG","value":137,"rank":5700,"indentLevel":1,"foodNutrientId":34379598},{"nutrientId":1093,"nutrientName":"Sodium, Na","nutrientNumber":"307","unitName":"MG","value":330,"rank":5800,"indentLevel":1,"foodNutrientId":34379599},{"nutrientId":1095,"nutrientName":"Zinc, Zn","nutrientNumber":"309","unitName":"MG","value":0.73,"rank":5900,"indentLevel":1,"foodNutrientId":34379600},{"nutrientId":1098,"nutrientName":"Copper, Cu","nutrientNumber":"312","unitName":"MG","value":0.153,"rank":6000,"indentLevel":1,"foodNutrientId":34379601},{"nutrientId":1103,"nutrientName":"Selenium, Se","nutrientNumber":"317","unitName":"UG","value":3.9,"rank":6200,"indentLevel":1,"foodNutrientId":34379602},{"nutrientId":1105,"nutrientName":"Retinol","nutrientNumber":"319","unitName":"UG","value":0,"rank":7430,"indentLevel":2,"foodNutrientId":34379603},{"nutrientId":1106,"nutrientName":"Vitamin A, RAE","nutrientNumber":"320","unitName":"UG","value":1,"rank":7420,"indentLevel":1,"foodNutrientId":34379604},{"nutrientId":1107,"nutrientName":"Carotene, beta","nutrientNumber":"321","unitName":"UG","value":10,"rank":7440,"indentLevel":2,"foodNutrientId":34379605},{"nutrientId":1108,"nutrientName":"Carotene, alpha","nutrientNumber":"322","unitName":"UG","value":1,"rank":7450,"indentLevel":2,"foodNutrientId":34379606},{"nutrientId":1109,"nutrientName":"Vitamin E (alpha-tocopherol)","nutrientNumber":"323","unitName":"MG","value":0.82,"rank":7905,"indentLevel":1,"foodNutrientId":34379607},{"nutrientId":1114,"nutrientName":"Vitamin D (D2 + D3)","nutrientNumber":"328","unitName":"UG","value":0,"rank":8700,"indentLevel":1,"foodNutrientId":34379608},{"nutrientId":1120,"nutrientName":"Cryptoxanthin, beta","nutrientNumber":"334","unitName":"UG","value":1,"rank":7460,"indentLevel":2,"foodNutrientId":34379609},{"nutrientId":1122,"nutrientName":"Lycopene","nutrientNumber":"337","unitName":"UG","value":0,"rank":7530,"indentLevel":1,"foodNutrientId":34379610},{"nutrientId":1123,"nutrientName":"Lutein + zeaxanthin","nutrientNumber":"338","unitName":"UG","value":4,"rank":7560,"indentLevel":1,"foodNutrientId":34379611},{"nutrientId":1162,"nutrientName":"Vitamin C, total ascorbic acid","nutrientNumber":"401","unitName":"MG","value":1.3,"rank":6300,"indentLevel":1,"foodNutrientId":34379612},{"nutrientId":1165,"nutrientName":"Thiamin","nutrientNumber":"404","unitName":"MG","value":0.199,"rank":6400,"indentLevel":1,"foodNutrientId":34379613},{"nutrientId":1166,"nutrientName":"Riboflavin","nutrientNumber":"405","unitName":"MG","value":0.041,"rank":6500,"indentLevel":1,"foodNutrientId":34379614},{"nutrientId":1167,"nutrientName":"Niacin","nutrientNumber":"406","unitName":"MG","value":1.353,"rank":6600,"indentLevel":1,"foodNutrientId":34379615},{"nutrientId":1175,"nutrientName":"Vitamin B-6","nutrientNumber":"415","unitName":"MG","value":0.116,"rank":6800,"indentLevel":1,"foodNutrientId":34379616},{"nutrientId":1177,"nutrientName":"Folate, total","nutrientNumber":"417","unitName":"UG","value":103,"rank":6900,"indentLevel":1,"foodNutrientId":34379617},{"nutrientId":1178,"nutrientName":"Vitamin B-12","nutrientNumber":"418","unitName":"UG","value":0,"rank":7300,"indentLevel":1,"foodNutrientId":34379618},{"nutrientId":1180,"nutrientName":"Choline, total","nutrientNumber":"421","unitName":"MG","value":17.5,"rank":7220,"indentLevel":1,"foodNutrientId":34379619},{"nutrientId":1185,"nutrientName":"Vitamin K (phylloquinone)","nutrientNumber":"430","unitName":"UG","value":5.3,"rank":8800,"indentLevel":1,"foodNutrientId":34379620},{"nutrientId":1186,"nutrientName":"Folic acid","nutrientNumber":"431","unitName":"UG","value":40,"rank":7000,"indentLevel":0,"foodNutrientId":34379621},{"nutrientId":1187,"nutrientName":"Folate, food","nutrientNumber":"432","unitName":"UG","value":63,"rank":7100,"indentLevel":1,"foodNutrientId":34379622},{"nutrientId":1190,"nutrientName":"Folate, DFE","nutrientNumber":"435","unitName":"UG","value":131,"rank":7200,"indentLevel":1,"foodNutrientId":34379623},{"nutrientId":1242,"nutrientName":"Vitamin E, added","nutrientNumber":"573","unitName":"MG","value":0,"rank":7920,"indentLevel":0,"foodNutrientId":34379624},{"nutrientId":1246,"nutrientName":"Vitamin B-12, added","nutrientNumber":"578","unitName":"UG","value":0,"rank":7340,"indentLevel":0,"foodNutrientId":34379625},{"nutrientId":1253,"nutrientName":"Cholesterol","nutrientNumber":"601","unitName":"MG","value":0,"rank":15700,"indentLevel":1,"foodNutrientId":34379626},{"nutrientId":1258,"nutrientName":"Fatty acids, total saturated","nutrientNumber":"606","unitName":"G","value":0.583,"rank":9700,"indentLevel":1,"foodNutrientId":34379627},{"nutrientId":1259,"nutrientName":"SFA 4:0","nutrientNumber":"607","unitName":"G","value":0,"rank":9800,"indentLevel":2,"foodNutrientId":34379628},{"nutrientId":1260,"nutrientName":"SFA 6:0","nutrientNumber":"608","unitName":"G","value":0,"rank":9900,"indentLevel":2,"foodNutrientId":34379629},{"nutrientId":1261,"nutrientName":"SFA 8:0","nutrientNumber":"609","unitName":"G","value":0,"rank":10000,"indentLevel":2,"foodNutrientId":34379630},{"nutrientId":1262,"nutrientName":"SFA 10:0","nutrientNumber":"610","unitName":"G","value":0,"rank":10100,"indentLevel":2,"foodNutrientId":34379631},{"nutrientId":1263,"nutrientName":"SFA 12:0","nutrientNumber":"611","unitName":"G","value":0,"rank":10300,"indentLevel":2,"foodNutrientId":34379632},{"nutrientId":1264,"nutrientName":"SFA 14:0","nutrientNumber":"612","unitName":"G","value":0.004,"rank":10500,"indentLevel":2,"foodNutrientId":34379633},{"nutrientId":1265,"nutrientName":"SFA 16:0","nutrientNumber":"613","unitName":"G","value":0.433,"rank":10700,"indentLevel":2,"foodNutrientId":34379634},{"nutrientId":1266,"nutrientName":"SFA 18:0","nutrientNumber":"614","unitName":"G","value":0.113,"rank":10900,"indentLevel":2,"foodNutrientId":34379635},{"nutrientId":1268,"nutrientName":"MUFA 18:1","nutrientNumber":"617","unitName":"G","value":1.64,"rank":12100,"indentLevel":2,"foodNutrientId":34379636},{"nutrientId":1269,"nutrientName":"PUFA 18:2","nutrientNumber":"618","unitName":"G","value":1.472,"rank":13100,"indentLevel":2,"foodNutrientId":34379637},{"nutrientId":1270,"nutrientName":"PUFA 18:3","nutrientNumber":"619","unitName":"G","value":0.183,"rank":13900,"indentLevel":2,"foodNutrientId":34379638},{"nutrientId":1271,"nutrientName":"PUFA 20:4","nutrientNumber":"620","unitName":"G","value":0,"rank":14700,"indentLevel":2,"foodNutrientId":34379639},{"nutrientId":1272,"nutrientName":"PUFA 22:6 n-3 (DHA)","nutrientNumber":"621","unitName":"G","value":0,"rank":15300,"indentLevel":2,"foodNutrientId":34379640},{"nutrientId":1275,"nutrientName":"MUFA 16:1","nutrientNumber":"626","unitName":"G","value":0.014,"rank":11700,"indentLevel":2,"foodNutrientId":34379641},{"nutrientId":1276,"nutrientName":"PUFA 18:4","nutrientNumber":"627","unitName":"G","value":0,"rank":14250,"indentLevel":2,"foodNutrientId":34379642},{"nutrientId":1277,"nutrientName":"MUFA 20:1","nutrientNumber":"628","unitName":"G","value":0.026,"rank":12400,"indentLevel":2,"foodNutrientId":34379643},{"nutrientId":1278,"nutrientName":"PUFA 20:5 n-3 (EPA)","nutrientNumber":"629","unitName":"G","value":0,"rank":15000,"indentLevel":2,"foodNutrientId":34379644},{"nutrientId":1279,"nutrientName":"MUFA 22:1","nutrientNumber":"630","unitName":"G","value":0.002,"rank":12500,"indentLevel":2,"foodNutrientId":34379645},{"nutrientId":1280,"nutrientName":"PUFA 22:5 n-3 (DPA)","nutrientNumber":"631","unitName":"G","value":0,"rank":15200,"indentLevel":2,"foodNutrientId":34379646},{"nutrientId":1292,"nutrientName":"Fatty acids, total monounsaturated","nutrientNumber":"645","unitName":"G","value":1.685,"rank":11400,"indentLevel":1,"foodNutrientId":34379647},{"nutrientId":1293,"nutrientName":"Fatty acids, total polyunsaturated","nutrientNumber":"646","unitName":"G","value":1.657,"rank":12900,"indentLevel":1,"foodNutrientId":34379648}],"finalFoodInputFoods":[{"foodDescription":"Dosa, plain","gramWeight":70,"id":138422,"portionCode":"0","portionDescription":"NONE","unit":"GM","rank":1,"retentionCode":0,"srCode":55702100,"value":70.0},{"foodDescription":"Pakora","gramWeight":30,"id":138423,"portionCode":"0","portionDescription":"NONE","unit":"GM","rank":2,"retentionCode":0,"srCode":75440400,"value":30.0}],"foodMeasures":[{"disseminationText":"1 large","gramWeight":523,"id":305748,"modifier":"60919","rank":3,"measureUnitAbbreviation":"undetermined","measureUnitName":"undetermined","measureUnitId":9999},{"disseminationText":"1 medium","gramWeight":267,"id":305747,"modifier":"61238","rank":2,"measureUnitAbbreviation":"undetermined","measureUnitName":"undetermined","measureUnitId":9999},{"disseminationText":"1 surface inch","gramWeight":3.4,"id":305749,"modifier":"52000","rank":4,"measureUnitAbbreviation":"undetermined","measureUnitName":"undetermined","measureUnitId":9999},{"disseminationText":"Quantity not specified","gramWeight":267,"id":305750,"modifier":"90000","rank":5,"measureUnitAbbreviation":"undetermined","measureUnitName":"undetermined","measureUnitId":9999},{"disseminationText":"1 small","gramWeight":113,"id":305746,"modifier":"62015","rank":1,"measureUnitAbbreviation":"undetermined","measureUnitName":"undetermined","measureUnitId":9999}],"foodAttributes":[{"value":"4404","name":"WWEIA Category number","id":3305805},{"value":"Moisture change: 0%","id":3322569},{"value":"Pancakes, waffles, French toast","name":"WWEIA Category description","id":3305806},{"value":"Indian pancake or crepe","id":3315812,"sequenceNumber":1},{"value":"Masala Dosa","id":3315813,"sequenceNumber":2}],"foodAttributeTypes":[{"name":"Additional Description","description":"Additional descriptions for the food.","id":1001,"foodAttributes":[{"value":"Indian pancake or crepe","id":3315812,"sequenceNumber":1},{"value":"Masala Dosa","id":3315813,"sequenceNumber":2}]},{"name":"Adjustments","description":"Adjustments made to foods, including moisture changes","id":1002,"foodAttributes":[{"value":"Moisture change: 0%","id":3322569}]},{"name":"Attribute","description":"Generic attributes","id":999,"foodAttributes":[{"value":"4404","name":"WWEIA Category number","id":3305805},{"value":"Pancakes, waffles, French toast","name":"WWEIA Category description","id":3305806}]}],"foodVersionIds":[]}],"aggregations":{"dataType":{"Branded":512,"Survey (FNDDS)":3,"SR Legacy":1},"nutrients":{}}}
