{"totalHits":90743,"currentPage":1,"totalPages":90743,"pageList":[1,2,3,4,5,6,7,8,9,10],"foodSearchCriteria":{"query":"Black Beans (cooked)","generalSearchInput":"Black Beans (cooked)","pageNumber":1,"numberOfResultsPerPage":50,"pageSize":1,"requireAllWords":false},"foods":[{"fdcId":175237,"description":"Beans, black, mature seeds, cooked, boiled, with salt","commonNames":"","additionalDescriptions":"","dataType":"SR Legacy","ndbNumber":16315,"publishedDate":"2019-04-01","foodCategory":"Legumes and Legume Products","allHighlightFields":"","score":581.9608,"microbes":[],"foodNutrients":[{"nutrientId":1062,"nutrientName":"Energy","nutrientNumber":"268","unitName":"kJ","value":552,"rank":400,"indentLevel":1,"foodNutrientId":1922501,"dataPoints":0},{"nutrientId":1186,"nutrientName":"Folic acid","nutrientNumber":"431","unitName":"UG","derivationCode":"Z","derivationDescription":"Assumed zero (Insignificant amount or not naturally occurring in a food, such as fiber in meat)","derivationId":68,"value":0.0,"foodNutrientSourceId":5,"foodNutrientSourceCode":"7","foodNutrientSourceDescription":"Assumed zero","rank":7000,"indentLevel":0,"foodNutrientId":1922502,"dataPoints":0},{"nutrientId":1190,"nutrientName":"Folate, DFE","nutrientNumber":"435","unitName":"UG","derivationCode":"NC","derivationDescription":"Calculated","derivationId":49,"value":149,"foodNutrientSourceId":2,"foodNutrientSourceCode":"4","foodNutrientSourceDescription":"Calculated or imputed","rank":7200,"indentLevel":1,"foodNutrientId":1922503,"dataPoints":0},{"nutrientId":1079,"nutrientName":"Fiber, total dietary","nutrientNumber":"291","unitName":"G","value":8.7,"rank":1200,"indentLevel":3,"foodNutrientId":1922504,"dataPoints":0},{"nutrientId":1110,"nutrientName":"Vitamin D (D2 + D3), International Units","nutrientNumber":"324","unitName":"IU","derivationCode":"Z","derivationDescription":"Assumed zero (Insignificant amount or not naturally occurring in a food, such as fiber in meat)","derivationId":68,"value":0.0,"foodNutrientSourceId":5,"foodNutrientSourceCode":"7","foodNutrientSourceDescription":"Assumed zero","rank":8650,"indentLevel":1,"foodNutrientId":1922505,"dataPoints":0},{"nutrientId":1105,"nutrientName":"Retinol","nutrientNumber":"319","unitName":"UG","derivationCode":"Z","derivationDescription":"Assumed zero (Insignificant amount or not naturally occurring in a food, such as fiber in meat)","derivationId":68,"value":0.0,"foodNutrientSourceId":5,"foodNutrientSourceCode":"7","foodNutrientSourceDescription":"Assumed zero","rank":7430,"indentLevel":2,"foodNutrientId":1922506,"dataPoints":0},{"nutrientId":1106,"nutrientName":"Vitamin A, RAE","nutrientNumber":"320","unitName":"UG","value":0.0,"rank":7420,"indentLevel":1,"foodNutrientId":1922507,"dataPoints":0},{"nutrientId":1257,"nutrientName":"Fatty acids, total trans","nutrientNumber":"605","unitName":"G","derivationCode":"Z","derivationDescription":"Assumed zero (Insignificant amount or not naturally occurring in a food, such as fiber in meat)","derivationId":68,"value":0.0,"foodNutrientSourceId":5,"foodNutrientSourceCode":"7","foodNutrientSourceDescription":"Assumed zero","rank":15400,"indentLevel":1,"foodNutrientId":1922508,"dataPoints":0},{"nutrientId":1114,"nutrientName":"Vitamin D (D2 + D3)","nutrientNumber":"328","unitName":"UG","derivationCode":"Z","derivationDescription":"Assumed zero (Insignificant amount or not naturally occurring in a food, such as fiber in meat)","derivationId":68,"value":0.0,"foodNutrientSourceId":5,"foodNutrientSourceCode":"7","foodNutrientSourceDescription":"Assumed zero","rank":8700,"indentLevel":1,"foodNutrientId":1922509,"dataPoints":0},{"nutrientId":1180,"nutrientName":"Choline, total","nutrientNumber":"421","unitName":"MG","derivationCode":"BFSN","derivationDescription":"Based on another form of the food or similar food; Concentration adjustment; Solids; Retention factors not used","derivationId":16,"value":32.6,"foodNutrientSourceId":2,"foodNutrientSourceCode":"4","foodNutrientSourceDescription":"Calculated or imputed","rank":7220,"indentLevel":1,"foodNutrientId":1922510,"dataPoints":0},{"nutrientId":1271,"nutrientName":"PUFA 20:4","nutrientNumber":"620","unitName":"G","derivationCode":"BFSN","derivationDescription":"Based on another form of the food or similar food; Concentration adjustment; Solids; Retention factors not used","derivationId":16,"value":0.0,"foodNutrientSourceId":2,"foodNutrientSourceCode":"4","foodNutrientSourceDescription":"Calculated or imputed","rank":14700,"indentLevel":2,"foodNutrientId":1922511,"dataPoints":0},{"nutrientId":1276,"nutrientName":"PUFA 18:4","nutrientNumber":"627","unitName":"G","derivationCode":"BFSN","derivationDescription":"Based on another form of the food or similar food; Concentration adjustment; Solids; Retention factors not used","derivationId":16,"value":0.0,"foodNutrientSourceId":2,"foodNutrientSourceCode":"4","foodNutrientSourceDescription":"Calculated or imputed","rank":14250,"indentLevel":2,"foodNutrientId":1922512,"dataPoints":0},{"nutrientId":1277,"nutrientName":"MUFA 20:1","nutrientNumber":"628","unitName":"G","derivationCode":"BFSN","derivationDescription":"Based on another form of the food or similar food; Concentration adjustment; Solids; Retention factors not used","derivationId":16,"value":0.0,"foodNutrientSourceId":2,"foodNutrientSourceCode":"4","foodNutrientSourceDescription":"Calculated or imputed","rank":12400,"indentLevel":2,"foodNutrientId":1922513,"dataPoints":0},{"nutrientId":1279,"nutrientName":"MUFA 22:1","nutrientNumber":"630","unitName":"G","derivationCode":"BFSN","derivationDescription":"Based on another form of the food or similar food; Concentration adjustment; Solids; Retention factors not used","derivationId":16,"value":0.0,"foodNutrientSourceId":2,"foodNutrientSourceCode":"4","foodNutrientSourceDescription":"Calculated or imputed","rank":12500,"indentLevel":2,"foodNutrientId":1922514,"dataPoints":0},{"nutrientId":1109,"nutrientName":"Vitamin E (alpha-tocopherol)","nutrientNumber":"323","unitName":"MG","derivationCode":"BFSN","derivationDescription":"Based on another form of the food or similar food; Concentration adjustment; Solids; Retention factors not used","derivationId":16,"value":0.87,"foodNutrientSourceId":2,"foodNutrientSourceCode":"4","foodNutrientSourceDescription":"Calculated or imputed","rank":7905,"indentLevel":1,"foodNutrientId":1922515,"dataPoints":0},{"nutrientId":1242,"nutrientName":"Vitamin E, added","nutrientNumber":"573","unitName":"MG","derivationCode":"Z","derivationDescription":"Assumed zero (Insignificant amount or not naturally occurring in a food, such as fiber in meat)","derivationId":68,"value":0.0,"foodNutrientSourceId":5,"foodNutrientSourceCode":"7","foodNutrientSourceDescription":"Assumed zero","rank":7920,"indentLevel":0,"foodNutrientId":1922516,"dataPoints":0},{"nutrientId":1259,"nutrientName":"SFA 4:0","nutrientNumber":"607","unitName":"G","derivationCode":"BFSN","derivationDescription":"Based on another form of the food or similar food; Concentration adjustment; Solids; Retention factors not used","derivationId":16,"value":0.0,"foodNutrientSourceId":2,"foodNutrientSourceCode":"4","foodNutrientSourceDescription":"Calculated or imputed","rank":9800,"indentLevel":2,"foodNutrientId":1922517,"dataPoints":0},{"nutrientId":1260,"nutrientName":"SFA 6:0","nutrientNumber":"608","unitName":"G","derivationCode":"BFSN","derivationDescription":"Based on another form of the food or similar food; Concentration adjustment; Solids; Retention factors not used","derivationId":16,"value":0.0,"foodNutrientSourceId":2,"foodNutrientSourceCode":"4","foodNutrientSourceDescription":"Calculated or imputed","rank":9900,"indentLevel":2,"foodNutrientId":1922518,"dataPoints":0},{"nutrientId":1262,"nutrientName":"SFA 10:0","nutrientNumber":"610","unitName":"G","derivationCode":"BFSN","derivationDescription":"Based on another form of the food or similar food; Concentration adjustment; Solids; Retention factors not used","derivationId":16,"value":0.0,"foodNutrientSourceId":2,"foodNutrientSourceCode":"4","foodNutrientSourceDescription":"Calculated or imputed","rank":10100,"indentLevel":2,"foodNutrientId":1922519,"dataPoints":0},{"nutrientId":1057,"nutrientName":"Caffeine","nutrientNumber":"262","unitName":"MG","derivationCode":"Z","derivationDescription":"Assumed zero (Insignificant amount or not naturally occurring in a food, such as fiber in meat)","derivationId":68,"value":0.0,"foodNutrientSourceId":5,"foodNutrientSourceCode":"7","foodNutrientSourceDescription":"Assumed zero","rank":18300,"indentLevel":0,"foodNutrientId":1922520,"dataPoints":0},{"nutrientId":1058,"nutrientName":"Theobromine","nutrientNumber":"263","unitName":"MG","derivationCode":"Z","derivationDescription":"Assumed zero (Insignificant amount or not naturally occurring in a food, such as fiber in meat)","derivationId":68,"value":0.0,"foodNutrientSourceId":5,"foodNutrientSourceCode":"7","foodNutrientSourceDescription":"Assumed zero","rank":18400,"indentLevel":0,"foodNutrientId":1922521,"dataPoints":0},{"nutrientId":2000,"nutrientName":"Total Sugars","nutrientNumber":"269","unitName":"G","derivationCode":"BFSN","derivationDescription":"Based on another form of the food or similar food; Concentration adjustment; Solids; Retention factors not used","derivationId":16,"value":0.32,"foodNutrientSourceId":2,"foodNutrientSourceCode":"4","foodNutrientSourceDescription":"Calculated or imputed","rank":1510,"indentLevel":3,"foodNutrientId":1922522,"dataPoints":0},{"nutrientId":1123,"nutrientName":"Lutein + zeaxanthin","nutrientNumber":"338","unitName":"UG","derivationCode":"Z","derivationDescription":"Assumed zero (Insignificant amount or not naturally occurring in a food, such as fiber in meat)","derivationId":68,"value":0.0,"foodNutrientSourceId":5,"foodNutrientSourceCode":"7","foodNutrientSourceDescription":"Assumed zero","rank":7560,"indentLevel":1,"foodNutrientId":1922523,"dataPoints":0},{"nutrientId":1120,"nutrientName":"Cryptoxanthin, beta","nutrientNumber":"334","unitName":"UG","derivationCode":"Z","derivationDescription":"Assumed zero (Insignificant amount or not naturally occurring in a food, such as fiber in meat)","derivationId":68,"value":0.0,"foodNutrientSourceId":5,"foodNutrientSourceCode":"7","foodNutrientSourceDescription":"Assumed zero","rank":7460,"indentLevel":2,"foodNutrientId":1922524,"dataPoints":0},{"nutrientId":1122,"nutrientName":"Lycopene","nutrientNumber":"337","unitName":"UG","derivationCode":"Z","derivationDescription":"Assumed zero (Insignificant amount or not naturally occurring in a food, such as fiber in meat)","derivationId":68,"value":0.0,"foodNutrientSourceId":5,"foodNutrientSourceCode":"7","foodNutrientSourceDescription":"Assumed zero","rank":7530,"indentLevel":1,"foodNutrientId":1922525,"dataPoints":0},{"nutrientId":1272,"nutrientName":"PUFA 22:6 n-3 (DHA)","nutrientNumber":"621","unitName":"G","derivationCode":"BFSN","derivationDescription":"Based on another form of the food or similar food; Concentration adjustment; Solids; Retention factors not used","derivationId":16,"value":0.0,"foodNutrientSourceId":2,"foodNutrientSourceCode":"4","foodNutrientSourceDescription":"Calculated or imputed","rank":15300,"indentLevel":2,"foodNutrientId":1922526,"dataPoints":0},{"nutrientId":1275,"nutrientName":"MUFA 16:1","nutrientNumber":"626","unitName":"G","derivationCode":"BFSN","derivationDescription":"Based on another form of the food or similar food; Concentration adjustment; Solids; Retention factors not used","derivationId":16,"value":0.0,"foodNutrientSourceId":2,"foodNutrientSourceCode":"4","foodNutrientSourceDescription":"Calculated or imputed","rank":11700,"indentLevel":2,"foodNutrientId":1922527,"dataPoints":0},{"nutrientId":1278,"nutrientName":"PUFA 20:5 n-3 (EPA)","nutrientNumber":"629","unitName":"G","derivationCode":"BFSN","derivationDescription":"Based on another form of the food or similar food; Concentration adjustment; Solids; Retention factors not used","derivationId":16,"value":0.0,"foodNutrientSourceId":2,"foodNutrientSourceCode":"4","foodNutrientSourceDescription":"Calculated or imputed","rank":15000,"indentLevel":2,"foodNutrientId":1922528,"dataPoints":0},{"nutrientId":1280,"nutrientName":"PUFA 22:5 n-3 (DPA)","nutrientNumber":"631","unitName":"G","derivationCode":"BFSN","derivationDescription":"Based on another form of the food or similar food; Concentration adjustment; Solids; Retention factors not used","derivationId":16,"value":0.0,"foodNutrientSourceId":2,"foodNutrientSourceCode":"4","foodNutrientSourceDescription":"Calculated or imputed","rank":15200,"indentLevel":2,"foodNutrientId":1922529,"dataPoints":0},{"nutrientId":1261,"nutrientName":"SFA 8:0","nutrientNumber":"609","unitName":"G","derivationCode":"BFSN","derivationDescription":"Based on another form of the food or similar food; Concentration adjustment; Solids; Retention factors not used","derivationId":16,"value":0.0,"foodNutrientSourceId":2,"foodNutrientSourceCode":"4","foodNutrientSourceDescription":"Calculated or imputed","rank":10000,"indentLevel":2,"foodNutrientId":1922530,"dataPoints":0},{"nutrientId":1263,"nutrientName":"SFA 12:0","nutrientNumber":"611","unitName":"G","derivationCode":"BFSN","derivationDescription":"Based on another form of the food or similar food; Concentration adjustment; Solids; Retention factors not used","derivationId":16,"value":0.0,"foodNutrientSourceId":2,"foodNutrientSourceCode":"4","foodNutrientSourceDescription":"Calculated or imputed","rank":10300,"indentLevel":2,"foodNutrientId":1922531,"dataPoints":0},{"nutrientId":1246,"nutrientName":"Vitamin B-12, added","nutrientNumber":"578","unitName":"UG","derivationCode":"Z","derivationDescription":"Assumed zero (Insignificant amount or not naturally occurring in a food, such as fiber in meat)","derivationId":68,"value":0.0,"foodNutrientSourceId":5,"foodNutrientSourceCode":"7","foodNutrientSourceDescription":"Assumed zero","rank":7340,"indentLevel":0,"foodNutrientId":1922532,"dataPoints":0},{"nutrientId":1185,"nutrientName":"Vitamin K (phylloquinone)","nutrientNumber":"430","unitName":"UG","derivationCode":"BFSN","derivationDescription":"Based on another form of the food or similar food; Concentration adjustment; Solids; Retention factors not used","derivationId":16,"value":3.3,"foodNutrientSourceId":2,"foodNutrientSourceCode":"4","foodNutrientSourceDescription":"Calculated or imputed","rank":8800,"indentLevel":1,"foodNutrientId":1922533,"dataPoints":0},{"nutrientId":1018,"nutrientName":"Alcohol, ethyl","nutrientNumber":"221","unitName":"G","derivationCode":"Z","derivationDescription":"Assumed zero (Insignificant amount or not naturally occurring in a food, such as fiber in meat)","derivationId":68,"value":0.0,"foodNutrientSourceId":5,"foodNutrientSourceCode":"7","foodNutrientSourceDescription":"Assumed zero","rank":18200,"indentLevel":1,"foodNutrientId":1922534,"dataPoints":0},{"nutrientId":1107,"nutrientName":"Carotene, beta","nutrientNumber":"321","unitName":"UG","derivationCode":"Z","derivationDescription":"Assumed zero (Insignificant amount or not naturally occurring in a food, such as fiber in meat)","derivationId":68,"value":0.0,"foodNutrientSourceId":5,"foodNutrientSourceCode":"7","foodNutrientSourceDescription":"Assumed zero","rank":7440,"indentLevel":2,"foodNutrientId":1922535,"dataPoints":0},{"nutrientId":1108,"nutrientName":"Carotene, alpha","nutrientNumber":"322","unitName":"UG","derivationCode":"Z","derivationDescription":"Assumed zero (Insignificant amount or not naturally occurring in a food, such as fiber in meat)","derivationId":68,"value":0.0,"foodNutrientSourceId":5,"foodNutrientSourceCode":"7","foodNutrientSourceDescription":"Assumed zero","rank":7450,"indentLevel":2,"foodNutrientId":1922536,"dataPoints":0},{"nutrientId":1089,"nutrientName":"Iron, Fe","nutrientNumber":"303","unitName":"MG","value":2.1,"rank":5400,"indentLevel":1,"foodNutrientId":1922537,"dataPoints":8},{"nutrientId":1090,"nutrientName":"Magnesium, Mg","nutrientNumber":"304","unitName":"MG","value":70.0,"rank":5500,"indentLevel":1,"foodNutrientId":1922538,"dataPoints":14},{"nutrientId":1091,"nutrientName":"Phosphorus, P","nutrientNumber":"305","unitName":"MG","value":140,"rank":5600,"indentLevel":1,"foodNutrientId":1922539,"dataPoints":8},{"nutrientId":1093,"nutrientName":"Sodium, Na","nutrientNumber":"307","unitName":"MG","value":237,"rank":5800,"indentLevel":1,"foodNutrientId":1922540,"dataPoints":0},{"nutrientId":1098,"nutrientName":"Copper, Cu","nutrientNumber":"312","unitName":"MG","value":0.209,"rank":6000,"indentLevel":1,"foodNutrientId":1922541,"dataPoints":9},{"nutrientId":1101,"nutrientName":"Manganese, Mn","nutrientNumber":"315","unitName":"MG","value":0.444,"rank":6100,"indentLevel":1,"foodNutrientId":1922542,"dataPoints":8},{"nutrientId":1104,"nutrientName":"Vitamin A, IU","nutrientNumber":"318","unitName":"IU","value":6.0,"rank":7500,"indentLevel":1,"foodNutrientId":1922543,"dataPoints":0},{"nutrientId":1003,"nutrientName":"Protein","nutrientNumber":"203","unitName":"G","value":8.86,"rank":600,"indentLevel":1,"foodNutrientId":1922544,"dataPoints":8},{"nutrientId":1007,"nutrientName":"Ash","nutrientNumber":"207","unitName":"G","value":1.15,"rank":1000,"indentLevel":1,"foodNutrientId":1922545,"dataPoints":8},{"nutrientId":1187,"nutrientName":"Folate, food","nutrientNumber":"432","unitName":"UG","value":149,"rank":7100,"indentLevel":1,"foodNutrientId":1922546,"dataPoints":8},{"nutrientId":1210,"nutrientName":"Tryptophan","nutrientNumber":"501","unitName":"G","value":0.105,"rank":16300,"indentLevel":1,"foodNutrientId":1922547,"dataPoints":0},{"nutrientId":1211,"nutrientName":"Threonine","nutrientNumber":"502","unitName":"G","value":0.373,"rank":16400,"indentLevel":1,"foodNutrientId":1922548,"dataPoints":0},{"nutrientId":1215,"nutrientName":"Methionine","nutrientNumber":"506","unitName":"G","value":0.133,"rank":16800,"indentLevel":1,"foodNutrientId":1922549,"dataPoints":0},{"nutrientId":1217,"nutrientName":"Phenylalanine","nutrientNumber":"508","unitName":"G","value":0.479,"rank":17000,"indentLevel":1,"foodNutrientId":1922550,"dataPoints":0},{"nutrientId":1218,"nutrientName":"Tyrosine","nutrientNumber":"509","unitName":"G","value":0.25,"rank":17100,"indentLevel":1,"foodNutrientId":1922551,"dataPoints":0},{"nutrientId":1222,"nutrientName":"Alanine","nutrientNumber":"513","unitName":"G","value":0.372,"rank":17500,"indentLevel":1,"foodNutrientId":1922552,"dataPoints":0},{"nutrientId":1224,"nutrientName":"Glutamic acid","nutrientNumber":"515","unitName":"G","value":1.35,"rank":17700,"indentLevel":1,"foodNutrientId":1922553,"dataPoints":0},{"nutrientId":1225,"nutrientName":"Glycine","nutrientNumber":"516","unitName":"G","value":0.346,"rank":17800,"indentLevel":1,"foodNutrientId":1922554,"dataPoints":0},{"nutrientId":1226,"nutrientName":"Proline","nutrientNumber":"517","unitName":"G","value":0.376,"rank":17900,"indentLevel":1,"foodNutrientId":1922555,"dataPoints":0},{"nutrientId":1253,"nutrientName":"Cholesterol","nutrientNumber":"601","unitName":"MG","value":0.0,"rank":15700,"indentLevel":1,"foodNutrientId":1922556,"dataPoints":0},{"nutrientId":1264,"nutrientName":"SFA 14:0","nutrientNumber":"612","unitName":"G","value":0.0,"rank":10500,"indentLevel":2,"foodNutrientId":1922557,"dataPoints":0},{"nutrientId":1258,"nutrientName":"Fatty acids, total saturated","nutrientNumber":"606","unitName":"G","value":0.139,"rank":9700,"indentLevel":1,"foodNutrientId":1922558,"dataPoints":0},{"nutrientId":1162,"nutrientName":"Vitamin C, total ascorbic acid","nutrientNumber":"401","unitName":"MG","value":0.0,"rank":6300,"indentLevel":1,"foodNutrientId":1922559,"dataPoints":0},{"nutrientId":1165,"nutrientName":"Thiamin","nutrientNumber":"404","unitName":"MG","value":0.244,"rank":6400,"indentLevel":1,"foodNutrientId":1922560,"dataPoints":8},{"nutrientId":1166,"nutrientName":"Riboflavin","nutrientNumber":"405","unitName":"MG","value":0.059,"rank":6500,"indentLevel":1,"foodNutrientId":1922561,"dataPoints":8},{"nutrientId":1177,"nutrientName":"Folate, total","nutrientNumber":"417","unitName":"UG","value":149,"rank":6900,"indentLevel":1,"foodNutrientId":1922562,"dataPoints":8},{"nutrientId":1178,"nutrientName":"Vitamin B-12","nutrientNumber":"418","unitName":"UG","value":0.0,"rank":7300,"indentLevel":1,"foodNutrientId":1922563,"dataPoints":0},{"nutrientId":1004,"nutrientName":"Total lipid (fat)","nutrientNumber":"204","unitName":"G","value":0.54,"rank":800,"indentLevel":1,"foodNutrientId":1922564,"dataPoints":8},{"nutrientId":1005,"nutrientName":"Carbohydrate, by difference","nutrientNumber":"205","unitName":"G","derivationCode":"NC","derivationDescription":"Calculated","derivationId":49,"value":23.7,"foodNutrientSourceId":2,"foodNutrientSourceCode":"4","foodNutrientSourceDescription":"Calculated or imputed","rank":1110,"indentLevel":2,"foodNutrientId":1922565,"dataPoints":0},{"nutrientId":1008,"nutrientName":"Energy","nutrientNumber":"208","unitName":"KCAL","derivationCode":"NC","derivationDescription":"Calculated","derivationId":49,"value":132,"foodNutrientSourceId":2,"foodNutrientSourceCode":"4","foodNutrientSourceDescription":"Calculated or imputed","rank":300,"indentLevel":1,"foodNutrientId":1922566,"dataPoints":0},{"nutrientId":1051,"nutrientName":"Water","nutrientNumber":"255","unitName":"G","value":65.7,"rank":100,"indentLevel":1,"foodNutrientId":1922567,"dataPoints":9},{"nutrientId":1167,"nutrientName":"Niacin","nutrientNumber":"406","unitName":"MG","value":0.505,"rank":6600,"indentLevel":1,"foodNutrientId":1922568,"dataPoints":8},{"nutrientId":1170,"nutrientName":"Pantothenic acid","nutrientNumber":"410","unitName":"MG","value":0.242,"rank":6700,"indentLevel":1,"foodNutrientId":1922569,"dataPoints":8},{"nutrientId":1175,"nutrientName":"Vitamin B-6","nutrientNumber":"415","unitName":"MG","value":0.069,"rank":6800,"indentLevel":1,"foodNutrientId":1922570,"dataPoints":8},{"nutrientId":1087,"nutrientName":"Calcium, Ca","nutrientNumber":"301","unitName":"MG","value":27.0,"rank":5300,"indentLevel":1,"foodNutrientId":1922571,"dataPoints":14},{"nutrientId":1092,"nutrientName":"Potassium, K","nutrientNumber":"306","unitName":"MG","value":355,"rank":5700,"indentLevel":1,"foodNutrientId":1922572,"dataPoints":14},{"nutrientId":1095,"nutrientName":"Zinc, Zn","nutrientNumber":"309","unitName":"MG","value":1.12,"rank":5900,"indentLevel":1,"foodNutrientId":1922573,"dataPoints":9},{"nutrientId":1212,"nutrientName":"Isoleucine","nutrientNumber":"503","unitName":"G","value":0.391,"rank":16500,"indentLevel":1,"foodNutrientId":1922574,"dataPoints":0},{"nutrientId":1213,"nutrientName":"Leucine","nutrientNumber":"504","unitName":"G","value":0.708,"rank":16600,"indentLevel":1,"foodNutrientId":1922575,"dataPoints":0},{"nutrientId":1214,"nutrientName":"Lysine","nutrientNumber":"505","unitName":"G","value":0.608,"rank":16700,"indentLevel":1,"foodNutrientId":1922576,"dataPoints":0},{"nutrientId":1216,"nutrientName":"Cystine","nutrientNumber":"507","unitName":"G","value":0.096,"rank":16900,"indentLevel":1,"foodNutrientId":1922577,"dataPoints":0},{"nutrientId":1219,"nutrientName":"Valine","nutrientNumber":"510","unitName":"G","value":0.464,"rank":17200,"indentLevel":1,"foodNutrientId":1922578,"dataPoints":0},{"nutrientId":1220,"nutrientName":"Arginine","nutrientNumber":"511","unitName":"G","value":0.549,"rank":17300,"indentLevel":1,"foodNutrientId":1922579,"dataPoints":0},{"nutrientId":1221,"nutrientName":"Histidine","nutrientNumber":"512","unitName":"G","value":0.247,"rank":17400,"indentLevel":1,"foodNutrientId":1922580,"dataPoints":0},{"nutrientId":1223,"nutrientName":"Aspartic acid","nutrientNumber":"514","unitName":"G","value":1.07,"rank":17600,"indentLevel":1,"foodNutrientId":1922581,"dataPoints":0},{"nutrientId":1227,"nutrientName":"Serine","nutrientNumber":"518","unitName":"G","value":0.482,"rank":18000,"indentLevel":1,"foodNutrientId":1922582,"dataPoints":0},{"nutrientId":1292,"nutrientName":"Fatty acids, total monounsaturated","nutrientNumber":"645","unitName":"G","value":0.047,"rank":11400,"indentLevel":1,"foodNutrientId":1922583,"dataPoints":0},{"nutrientId":1293,"nutrientName":"Fatty acids, total polyunsaturated","nutrientNumber":"646","unitName":"G","value":0.231,"rank":12900,"indentLevel":1,"foodNutrientId":1922584,"dataPoints":0},{"nutrientId":1265,"nutrientName":"SFA 16:0","nutrientNumber":"613","unitName":"G","value":0.13,"rank":10700,"indentLevel":2,"foodNutrientId":1922585,"dataPoints":0},{"nutrientId":1266,"nutrientName":"SFA 18:0","nutrientNumber":"614","unitName":"G","value":0.008,"rank":10900,"indentLevel":2,"foodNutrientId":1922586,"dataPoints":0},{"nutrientId":1268,"nutrientName":"MUFA 18:1","nutrientNumber":"617","unitName":"G","value":0.047,"rank":12100,"indentLevel":2,"foodNutrientId":1922587,"dataPoints":0},{"nutrientId":1269,"nutrientName":"PUFA 18:2","nutrientNumber":"618","unitName":"G","value":0.126,"rank":13100,"indentLevel":2,"foodNutrientId":1922588,"dataPoints":0},{"nutrientId":1270,"nutrientName":"PUFA 18:3","nutrientNumber":"619","unitName":"G","value":0.105,"rank":13900,"indentLevel":2,"foodNutrientId":1922589,"dataPoints":0},{"nutrientId":1103,"nutrientName":"Selenium, Se","nutrientNumber":"317","unitName":"UG","derivationCode":"BFSN","derivationDescription":"Based on another form of the food or similar food; Concentration adjustment; Solids; Retention factors not used","derivationId":16,"value":1.2,"foodNutrientSourceId":2,"foodNutrientSourceCode":"4","foodNutrientSourceDescription":"Calculated or imputed","rank":6200,"indentLevel":1,"foodNutrientId":1922590,"dataPoints":0}],"finalFoodInputFoods":[],"foodMeasures":[],"foodAttributes":[],"foodAttributeTypes":[],"foodVersionIds":[]}],"aggregations":{"dataType":{"Branded":88028,"SR Legacy":1957,"Survey (FNDDS)":713,"Foundation":41,"Experimental":4},"nutrients":{}}}
