{"totalHits":9969,"currentPage":1,"totalPages":9969,"pageList":[1,2,3,4,5,6,7,8,9,10],"foodSearchCriteria":{"query":"Fish Curry","generalSearchInput":"Fish Curry","pageNumber":1,"numberOfResultsPerPage":50,"pageSize":1,"requireAllWords":false},"foods":[{"fdcId":2706460,"description":"Fish curry","commonNames":"","additionalDescriptions":"shrimp;other seafood","dataType":"Survey (FNDDS)","foodCode":27150320,"publishedDate":"2024-10-31","foodCategory":"Seafood mixed dishes","foodCategoryId":3300468,"allHighlightFields":"","score":2105.109,"microbes":[],"foodNutrients":[{"nutrientId":1003,"nutrientName":"Protein","nutrientNumber":"203","unitName":"G","value":4.94,"rank":600,"indentLevel":1,"foodNutrientId":34206099},{"nutrientId":1004,"nutrientName":"Total lipid (fat)","nutrientNumber":"204","unitName":"G","value":5.42,"rank":800,"indentLevel":1,"foodNutrientId":34206100},{"nutrientId":1005,"nutrientName":"Carbohydrate, by difference","nutrientNumber":"205","unitName":"G","value":6.65,"rank":1110,"indentLevel":2,"foodNutrientId":34206101},{"nutrientId":1008,"nutrientName":"Energy","nutrientNumber":"208","unitName":"KCAL","value":93,"rank":300,"indentLevel":1,"foodNutrientId":34206102},{"nutrientId":1018,"nutrientName":"Alcohol, ethyl","nutrientNumber":"221","unitName":"G","value":0,"rank":18200,"indentLevel":1,"foodNutrientId":34206103},{"nutrientId":1051,"nutrientName":"Water","nutrientNumber":"255","unitName":"G","value":81.45,"rank":100,"indentLevel":1,"foodNutrientId":34206104},{"nutrientId":1057,"nutrientName":"Caffeine","nutrientNumber":"262","unitName":"MG","value":0,"rank":18300,"indentLevel":0,"foodNutrientId":34206105},{"nutrientId":1058,"nutrientName":"Theobromine","nutrientNumber":"263","unitName":"MG","value":0,"rank":18400,"indentLevel":0,"foodNutrientId":34206106},{"nutrientId":2000,"nutrientName":"Total Sugars","nutrientNumber":"269","unitName":"G","value":2.56,"rank":1510,"indentLevel":3,"foodNutrientId":34206107},{"nutrientId":1079,"nutrientName":"Fiber, total dietary","nutrientNumber":"291","unitName":"G","value":1.4,"rank":1200,"indentLevel":3,"foodNutrientId":34206108},{"nutrientId":1087,"nutrientName":"Calcium, Ca","nutrientNumber":"301","unitName":"MG","value":25,"rank":5300,"indentLevel":1,"foodNutrientId":34206109},{"nutrientId":1089,"nutrientName":"Iron, Fe","nutrientNumber":"303","unitName":"MG","value":0.62,"rank":5400,"indentLevel":1,"foodNutrientId":34206110},{"nutrientId":1090,"nutrientName":"Magnesium, Mg","nutrientNumber":"304","unitName":"MG","value":18,"rank":5500,"indentLevel":1,"foodNutrientId":34206111},{"nutrientId":1091,"nutrientName":"Phosphorus, P","nutrientNumber":"305","unitName":"MG","value":90,"rank":5600,"indentLevel":1,"foodNutrientId":34206112},{"nutrientId":1092,"nutrientName":"Potassium, K","nutrientNumber":"306","unitName":"MG","value":275,"rank":5700,"indentLevel":1,"foodNutrientId":34206113},{"nutrientId":1093,"nutrientName":"Sodium, Na","nutrientNumber":"307","unitName":"MG","value":351,"rank":5800,"indentLevel":1,"foodNutrientId":34206114},{"nutrientId":1095,"nutrientName":"Zinc, Zn","nutrientNumber":"309","unitName":"MG","value":0.37,"rank":5900,"indentLevel":1,"foodNutrientId":34206115},{"nutrientId":1098,"nutrientName":"Copper, Cu","nutrientNumber":"312","unitName":"MG","value":0.098,"rank":6000,"indentLevel":1,"foodNutrientId":34206116},{"nutrientId":1103,"nutrientName":"Selenium, Se","nutrientNumber":"317","unitName":"UG","value":7.4,"rank":6200,"indentLevel":1,"foodNutrientId":34206117},{"nutrientId":1105,"nutrientName":"Retinol","nutrientNumber":"319","unitName":"UG","value":9,"rank":7430,"indentLevel":2,"foodNutrientId":34206118},{"nutrientId":1106,"nutrientName":"Vitamin A, RAE","nutrientNumber":"320","unitName":"UG","value":55,"rank":7420,"indentLevel":1,"foodNutrientId":34206119},{"nutrientId":1107,"nutrientName":"Carotene, beta","nutrientNumber":"321","unitName":"UG","value":469,"rank":7440,"indentLevel":2,"foodNutrientId":34206120},{"nutrientId":1108,"nutrientName":"Carotene, alpha","nutrientNumber":"322","unitName":"UG","value":144,"rank":7450,"indentLevel":2,"foodNutrientId":34206121},{"nutrientId":1109,"nutrientName":"Vitamin E (alpha-tocopherol)","nutrientNumber":"323","unitName":"MG","value":1.58,"rank":7905,"indentLevel":1,"foodNutrientId":34206122},{"nutrientId":1114,"nutrientName":"Vitamin D (D2 + D3)","nutrientNumber":"328","unitName":"UG","value":0.1,"rank":8700,"indentLevel":1,"foodNutrientId":34206123},{"nutrientId":1120,"nutrientName":"Cryptoxanthin, beta","nutrientNumber":"334","unitName":"UG","value":1,"rank":7460,"indentLevel":2,"foodNutrientId":34206124},{"nutrientId":1122,"nutrientName":"Lycopene","nutrientNumber":"337","unitName":"UG","value":4521,"rank":7530,"indentLevel":1,"foodNutrientId":34206125},{"nutrientId":1123,"nutrientName":"Lutein + zeaxanthin","nutrientNumber":"338","unitName":"UG","value":95,"rank":7560,"indentLevel":1,"foodNutrientId":34206126},{"nutrientId":1162,"nutrientName":"Vitamin C, total ascorbic acid","nutrientNumber":"401","unitName":"MG","value":8.9,"rank":6300,"indentLevel":1,"foodNutrientId":34206127},{"nutrientId":1165,"nutrientName":"Thiamin","nutrientNumber":"404","unitName":"MG","value":0.039,"rank":6400,"indentLevel":1,"foodNutrientId":34206128},{"nutrientId":1166,"nutrientName":"Riboflavin","nutrientNumber":"405","unitName":"MG","value":0.056,"rank":6500,"indentLevel":1,"foodNutrientId":34206129},{"nutrientId":1167,"nutrientName":"Niacin","nutrientNumber":"406","unitName":"MG","value":1.278,"rank":6600,"indentLevel":1,"foodNutrientId":34206130},{"nutrientId":1175,"nutrientName":"Vitamin B-6","nutrientNumber":"415","unitName":"MG","value":0.151,"rank":6800,"indentLevel":1,"foodNutrientId":34206131},{"nutrientId":1177,"nutrientName":"Folate, total","nutrientNumber":"417","unitName":"UG","value":17,"rank":6900,"indentLevel":1,"foodNutrientId":34206132},{"nutrientId":1178,"nutrientName":"Vitamin B-12","nutrientNumber":"418","unitName":"UG","value":0.33,"rank":7300,"indentLevel":1,"foodNutrientId":34206133},{"nutrientId":1180,"nutrientName":"Choline, total","nutrientNumber":"421","unitName":"MG","value":27.5,"rank":7220,"indentLevel":1,"foodNutrientId":34206134},{"nutrientId":1185,"nutrientName":"Vitamin K (phylloquinone)","nutrientNumber":"430","unitName":"UG","value":8.8,"rank":8800,"indentLevel":1,"foodNutrientId":34206135},{"nutrientId":1186,"nutrientName":"Folic acid","nutrientNumber":"431","unitName":"UG","value":0,"rank":7000,"indentLevel":0,"foodNutrientId":34206136},{"nutrientId":1187,"nutrientName":"Folate, food","nutrientNumber":"432","unitName":"UG","value":17,"rank":7100,"indentLevel":1,"foodNutrientId":34206137},{"nutrientId":1190,"nutrientName":"Folate, DFE","nutrientNumber":"435","unitName":"UG","value":17,"rank":7200,"indentLevel":1,"foodNutrientId":34206138},{"nutrientId":1242,"nutrientName":"Vitamin E, added","nutrientNumber":"573","unitName":"MG","value":0,"rank":7920,"indentLevel":0,"foodNutrientId":34206139},{"nutrientId":1246,"nutrientName":"Vitamin B-12, added","nutrientNumber":"578","unitName":"UG","value":0,"rank":7340,"indentLevel":0,"foodNutrientId":34206140},{"nutrientId":1253,"nutrientName":"Cholesterol","nutrientNumber":"601","unitName":"MG","value":23,"rank":15700,"indentLevel":1,"foodNutrientId":34206141},{"nutrientId":1258,"nutrientName":"Fatty acids, total saturated","nutrientNumber":"606","unitName":"G","value":1.292,"rank":9700,"indentLevel":1,"foodNutrientId":34206142},{"nutrientId":1259,"nutrientName":"SFA 4:0","nutrientNumber":"607","unitName":"G","value":0.003,"rank":9800,"indentLevel":2,"foodNutrientId":34206143},{"nutrientId":1260,"nutrientName":"SFA 6:0","nutrientNumber":"608","unitName":"G","value":0.005,"rank":9900,"indentLevel":2,"foodNutrientId":34206144},{"nutrientId":1261,"nutrientName":"SFA 8:0","nutrientNumber":"609","unitName":"G","value":0.047,"rank":10000,"indentLevel":2,"foodNutrientId":34206145},{"nutrientId":1262,"nutrientName":"SFA 10:0","nutrientNumber":"610","unitName":"G","value":0.04,"rank":10100,"indentLevel":2,"foodNutrientId":34206146},{"nutrientId":1263,"nutrientName":"SFA 12:0","nutrientNumber":"611","unitName":"G","value":0.293,"rank":10300,"indentLevel":2,"foodNutrientId":34206147},{"nutrientId":1264,"nutrientName":"SFA 14:0","nutrientNumber":"612","unitName":"G","value":0.129,"rank":10500,"indentLevel":2,"foodNutrientId":34206148},{"nutrientId":1265,"nutrientName":"SFA 16:0","nutrientNumber":"613","unitName":"G","value":0.547,"rank":10700,"indentLevel":2,"foodNutrientId":34206149},{"nutrientId":1266,"nutrientName":"SFA 18:0","nutrientNumber":"614","unitName":"G","value":0.186,"rank":10900,"indentLevel":2,"foodNutrientId":34206150},{"nutrientId":1268,"nutrientName":"MUFA 18:1","nutrientNumber":"617","unitName":"G","value":1.861,"rank":12100,"indentLevel":2,"foodNutrientId":34206151},{"nutrientId":1269,"nutrientName":"PUFA 18:2","nutrientNumber":"618","unitName":"G","value":1.54,"rank":13100,"indentLevel":2,"foodNutrientId":34206152},{"nutrientId":1270,"nutrientName":"PUFA 18:3","nutrientNumber":"619","unitName":"G","value":0.196,"rank":13900,"indentLevel":2,"foodNutrientId":34206153},{"nutrientId":1271,"nutrientName":"PUFA 20:4","nutrientNumber":"620","unitName":"G","value":0.005,"rank":14700,"indentLevel":2,"foodNutrientId":34206154},{"nutrientId":1272,"nutrientName":"PUFA 22:6 n-3 (DHA)","nutrientNumber":"621","unitName":"G","value":0.02,"rank":15300,"indentLevel":2,"foodNutrientId":34206155},{"nutrientId":1275,"nutrientName":"MUFA 16:1","nutrientNumber":"626","unitName":"G","value":0.021,"rank":11700,"indentLevel":2,"foodNutrientId":34206156},{"nutrientId":1276,"nutrientName":"PUFA 18:4","nutrientNumber":"627","unitName":"G","value":0,"rank":14250,"indentLevel":2,"foodNutrientId":34206157},{"nutrientId":1277,"nutrientName":"MUFA 20:1","nutrientNumber":"628","unitName":"G","value":0.03,"rank":12400,"indentLevel":2,"foodNutrientId":34206158},{"nutrientId":1278,"nutrientName":"PUFA 20:5 n-3 (EPA)","nutrientNumber":"629","unitName":"G","value":0.014,"rank":15000,"indentLevel":2,"foodNutrientId":34206159},{"nutrientId":1279,"nutrientName":"MUFA 22:1","nutrientNumber":"630","unitName":"G","value":0,"rank":12500,"indentLevel":2,"foodNutrientId":34206160},{"nutrientId":1280,"nutrientName":"PUFA 22:5 n-3 (DPA)","nutrientNumber":"631","unitName":"G","value":0.001,"rank":15200,"indentLevel":2,"foodNutrientId":34206161},{"nutrientId":1292,"nutrientName":"Fatty acids, total monounsaturated","nutrientNumber":"645","unitName":"G","value":1.923,"rank":11400,"indentLevel":1,"foodNutrientId":34206162},{"nutrientId":1293,"nutrientName":"Fatty acids, total polyunsaturated","nutrientNumber":"646","unitName":"G","value":1.779,"rank":12900,"indentLevel":1,"foodNutrientId":34206163}],"finalFoodInputFoods":[{"foodDescription":"Salt, table","gramWeight":0.4,"id":127094,"portionCode":"0","portionDescription":"NONE","unit":"GM","rank":6,"retentionCode":0,"srCode":2047,"value":0.4},{"foodDescription":"Vegetable oil, NFS","gramWeight":2,"id":127093,"portionCode":"0","portionDescription":"NONE","unit":"GM","rank":5,"retentionCode":0,"srCode":82101000,"value":2.0},{"foodDescription":"Curry sauce","gramWeight":40,"id":127089,"portionCode":"0","portionDescription":"NONE","unit":"GM","rank":1,"retentionCode":0,"srCode":81312100,"value":40.0},{"foodDescription":"Vegetables as ingredient in curry","gramWeight":40,"id":127090,"portionCode":"0","portionDescription":"NONE","unit":"GM","rank":2,"retentionCode":0,"srCode":99997810,"value":40.0},{"foodDescription":"Shrimp, steamed or boiled","gramWeight":10,"id":127092,"portionCode":"0","portionDescription":"NONE","unit":"GM","rank":4,"retentionCode":0,"srCode":26319130,"value":10.0},{"foodDescription":"Fish, haddock, steamed","gramWeight":10,"id":127091,"portionCode":"0","portionDescription":"NONE","unit":"GM","rank":3,"retentionCode":0,"srCode":26117160,"value":10.0}],"foodMeasures":[{"disseminationText":"Quantity not specified","gramWeight":240,"id":295371,"modifier":"90000","rank":2,"measureUnitAbbreviation":"undetermined","measureUnitName":"undetermined","measureUnitId":9999},{"disseminationText":"1 cup","gramWeight":240,"id":295370,"modifier":"10205","rank":1,"measureUnitAbbreviation":"undetermined","measureUnitName":"undetermined","measureUnitId":9999}],"foodAttributes":[{"value":"shrimp","id":3310993,"sequenceNumber":1},{"value":"other seafood","id":3310994,"sequenceNumber":2},{"value":"Moisture change: 0%","id":3319900},{"value":"Seafood mixed dishes","name":"WWEIA Category description","id":3300468},{"value":"3006","name":"WWEIA Category number","id":3300467}],"foodAttributeTypes":[{"name":"Additional Description","description":"Additional descriptions for the food.","id":1001,"foodAttributes":[{"value":"shrimp","id":3310993,"sequenceNumber":1},{"value":"other seafood","id":3310994,"sequenceNumber":2}]},{"name":"Adjustments","description":"Adjustments made to foods, including moisture changes","id":1002,"foodAttributes":[{"value":"Moisture change: 0%","id":3319900}]},{"name":"Attribute","description":"Generic attributes","id":999,"foodAttributes":[{"value":"Seafood mixed dishes","name":"WWEIA Category description","id":3300468},{"value":"3006","name":"WWEIA Category number","id":3300467}]}],"foodVersionIds":[]}],"aggregations":{"dataType":{"Branded":9518,"SR Legacy":254,"Survey (FNDDS)":188,"Foundation":8,"Experimental":1},"nutrients":{}}}
