{"totalHits":4246,"currentPage":1,"totalPages":4246,"pageList":[1,2,3,4,5,6,7,8,9,10],"foodSearchCriteria":{"query":"Shepherd's Pie","generalSearchInput":"Shepherd's Pie","pageNumber":1,"numberOfResultsPerPage":50,"pageSize":1,"requireAllWords":false},"foods":[{"fdcId":2706594,"description":"Shepherd's pie","commonNames":"","additionalDescriptions":"","dataType":"Survey (FNDDS)","foodCode":27311510,"publishedDate":"2024-10-31","foodCategory":"Meat mixed dishes","foodCategoryId":3300736,"allHighlightFields":"","score":2119.4524,"microbes":[],"foodNutrients":[{"nutrientId":1003,"nutrientName":"Protein","nutrientNumber":"203","unitName":"G","value":7.64,"rank":600,"indentLevel":1,"foodNutrientId":34214809},{"nutrientId":1004,"nutrientName":"Total lipid (fat)","nutrientNumber":"204","unitName":"G","value":6.3,"rank":800,"indentLevel":1,"foodNutrientId":34214810},{"nutrientId":1005,"nutrientName":"Carbohydrate, by difference","nutrientNumber":"205","unitName":"G","value":8.72,"rank":1110,"indentLevel":2,"foodNutrientId":34214811},{"nutrientId":1008,"nutrientName":"Energy","nutrientNumber":"208","unitName":"KCAL","value":123,"rank":300,"indentLevel":1,"foodNutrientId":34214812},{"nutrientId":1018,"nutrientName":"Alcohol, ethyl","nutrientNumber":"221","unitName":"G","value":0,"rank":18200,"indentLevel":1,"foodNutrientId":34214813},{"nutrientId":1051,"nutrientName":"Water","nutrientNumber":"255","unitName":"G","value":76.09,"rank":100,"indentLevel":1,"foodNutrientId":34214814},{"nutrientId":1057,"nutrientName":"Caffeine","nutrientNumber":"262","unitName":"MG","value":0,"rank":18300,"indentLevel":0,"foodNutrientId":34214815},{"nutrientId":1058,"nutrientName":"Theobromine","nutrientNumber":"263","unitName":"MG","value":0,"rank":18400,"indentLevel":0,"foodNutrientId":34214816},{"nutrientId":2000,"nutrientName":"Total Sugars","nutrientNumber":"269","unitName":"G","value":1.88,"rank":1510,"indentLevel":3,"foodNutrientId":34214817},{"nutrientId":1079,"nutrientName":"Fiber, total dietary","nutrientNumber":"291","unitName":"G","value":1.5,"rank":1200,"indentLevel":3,"foodNutrientId":34214818},{"nutrientId":1087,"nutrientName":"Calcium, Ca","nutrientNumber":"301","unitName":"MG","value":26,"rank":5300,"indentLevel":1,"foodNutrientId":34214819},{"nutrientId":1089,"nutrientName":"Iron, Fe","nutrientNumber":"303","unitName":"MG","value":0.93,"rank":5400,"indentLevel":1,"foodNutrientId":34214820},{"nutrientId":1090,"nutrientName":"Magnesium, Mg","nutrientNumber":"304","unitName":"MG","value":15,"rank":5500,"indentLevel":1,"foodNutrientId":34214821},{"nutrientId":1091,"nutrientName":"Phosphorus, P","nutrientNumber":"305","unitName":"MG","value":87,"rank":5600,"indentLevel":1,"foodNutrientId":34214822},{"nutrientId":1092,"nutrientName":"Potassium, K","nutrientNumber":"306","unitName":"MG","value":250,"rank":5700,"indentLevel":1,"foodNutrientId":34214823},{"nutrientId":1093,"nutrientName":"Sodium, Na","nutrientNumber":"307","unitName":"MG","value":264,"rank":5800,"indentLevel":1,"foodNutrientId":34214824},{"nutrientId":1095,"nutrientName":"Zinc, Zn","nutrientNumber":"309","unitName":"MG","value":1.69,"rank":5900,"indentLevel":1,"foodNutrientId":34214825},{"nutrientId":1098,"nutrientName":"Copper, Cu","nutrientNumber":"312","unitName":"MG","value":0.055,"rank":6000,"indentLevel":1,"foodNutrientId":34214826},{"nutrientId":1103,"nutrientName":"Selenium, Se","nutrientNumber":"317","unitName":"UG","value":6.2,"rank":6200,"indentLevel":1,"foodNutrientId":34214827},{"nutrientId":1105,"nutrientName":"Retinol","nutrientNumber":"319","unitName":"UG","value":22,"rank":7430,"indentLevel":2,"foodNutrientId":34214828},{"nutrientId":1106,"nutrientName":"Vitamin A, RAE","nutrientNumber":"320","unitName":"UG","value":79,"rank":7420,"indentLevel":1,"foodNutrientId":34214829},{"nutrientId":1107,"nutrientName":"Carotene, beta","nutrientNumber":"321","unitName":"UG","value":581,"rank":7440,"indentLevel":2,"foodNutrientId":34214830},{"nutrientId":1108,"nutrientName":"Carotene, alpha","nutrientNumber":"322","unitName":"UG","value":203,"rank":7450,"indentLevel":2,"foodNutrientId":34214831},{"nutrientId":1109,"nutrientName":"Vitamin E (alpha-tocopherol)","nutrientNumber":"323","unitName":"MG","value":0.33,"rank":7905,"indentLevel":1,"foodNutrientId":34214832},{"nutrientId":1114,"nutrientName":"Vitamin D (D2 + D3)","nutrientNumber":"328","unitName":"UG","value":0.1,"rank":8700,"indentLevel":1,"foodNutrientId":34214833},{"nutrientId":1120,"nutrientName":"Cryptoxanthin, beta","nutrientNumber":"334","unitName":"UG","value":0,"rank":7460,"indentLevel":2,"foodNutrientId":34214834},{"nutrientId":1122,"nutrientName":"Lycopene","nutrientNumber":"337","unitName":"UG","value":1277,"rank":7530,"indentLevel":1,"foodNutrientId":34214835},{"nutrientId":1123,"nutrientName":"Lutein + zeaxanthin","nutrientNumber":"338","unitName":"UG","value":156,"rank":7560,"indentLevel":1,"foodNutrientId":34214836},{"nutrientId":1162,"nutrientName":"Vitamin C, total ascorbic acid","nutrientNumber":"401","unitName":"MG","value":2,"rank":6300,"indentLevel":1,"foodNutrientId":34214837},{"nutrientId":1165,"nutrientName":"Thiamin","nutrientNumber":"404","unitName":"MG","value":0.076,"rank":6400,"indentLevel":1,"foodNutrientId":34214838},{"nutrientId":1166,"nutrientName":"Riboflavin","nutrientNumber":"405","unitName":"MG","value":0.105,"rank":6500,"indentLevel":1,"foodNutrientId":34214839},{"nutrientId":1167,"nutrientName":"Niacin","nutrientNumber":"406","unitName":"MG","value":1.972,"rank":6600,"indentLevel":1,"foodNutrientId":34214840},{"nutrientId":1175,"nutrientName":"Vitamin B-6","nutrientNumber":"415","unitName":"MG","value":0.176,"rank":6800,"indentLevel":1,"foodNutrientId":34214841},{"nutrientId":1177,"nutrientName":"Folate, total","nutrientNumber":"417","unitName":"UG","value":12,"rank":6900,"indentLevel":1,"foodNutrientId":34214842},{"nutrientId":1178,"nutrientName":"Vitamin B-12","nutrientNumber":"418","unitName":"UG","value":0.69,"rank":7300,"indentLevel":1,"foodNutrientId":34214843},{"nutrientId":1180,"nutrientName":"Choline, total","nutrientNumber":"421","unitName":"MG","value":30.7,"rank":7220,"indentLevel":1,"foodNutrientId":34214844},{"nutrientId":1185,"nutrientName":"Vitamin K (phylloquinone)","nutrientNumber":"430","unitName":"UG","value":3.9,"rank":8800,"indentLevel":1,"foodNutrientId":34214845},{"nutrientId":1186,"nutrientName":"Folic acid","nutrientNumber":"431","unitName":"UG","value":0,"rank":7000,"indentLevel":0,"foodNutrientId":34214846},{"nutrientId":1187,"nutrientName":"Folate, food","nutrientNumber":"432","unitName":"UG","value":12,"rank":7100,"indentLevel":1,"foodNutrientId":34214847},{"nutrientId":1190,"nutrientName":"Folate, DFE","nutrientNumber":"435","unitName":"UG","value":12,"rank":7200,"indentLevel":1,"foodNutrientId":34214848},{"nutrientId":1242,"nutrientName":"Vitamin E, added","nutrientNumber":"573","unitName":"MG","value":0,"rank":7920,"indentLevel":0,"foodNutrientId":34214849},{"nutrientId":1246,"nutrientName":"Vitamin B-12, added","nutrientNumber":"578","unitName":"UG","value":0,"rank":7340,"indentLevel":0,"foodNutrientId":34214850},{"nutrientId":1253,"nutrientName":"Cholesterol","nutrientNumber":"601","unitName":"MG","value":27,"rank":15700,"indentLevel":1,"foodNutrientId":34214851},{"nutrientId":1258,"nutrientName":"Fatty acids, total saturated","nutrientNumber":"606","unitName":"G","value":2.67,"rank":9700,"indentLevel":1,"foodNutrientId":34214852},{"nutrientId":1259,"nutrientName":"SFA 4:0","nutrientNumber":"607","unitName":"G","value":0.036,"rank":9800,"indentLevel":2,"foodNutrientId":34214853},{"nutrientId":1260,"nutrientName":"SFA 6:0","nutrientNumber":"608","unitName":"G","value":0.028,"rank":9900,"indentLevel":2,"foodNutrientId":34214854},{"nutrientId":1261,"nutrientName":"SFA 8:0","nutrientNumber":"609","unitName":"G","value":0.018,"rank":10000,"indentLevel":2,"foodNutrientId":34214855},{"nutrientId":1262,"nutrientName":"SFA 10:0","nutrientNumber":"610","unitName":"G","value":0.047,"rank":10100,"indentLevel":2,"foodNutrientId":34214856},{"nutrientId":1263,"nutrientName":"SFA 12:0","nutrientNumber":"611","unitName":"G","value":0.055,"rank":10300,"indentLevel":2,"foodNutrientId":34214857},{"nutrientId":1264,"nutrientName":"SFA 14:0","nutrientNumber":"612","unitName":"G","value":0.279,"rank":10500,"indentLevel":2,"foodNutrientId":34214858},{"nutrientId":1265,"nutrientName":"SFA 16:0","nutrientNumber":"613","unitName":"G","value":1.438,"rank":10700,"indentLevel":2,"foodNutrientId":34214859},{"nutrientId":1266,"nutrientName":"SFA 18:0","nutrientNumber":"614","unitName":"G","value":0.676,"rank":10900,"indentLevel":2,"foodNutrientId":34214860},{"nutrientId":1268,"nutrientName":"MUFA 18:1","nutrientNumber":"617","unitName":"G","value":2.07,"rank":12100,"indentLevel":2,"foodNutrientId":34214861},{"nutrientId":1269,"nutrientName":"PUFA 18:2","nutrientNumber":"618","unitName":"G","value":0.397,"rank":13100,"indentLevel":2,"foodNutrientId":34214862},{"nutrientId":1270,"nutrientName":"PUFA 18:3","nutrientNumber":"619","unitName":"G","value":0.058,"rank":13900,"indentLevel":2,"foodNutrientId":34214863},{"nutrientId":1271,"nutrientName":"PUFA 20:4","nutrientNumber":"620","unitName":"G","value":0.014,"rank":14700,"indentLevel":2,"foodNutrientId":34214864},{"nutrientId":1272,"nutrientName":"PUFA 22:6 n-3 (DHA)","nutrientNumber":"621","unitName":"G","value":0,"rank":15300,"indentLevel":2,"foodNutrientId":34214865},{"nutrientId":1275,"nutrientName":"MUFA 16:1","nutrientNumber":"626","unitName":"G","value":0.188,"rank":11700,"indentLevel":2,"foodNutrientId":34214866},{"nutrientId":1276,"nutrientName":"PUFA 18:4","nutrientNumber":"627","unitName":"G","value":0,"rank":14250,"indentLevel":2,"foodNutrientId":34214867},{"nutrientId":1277,"nutrientName":"MUFA 20:1","nutrientNumber":"628","unitName":"G","value":0.017,"rank":12400,"indentLevel":2,"foodNutrientId":34214868},{"nutrientId":1278,"nutrientName":"PUFA 20:5 n-3 (EPA)","nutrientNumber":"629","unitName":"G","value":0.001,"rank":15000,"indentLevel":2,"foodNutrientId":34214869},{"nutrientId":1279,"nutrientName":"MUFA 22:1","nutrientNumber":"630","unitName":"G","value":0,"rank":12500,"indentLevel":2,"foodNutrientId":34214870},{"nutrientId":1280,"nutrientName":"PUFA 22:5 n-3 (DPA)","nutrientNumber":"631","unitName":"G","value":0.003,"rank":15200,"indentLevel":2,"foodNutrientId":34214871},{"nutrientId":1292,"nutrientName":"Fatty acids, total monounsaturated","nutrientNumber":"645","unitName":"G","value":2.362,"rank":11400,"indentLevel":1,"foodNutrientId":34214872},{"nutrientId":1293,"nutrientName":"Fatty acids, total polyunsaturated","nutrientNumber":"646","unitName":"G","value":0.479,"rank":12900,"indentLevel":1,"foodNutrientId":34214873}],"finalFoodInputFoods":[{"foodDescription":"Peas, green, frozen, cooked, boiled, drained, without salt","gramWeight":50,"id":127966,"portionCode":"0","portionDescription":"NONE","unit":"GM","rank":6,"retentionCode":0,"srCode":11313,"value":50.0},{"foodDescription":"Potatoes, mashed, ready-to-eat","gramWeight":350,"id":127967,"portionCode":"0","portionDescription":"NONE","unit":"GM","rank":7,"retentionCode":0,"srCode":31036,"value":350},{"foodDescription":"Gravy, chicken, canned or bottled, ready-to-serve","gramWeight":100,"id":127962,"portionCode":"0","portionDescription":"NONE","unit":"GM","rank":2,"retentionCode":0,"srCode":6119,"value":100},{"foodDescription":"Beef as ingredient in recipes","gramWeight":200,"id":127961,"portionCode":"0","portionDescription":"NONE","unit":"GM","rank":1,"retentionCode":0,"srCode":99992100,"value":200},{"foodDescription":"Onions, cooked, as ingredient","gramWeight":50,"id":127964,"portionCode":"0","portionDescription":"NONE","unit":"GM","rank":4,"retentionCode":0,"srCode":99997510,"value":50.0},{"foodDescription":"Tomato products, canned, puree, without salt added","gramWeight":50,"id":127963,"portionCode":"0","portionDescription":"NONE","unit":"GM","rank":3,"retentionCode":0,"srCode":11547,"value":50.0},{"foodDescription":"Salt, table","gramWeight":1.5,"id":127968,"portionCode":"0","portionDescription":"NONE","unit":"GM","rank":8,"retentionCode":0,"srCode":2047,"value":1.5},{"foodDescription":"Carrots, cooked, as ingredient","gramWeight":50,"id":127965,"portionCode":"0","portionDescription":"NONE","unit":"GM","rank":5,"retentionCode":0,"srCode":99997310,"value":50.0}],"foodMeasures":[{"disseminationText":"1 cubic inch","gramWeight":10,"id":295780,"modifier":"51000","rank":5,"measureUnitAbbreviation":"undetermined","measureUnitName":"undetermined","measureUnitId":9999},{"disseminationText":"1 pie, any size","gramWeight":1260,"id":295778,"modifier":"64752","rank":3,"measureUnitAbbreviation":"undetermined","measureUnitName":"undetermined","measureUnitId":9999},{"disseminationText":"1 individual pie","gramWeight":250,"id":295777,"modifier":"60877","rank":2,"measureUnitAbbreviation":"undetermined","measureUnitName":"undetermined","measureUnitId":9999},{"disseminationText":"1 slice, any size","gramWeight":210,"id":295776,"modifier":"64612","rank":1,"measureUnitAbbreviation":"undetermined","measureUnitName":"undetermined","measureUnitId":9999},{"disseminationText":"1 cup","gramWeight":200,"id":295779,"modifier":"10205","rank":4,"measureUnitAbbreviation":"undetermined","measureUnitName":"undetermined","measureUnitId":9999},{"disseminationText":"Quantity not specified","gramWeight":250,"id":295781,"modifier":"90000","rank":6,"measureUnitAbbreviation":"undetermined","measureUnitName":"undetermined","measureUnitId":9999}],"foodAttributes":[{"value":"Meat mixed dishes","name":"WWEIA Category description","id":3300736},{"value":"Moisture change: 0%","id":3320034},{"value":"3002","name":"WWEIA Category number","id":3300735}],"foodAttributeTypes":[{"name":"Adjustments","description":"Adjustments made to foods, including moisture changes","id":1002,"foodAttributes":[{"value":"Moisture change: 0%","id":3320034}]},{"name":"Attribute","description":"Generic attributes","id":999,"foodAttributes":[{"value":"Meat mixed dishes","name":"WWEIA Category description","id":3300736},{"value":"3002","name":"WWEIA Category number","id":3300735}]}],"foodVersionIds":[]}],"aggregations":{"dataType":{"Branded":4145,"SR Legacy":53,"Survey (FNDDS)":47,"Foundation":1},"nutrients":{}}}
