{"totalHits":9550,"currentPage":1,"totalPages":9550,"pageList":[1,2,3,4,5,6,7,8,9,10],"foodSearchCriteria":{"query":"Tom Yum Soup","generalSearchInput":"Tom Yum Soup","pageNumber":1,"numberOfResultsPerPage":50,"pageSize":1,"requireAllWords":false},"foods":[{"fdcId":1085623,"description":"TOM YUM SOUP","dataType":"Branded","gtinUpc":"8850539250023","publishedDate":"2020-09-29","brandOwner":"MAESRI","ingredients":"WATER 80%, OYSTER MUSHROOM 4%, LEMONGRASS 3%, SALT 2%, SHRIMP CHILI PASTE (GARLIC, SHALLOT, DRIED  CHILI, TAMARIND SAUCE, SOYBEAN OIL, FISH SAUCE, DRIED SHRIMP, GALANGAL) 2%, SUGAR 1.8%, STRAW MUSHROOM 1.5%, LIME JUICE 1.3%, SOYBEAN OIL 1%, FRESH RED CHILI 1%, FISH SAUCE (ANCHOVY EXTRACT, SALT, SUGAR) 1% FLAVOUR ENHANCER: MONOSODIUM GLUTAMATE 0.5%, CORIANDER 0.4%, KAFFIR LIME LEAVES 0.3%, ACIDURANT : CITRIC ACID 0.2%.","marketCountry":"United States","foodCategory":"Canned Soup","modifiedDate":"2020-08-26","dataSource":"LI","servingSizeUnit":"ml","servingSize":133.0,"householdServingFullText":"0.333 CAN","tradeChannels":["NO_TRADE_CHANNEL"],"allHighlightFields":"","score":2222.4307,"microbes":[],"foodNutrients":[{"nutrientId":1003,"nutrientName":"Protein","nutrientNumber":"203","unitName":"G","derivationCode":"LCCS","derivationDescription":"Calculated from value per serving size measure","derivationId":70,"value":0.0,"foodNutrientSourceId":9,"foodNutrientSourceCode":"12","foodNutrientSourceDescription":"Manufacturer's analytical; partial documentation","rank":600,"indentLevel":1,"foodNutrientId":12709031,"percentDailyValue":0},{"nutrientId":1004,"nutrientName":"Total lipid (fat)","nutrientNumber":"204","unitName":"G","derivationCode":"LCCS","derivationDescription":"Calculated from value per serving size measure","derivationId":70,"value":0.75,"foodNutrientSourceId":9,"foodNutrientSourceCode":"12","foodNutrientSourceDescription":"Manufacturer's analytical; partial documentation","rank":800,"indentLevel":1,"foodNutrientId":12709033,"percentDailyValue":2},{"nutrientId":1005,"nutrientName":"Carbohydrate, by difference","nutrientNumber":"205","unitName":"G","derivationCode":"LCCS","derivationDescription":"Calculated from value per serving size measure","derivationId":70,"value":3.76,"foodNutrientSourceId":9,"foodNutrientSourceCode":"12","foodNutrientSourceDescription":"Manufacturer's analytical; partial documentation","rank":1110,"indentLevel":2,"foodNutrientId":12709035,"percentDailyValue":2},{"nutrientId":1008,"nutrientName":"Energy","nutrientNumber":"208","unitName":"KCAL","derivationCode":"LCCS","derivationDescription":"Calculated from value per serving size measure","derivationId":70,"value":23.0,"foodNutrientSourceId":9,"foodNutrientSourceCode":"12","foodNutrientSourceDescription":"Manufacturer's analytical; partial documentation","rank":300,"indentLevel":1,"foodNutrientId":12709037,"percentDailyValue":0},{"nutrientId":2000,"nutrientName":"Total Sugars","nutrientNumber":"269","unitName":"G","derivationCode":"LCCS","derivationDescription":"Calculated from value per serving size measure","derivationId":70,"value":3.01,"foodNutrientSourceId":9,"foodNutrientSourceCode":"12","foodNutrientSourceDescription":"Manufacturer's analytical; partial documentation","rank":1510,"indentLevel":3,"foodNutrientId":12709039,"percentDailyValue":0},{"nutrientId":1079,"nutrientName":"Fiber, total dietary","nutrientNumber":"291","unitName":"G","derivationCode":"LCCS","derivationDescription":"Calculated from value per serving size measure","derivationId":70,"value":0.8,"foodNutrientSourceId":9,"foodNutrientSourceCode":"12","foodNutrientSourceDescription":"Manufacturer's analytical; partial documentation","rank":1200,"indentLevel":3,"foodNutrientId":12709041,"percentDailyValue":4},{"nutrientId":1087,"nutrientName":"Calcium, Ca","nutrientNumber":"301","unitName":"MG","derivationCode":"LCCD","derivationDescription":"Calculated from a daily value percentage per serving size measure","derivationId":75,"value":0.0,"foodNutrientSourceId":9,"foodNutrientSourceCode":"12","foodNutrientSourceDescription":"Manufacturer's analytical; partial documentation","rank":5300,"indentLevel":1,"foodNutrientId":12709043,"percentDailyValue":0},{"nutrientId":1089,"nutrientName":"Iron, Fe","nutrientNumber":"303","unitName":"MG","derivationCode":"LCCD","derivationDescription":"Calculated from a daily value percentage per serving size measure","derivationId":75,"value":0.27,"foodNutrientSourceId":9,"foodNutrientSourceCode":"12","foodNutrientSourceDescription":"Manufacturer's analytical; partial documentation","rank":5400,"indentLevel":1,"foodNutrientId":12709045,"percentDailyValue":2},{"nutrientId":1093,"nutrientName":"Sodium, Na","nutrientNumber":"307","unitName":"MG","derivationCode":"LCCS","derivationDescription":"Calculated from value per serving size measure","derivationId":70,"value":940,"foodNutrientSourceId":9,"foodNutrientSourceCode":"12","foodNutrientSourceDescription":"Manufacturer's analytical; partial documentation","rank":5800,"indentLevel":1,"foodNutrientId":12709047,"percentDailyValue":52},{"nutrientId":1104,"nutrientName":"Vitamin A, IU","nutrientNumber":"318","unitName":"IU","derivationCode":"LCCD","derivationDescription":"Calculated from a daily value percentage per serving size measure","derivationId":75,"value":0.0,"foodNutrientSourceId":9,"foodNutrientSourceCode":"12","foodNutrientSourceDescription":"Manufacturer's analytical; partial documentation","rank":7500,"indentLevel":1,"foodNutrientId":12709049,"percentDailyValue":0},{"nutrientId":1162,"nutrientName":"Vitamin C, total ascorbic acid","nutrientNumber":"401","unitName":"MG","derivationCode":"LCCD","derivationDescription":"Calculated from a daily value percentage per serving size measure","derivationId":75,"value":0.0,"foodNutrientSourceId":9,"foodNutrientSourceCode":"12","foodNutrientSourceDescription":"Manufacturer's analytical; partial documentation","rank":6300,"indentLevel":1,"foodNutrientId":12709051,"percentDailyValue":0},{"nutrientId":1253,"nutrientName":"Cholesterol","nutrientNumber":"601","unitName":"MG","derivationCode":"LCCD","derivationDescription":"Calculated from a daily value percentage per serving size measure","derivationId":75,"value":0.0,"foodNutrientSourceId":9,"foodNutrientSourceCode":"12","foodNutrientSourceDescription":"Manufacturer's analytical; partial documentation","rank":15700,"indentLevel":1,"foodNutrientId":12709053,"percentDailyValue":0},{"nutrientId":1258,"nutrientName":"Fatty acids, total saturated","nutrientNumber":"606","unitName":"G","derivationCode":"LCCD","derivationDescription":"Calculated from a daily value percentage per serving size measure","derivationId":75,"value":0.0,"foodNutrientSourceId":9,"foodNutrientSourceCode":"12","foodNutrientSourceDescription":"Manufacturer's analytical; partial documentation","rank":9700,"indentLevel":1,"foodNutrientId":12709055,"percentDailyValue":0}],"finalFoodInputFoods":[],"foodMeasures":[],"foodAttributes":[{"value":"3","name":"Ingredients","id":942011},{"value":"2","name":"Description","id":942009}],"foodAttributeTypes":[{"name":"Update Log","description":"Changes that were made to this food","id":998,"foodAttributes":[{"value":"3","name":"Ingredients","id":942011},{"value":"2","name":"Description","id":942009}]}],"foodVersionIds":[]}],"aggregations":{"dataType":{"Branded":9189,"SR Legacy":262,"Survey (FNDDS)":97,"Foundation":2},"nutrients":{}}}
