{"totalHits":803,"currentPage":1,"totalPages":803,"pageList":[1,2,3,4,5,6,7,8,9,10],"foodSearchCriteria":{"query":"Tofu","generalSearchInput":"Tofu","pageNumber":1,"numberOfResultsPerPage":50,"pageSize":1,"requireAllWords":false},"foods":[{"fdcId":2294522,"description":"TOFU","dataType":"Branded","gtinUpc":"077254112070","publishedDate":"2022-05-23","brandOwner":"Aloha Tofu Factory Inc","brandName":"ALOHA TOFU","ingredients":"NON-GMO WHOLE SOYBEANS, WATER, BIG ISLAND DEEP-SEA NIGARI (MAGNESIUM CHLORIDE A COAGULANT), CALCIUM SULFATE (A COAGULANT)","marketCountry":"United States","foodCategory":"Other Meats","modifiedDate":"2022-04-12","dataSource":"LI","packageWeight":"16 OZ/454 G","servingSizeUnit":"g","servingSize":113.0,"householdServingFullText":"4 oz.","shortDescription":"","tradeChannels":["NO_TRADE_CHANNEL"],"allHighlightFields":"<b>Brand Owner</b>: Aloha <em>Tofu</em> Factory Inc","score":1216.6278,"microbes":[],"foodNutrients":[{"nutrientId":2000,"nutrientName":"Total Sugars","nutrientNumber":"269","unitName":"G","derivationCode":"LCCS","derivationDescription":"Calculated from value per serving size measure","derivationId":70,"value":0.0,"foodNutrientSourceId":9,"foodNutrientSourceCode":"12","foodNutrientSourceDescription":"Manufacturer's analytical; partial documentation","rank":1510,"indentLevel":3,"foodNutrientId":28147506},{"nutrientId":1257,"nutrientName":"Fatty acids, total trans","nutrientNumber":"605","unitName":"G","derivationCode":"LCCS","derivationDescription":"Calculated from value per serving size measure","derivationId":70,"value":0.0,"foodNutrientSourceId":9,"foodNutrientSourceCode":"12","foodNutrientSourceDescription":"Manufacturer's analytical; partial documentation","rank":15400,"indentLevel":1,"foodNutrientId":28147507}],"finalFoodInputFoods":[],"foodMeasures":[],"foodAttributes":[],"foodAttributeTypes":[],"foodVersionIds":[]}],"aggregations":{"dataType":{"Branded":749,"SR Legacy":34,"Survey (FNDDS)":20},"nutrients":{}}}
