{"totalHits":20807,"currentPage":1,"totalPages":20807,"pageList":[1,2,3,4,5,6,7,8,9,10],"foodSearchCriteria":{"query":"Pork Chop","generalSearchInput":"Pork Chop","pageNumber":1,"numberOfResultsPerPage":50,"pageSize":1,"requireAllWords":false},"foods":[{"fdcId":2705872,"description":"Pork, chop, stuffed","commonNames":"","additionalDescriptions":"","dataType":"Survey (FNDDS)","foodCode":22101330,"publishedDate":"2024-10-31","foodCategory":"Meat mixed dishes","foodCategoryId":3299292,"allHighlightFields":"","score":645.7243,"microbes":[],"foodNutrients":[{"nutrientId":1003,"nutrientName":"Protein","nutrientNumber":"203","unitName":"G","value":18.37,"rank":600,"indentLevel":1,"foodNutrientId":34167879},{"nutrientId":1004,"nutrientName":"Total lipid (fat)","nutrientNumber":"204","unitName":"G","value":9.04,"rank":800,"indentLevel":1,"foodNutrientId":34167880},{"nutrientId":1005,"nutrientName":"Carbohydrate, by difference","nutrientNumber":"205","unitName":"G","value":7.82,"rank":1110,"indentLevel":2,"foodNutrientId":34167881},{"nutrientId":1008,"nutrientName":"Energy","nutrientNumber":"208","unitName":"KCAL","value":190,"rank":300,"indentLevel":1,"foodNutrientId":34167882},{"nutrientId":1018,"nutrientName":"Alcohol, ethyl","nutrientNumber":"221","unitName":"G","value":0,"rank":18200,"indentLevel":1,"foodNutrientId":34167883},{"nutrientId":1051,"nutrientName":"Water","nutrientNumber":"255","unitName":"G","value":62.96,"rank":100,"indentLevel":1,"foodNutrientId":34167884},{"nutrientId":1057,"nutrientName":"Caffeine","nutrientNumber":"262","unitName":"MG","value":0,"rank":18300,"indentLevel":0,"foodNutrientId":34167885},{"nutrientId":1058,"nutrientName":"Theobromine","nutrientNumber":"263","unitName":"MG","value":0,"rank":18400,"indentLevel":0,"foodNutrientId":34167886},{"nutrientId":2000,"nutrientName":"Total Sugars","nutrientNumber":"269","unitName":"G","value":0,"rank":1510,"indentLevel":3,"foodNutrientId":34167887},{"nutrientId":1079,"nutrientName":"Fiber, total dietary","nutrientNumber":"291","unitName":"G","value":1,"rank":1200,"indentLevel":3,"foodNutrientId":34167888},{"nutrientId":1087,"nutrientName":"Calcium, Ca","nutrientNumber":"301","unitName":"MG","value":15,"rank":5300,"indentLevel":1,"foodNutrientId":34167889},{"nutrientId":1089,"nutrientName":"Iron, Fe","nutrientNumber":"303","unitName":"MG","value":0.73,"rank":5400,"indentLevel":1,"foodNutrientId":34167890},{"nutrientId":1090,"nutrientName":"Magnesium, Mg","nutrientNumber":"304","unitName":"MG","value":22,"rank":5500,"indentLevel":1,"foodNutrientId":34167891},{"nutrientId":1091,"nutrientName":"Phosphorus, P","nutrientNumber":"305","unitName":"MG","value":174,"rank":5600,"indentLevel":1,"foodNutrientId":34167892},{"nutrientId":1092,"nutrientName":"Potassium, K","nutrientNumber":"306","unitName":"MG","value":293,"rank":5700,"indentLevel":1,"foodNutrientId":34167893},{"nutrientId":1093,"nutrientName":"Sodium, Na","nutrientNumber":"307","unitName":"MG","value":414,"rank":5800,"indentLevel":1,"foodNutrientId":34167894},{"nutrientId":1095,"nutrientName":"Zinc, Zn","nutrientNumber":"309","unitName":"MG","value":1.34,"rank":5900,"indentLevel":1,"foodNutrientId":34167895},{"nutrientId":1098,"nutrientName":"Copper, Cu","nutrientNumber":"312","unitName":"MG","value":0.073,"rank":6000,"indentLevel":1,"foodNutrientId":34167896},{"nutrientId":1103,"nutrientName":"Selenium, Se","nutrientNumber":"317","unitName":"UG","value":40.6,"rank":6200,"indentLevel":1,"foodNutrientId":34167897},{"nutrientId":1105,"nutrientName":"Retinol","nutrientNumber":"319","unitName":"UG","value":27,"rank":7430,"indentLevel":2,"foodNutrientId":34167898},{"nutrientId":1106,"nutrientName":"Vitamin A, RAE","nutrientNumber":"320","unitName":"UG","value":28,"rank":7420,"indentLevel":1,"foodNutrientId":34167899},{"nutrientId":1107,"nutrientName":"Carotene, beta","nutrientNumber":"321","unitName":"UG","value":21,"rank":7440,"indentLevel":2,"foodNutrientId":34167900},{"nutrientId":1108,"nutrientName":"Carotene, alpha","nutrientNumber":"322","unitName":"UG","value":0,"rank":7450,"indentLevel":2,"foodNutrientId":34167901},{"nutrientId":1109,"nutrientName":"Vitamin E (alpha-tocopherol)","nutrientNumber":"323","unitName":"MG","value":0.43,"rank":7905,"indentLevel":1,"foodNutrientId":34167902},{"nutrientId":1114,"nutrientName":"Vitamin D (D2 + D3)","nutrientNumber":"328","unitName":"UG","value":0.4,"rank":8700,"indentLevel":1,"foodNutrientId":34167903},{"nutrientId":1120,"nutrientName":"Cryptoxanthin, beta","nutrientNumber":"334","unitName":"UG","value":0,"rank":7460,"indentLevel":2,"foodNutrientId":34167904},{"nutrientId":1122,"nutrientName":"Lycopene","nutrientNumber":"337","unitName":"UG","value":0,"rank":7530,"indentLevel":1,"foodNutrientId":34167905},{"nutrientId":1123,"nutrientName":"Lutein + zeaxanthin","nutrientNumber":"338","unitName":"UG","value":0,"rank":7560,"indentLevel":1,"foodNutrientId":34167906},{"nutrientId":1162,"nutrientName":"Vitamin C, total ascorbic acid","nutrientNumber":"401","unitName":"MG","value":0.3,"rank":6300,"indentLevel":1,"foodNutrientId":34167907},{"nutrientId":1165,"nutrientName":"Thiamin","nutrientNumber":"404","unitName":"MG","value":0.448,"rank":6400,"indentLevel":1,"foodNutrientId":34167908},{"nutrientId":1166,"nutrientName":"Riboflavin","nutrientNumber":"405","unitName":"MG","value":0.163,"rank":6500,"indentLevel":1,"foodNutrientId":34167909},{"nutrientId":1167,"nutrientName":"Niacin","nutrientNumber":"406","unitName":"MG","value":5.778,"rank":6600,"indentLevel":1,"foodNutrientId":34167910},{"nutrientId":1175,"nutrientName":"Vitamin B-6","nutrientNumber":"415","unitName":"MG","value":0.411,"rank":6800,"indentLevel":1,"foodNutrientId":34167911},{"nutrientId":1177,"nutrientName":"Folate, total","nutrientNumber":"417","unitName":"UG","value":35,"rank":6900,"indentLevel":1,"foodNutrientId":34167912},{"nutrientId":1178,"nutrientName":"Vitamin B-12","nutrientNumber":"418","unitName":"UG","value":0.41,"rank":7300,"indentLevel":1,"foodNutrientId":34167913},{"nutrientId":1180,"nutrientName":"Choline, total","nutrientNumber":"421","unitName":"MG","value":57.4,"rank":7220,"indentLevel":1,"foodNutrientId":34167914},{"nutrientId":1185,"nutrientName":"Vitamin K (phylloquinone)","nutrientNumber":"430","unitName":"UG","value":3.1,"rank":8800,"indentLevel":1,"foodNutrientId":34167915},{"nutrientId":1186,"nutrientName":"Folic acid","nutrientNumber":"431","unitName":"UG","value":32,"rank":7000,"indentLevel":0,"foodNutrientId":34167916},{"nutrientId":1187,"nutrientName":"Folate, food","nutrientNumber":"432","unitName":"UG","value":3,"rank":7100,"indentLevel":1,"foodNutrientId":34167917},{"nutrientId":1190,"nutrientName":"Folate, DFE","nutrientNumber":"435","unitName":"UG","value":57,"rank":7200,"indentLevel":1,"foodNutrientId":34167918},{"nutrientId":1242,"nutrientName":"Vitamin E, added","nutrientNumber":"573","unitName":"MG","value":0,"rank":7920,"indentLevel":0,"foodNutrientId":34167919},{"nutrientId":1246,"nutrientName":"Vitamin B-12, added","nutrientNumber":"578","unitName":"UG","value":0,"rank":7340,"indentLevel":0,"foodNutrientId":34167920},{"nutrientId":1253,"nutrientName":"Cholesterol","nutrientNumber":"601","unitName":"MG","value":46,"rank":15700,"indentLevel":1,"foodNutrientId":34167921},{"nutrientId":1258,"nutrientName":"Fatty acids, total saturated","nutrientNumber":"606","unitName":"G","value":2.668,"rank":9700,"indentLevel":1,"foodNutrientId":34167922},{"nutrientId":1259,"nutrientName":"SFA 4:0","nutrientNumber":"607","unitName":"G","value":0,"rank":9800,"indentLevel":2,"foodNutrientId":34167923},{"nutrientId":1260,"nutrientName":"SFA 6:0","nutrientNumber":"608","unitName":"G","value":0,"rank":9900,"indentLevel":2,"foodNutrientId":34167924},{"nutrientId":1261,"nutrientName":"SFA 8:0","nutrientNumber":"609","unitName":"G","value":0,"rank":10000,"indentLevel":2,"foodNutrientId":34167925},{"nutrientId":1262,"nutrientName":"SFA 10:0","nutrientNumber":"610","unitName":"G","value":0.004,"rank":10100,"indentLevel":2,"foodNutrientId":34167926},{"nutrientId":1263,"nutrientName":"SFA 12:0","nutrientNumber":"611","unitName":"G","value":0.004,"rank":10300,"indentLevel":2,"foodNutrientId":34167927},{"nutrientId":1264,"nutrientName":"SFA 14:0","nutrientNumber":"612","unitName":"G","value":0.082,"rank":10500,"indentLevel":2,"foodNutrientId":34167928},{"nutrientId":1265,"nutrientName":"SFA 16:0","nutrientNumber":"613","unitName":"G","value":1.656,"rank":10700,"indentLevel":2,"foodNutrientId":34167929},{"nutrientId":1266,"nutrientName":"SFA 18:0","nutrientNumber":"614","unitName":"G","value":0.895,"rank":10900,"indentLevel":2,"foodNutrientId":34167930},{"nutrientId":1268,"nutrientName":"MUFA 18:1","nutrientNumber":"617","unitName":"G","value":3.661,"rank":12100,"indentLevel":2,"foodNutrientId":34167931},{"nutrientId":1269,"nutrientName":"PUFA 18:2","nutrientNumber":"618","unitName":"G","value":1.543,"rank":13100,"indentLevel":2,"foodNutrientId":34167932},{"nutrientId":1270,"nutrientName":"PUFA 18:3","nutrientNumber":"619","unitName":"G","value":0.068,"rank":13900,"indentLevel":2,"foodNutrientId":34167933},{"nutrientId":1271,"nutrientName":"PUFA 20:4","nutrientNumber":"620","unitName":"G","value":0.043,"rank":14700,"indentLevel":2,"foodNutrientId":34167934},{"nutrientId":1272,"nutrientName":"PUFA 22:6 n-3 (DHA)","nutrientNumber":"621","unitName":"G","value":0,"rank":15300,"indentLevel":2,"foodNutrientId":34167935},{"nutrientId":1275,"nutrientName":"MUFA 16:1","nutrientNumber":"626","unitName":"G","value":0.146,"rank":11700,"indentLevel":2,"foodNutrientId":34167936},{"nutrientId":1276,"nutrientName":"PUFA 18:4","nutrientNumber":"627","unitName":"G","value":0,"rank":14250,"indentLevel":2,"foodNutrientId":34167937},{"nutrientId":1277,"nutrientName":"MUFA 20:1","nutrientNumber":"628","unitName":"G","value":0.04,"rank":12400,"indentLevel":2,"foodNutrientId":34167938},{"nutrientId":1278,"nutrientName":"PUFA 20:5 n-3 (EPA)","nutrientNumber":"629","unitName":"G","value":0,"rank":15000,"indentLevel":2,"foodNutrientId":34167939},{"nutrientId":1279,"nutrientName":"MUFA 22:1","nutrientNumber":"630","unitName":"G","value":0,"rank":12500,"indentLevel":2,"foodNutrientId":34167940},{"nutrientId":1280,"nutrientName":"PUFA 22:5 n-3 (DPA)","nutrientNumber":"631","unitName":"G","value":0.001,"rank":15200,"indentLevel":2,"foodNutrientId":34167941},{"nutrientId":1292,"nutrientName":"Fatty acids, total monounsaturated","nutrientNumber":"645","unitName":"G","value":3.855,"rank":11400,"indentLevel":1,"foodNutrientId":34167942},{"nutrientId":1293,"nutrientName":"Fatty acids, total polyunsaturated","nutrientNumber":"646","unitName":"G","value":1.685,"rank":12900,"indentLevel":1,"foodNutrientId":34167943}],"finalFoodInputFoods":[{"foodDescription":"Bread, stuffing, cornbread, dry mix, prepared","gramWeight":100,"id":125353,"portionCode":"0","portionDescription":"NONE","unit":"GM","rank":2,"retentionCode":0,"srCode":18085,"value":100},{"foodDescription":"Pork, chop, lean and fat eaten","gramWeight":180,"id":125352,"portionCode":"0","portionDescription":"NONE","unit":"GM","rank":1,"retentionCode":0,"srCode":22101010,"value":180}],"foodMeasures":[{"disseminationText":"1 oz yields","gramWeight":20,"id":292383,"modifier":"40016","rank":2,"measureUnitAbbreviation":"undetermined","measureUnitName":"undetermined","measureUnitId":9999},{"disseminationText":"1 chop, any size","gramWeight":180,"id":292382,"modifier":"62632","rank":1,"measureUnitAbbreviation":"undetermined","measureUnitName":"undetermined","measureUnitId":9999},{"disseminationText":"Quantity not specified","gramWeight":180,"id":292386,"modifier":"90000","rank":5,"measureUnitAbbreviation":"undetermined","measureUnitName":"undetermined","measureUnitId":9999},{"disseminationText":"1 cup","gramWeight":135,"id":292385,"modifier":"10205","rank":4,"measureUnitAbbreviation":"undetermined","measureUnitName":"undetermined","measureUnitId":9999},{"disseminationText":"1 cubic inch","gramWeight":17,"id":292384,"modifier":"51000","rank":3,"measureUnitAbbreviation":"undetermined","measureUnitName":"undetermined","measureUnitId":9999}],"foodAttributes":[{"value":"3002","name":"WWEIA Category number","id":3299291},{"value":"Meat mixed dishes","name":"WWEIA Category description","id":3299292},{"value":"Moisture change: 0%","id":3319312}],"foodAttributeTypes":[{"name":"Adjustments","description":"Adjustments made to foods, including moisture changes","id":1002,"foodAttributes":[{"value":"Moisture change: 0%","id":3319312}]},{"name":"Attribute","description":"Generic attributes","id":999,"foodAttributes":[{"value":"3002","name":"WWEIA Category number","id":3299291},{"value":"Meat mixed dishes","name":"WWEIA Category description","id":3299292}]}],"foodVersionIds":[]}],"aggregations":{"dataType":{"Branded":20139,"SR Legacy":490,"Survey (FNDDS)":167,"Foundation":11},"nutrients":{}}}
