{"totalHits":21499,"currentPage":1,"totalPages":21499,"pageList":[1,2,3,4,5,6,7,8,9,10],"foodSearchCriteria":{"query":"Grilled Pork","generalSearchInput":"Grilled Pork","pageNumber":1,"numberOfResultsPerPage":50,"pageSize":1,"requireAllWords":false},"foods":[{"fdcId":1913710,"description":"GRILLED PORK","dataType":"Branded","gtinUpc":"688267154751","publishedDate":"2021-07-29","brandOwner":"Ahold USA, Inc. ","brandName":"AHOLD","ingredients":"SEASONED PORK LOIN AND BINDER PRODUCT (PORK LOIN, WATER, BLENDED OIL [CANOLA OIL, EXTRA VIRGIN OLIVE OIL], MODIFIED FOOD STARCH, SPICES, SALT, GARLIC POWDER), OVEN ROASTED POTATOES (POTATOES, SWEET POTATOES, CANOLA OIL, SALT, DISODIUM DIHYDROGEN PYROPHOSPHATE [TO PROMOTE COLOR RETENTION]), GREEN PEAS, WATER, TOASTED CROUTONS (WHOLE GRAIN FLOUR, CRACKED WHEAT, WATER, SALT, SUGAR, YEAST, ASCORBIC ACID [VITAMIN C]), SLICED APPLES (APPLES, CITRIC ACID [TO MAINTAIN COLOR]), PORK, CELERY, CHICKEN BASE FLAVOR (FLAVOR, MALTODEXTRIN, SALT, YEAST EXTRACT, RENDERED CHICKEN FAT, DEXTROSE, CORNSTARCH, ONION POWDER, GARLIC POWDER AND SPICE EXTRACTS), ONION, BUTTER (PASTEURIZED CREAM, LACTIC ACID), SHALLOTS, BOURBON, MAPLE SYRUP, BLENDED OIL (CANOLA OIL, EXTRA VIRGIN OLIVE OIL), MODIFIED FOOD STARCH, BUTTER FLAVOR (MODIFIED CORNSTARCH, SALT, WHEY SOLIDS, NON-FAT DRY MILK, DEHYDRATED BUTTER, BUTTER FLAVOR [MALTODEXTRIN, ENZYME, MODIFIED BUTTER, BUTTERMILK POWDER, FLAVOR], SUGAR, XANTHAN GUM, LACTIC ACID, TURMERIC AND ANNATTO [FOR COLOR]), DIJON MUSTARD (VINEGAR, MUSTARD SEEDS, WATER, WHITE WINE, SALT, SUGAR, DEXTROSE, NATURAL FLAVORS, LACTIC ACID), CHICKEN BROTH FLAVOR (CHICKEN MEAT, SEASONING [FLAVOR, CHICKEN BROTH, SALT], MALTODEXTRIN), SPICES, CIDER VINEGAR, GARLIC POWDER, DIJON MUSTARD (WATER, MUSTARD SEEDS, VINEGAR, SALT, CITRIC ACID, SULPHUR DIOXIDE [PRESERVATIVE]), GARLIC PUREE (GARLIC, WATER), SALT, DRIED MUSHROOM EXTRACT (MUSHROOMS, MALTODEXTRIN), PARMESAN CHEESE (COW'S MILK, CHEESE CULTURE, SALT, ENZYMES, POWDERED CELLULOSE [ANTI-CAKING AGENT], CALCIUM PROPIONATE [PRESERVATIVE]), CHICKEN FLAVOR (MALTODEXTRIN, CHICKEN STOCK, FLAVORS), FLAVOR ENHANCER (YEAST EXTRACT, SALT, FLAVOR, MALTODEXTRIN, SUGAR), XANTHAN GUM, PAPRIKA, LACTIC ACID, CARAMEL COLOR.","marketCountry":"United States","foodCategory":"Other Deli","modifiedDate":"2021-06-27","dataSource":"LI","packageWeight":"11.5 oz/326 g","servingSizeUnit":"g","servingSize":326.0,"householdServingFullText":"1 PACKAGE","tradeChannels":["NO_TRADE_CHANNEL"],"allHighlightFields":"<b>Ingredients</b>: SEASONED <em>PORK</em> LOIN AND BINDER PRODUCT (<em>PORK</em> LOIN, WATER, BLENDED OIL [CANOLA OIL, EXTRA VIRGIN","score":1553.2449,"microbes":[],"foodNutrients":[{"nutrientId":1003,"nutrientName":"Protein","nutrientNumber":"203","unitName":"G","derivationCode":"LCCS","derivationDescription":"Calculated from value per serving size measure","derivationId":70,"value":8.28,"foodNutrientSourceId":9,"foodNutrientSourceCode":"12","foodNutrientSourceDescription":"Manufacturer's analytical; partial documentation","rank":600,"indentLevel":1,"foodNutrientId":23786370},{"nutrientId":1004,"nutrientName":"Total lipid (fat)","nutrientNumber":"204","unitName":"G","derivationCode":"LCCS","derivationDescription":"Calculated from value per serving size measure","derivationId":70,"value":4.29,"foodNutrientSourceId":9,"foodNutrientSourceCode":"12","foodNutrientSourceDescription":"Manufacturer's analytical; partial documentation","rank":800,"indentLevel":1,"foodNutrientId":23786371,"percentDailyValue":22},{"nutrientId":1005,"nutrientName":"Carbohydrate, by difference","nutrientNumber":"205","unitName":"G","derivationCode":"LCCS","derivationDescription":"Calculated from value per serving size measure","derivationId":70,"value":12.9,"foodNutrientSourceId":9,"foodNutrientSourceCode":"12","foodNutrientSourceDescription":"Manufacturer's analytical; partial documentation","rank":1110,"indentLevel":2,"foodNutrientId":23786372,"percentDailyValue":14},{"nutrientId":1008,"nutrientName":"Energy","nutrientNumber":"208","unitName":"KCAL","derivationCode":"LCCS","derivationDescription":"Calculated from value per serving size measure","derivationId":70,"value":126,"foodNutrientSourceId":9,"foodNutrientSourceCode":"12","foodNutrientSourceDescription":"Manufacturer's analytical; partial documentation","rank":300,"indentLevel":1,"foodNutrientId":23786373},{"nutrientId":2000,"nutrientName":"Total Sugars","nutrientNumber":"269","unitName":"G","derivationCode":"LCCS","derivationDescription":"Calculated from value per serving size measure","derivationId":70,"value":3.07,"foodNutrientSourceId":9,"foodNutrientSourceCode":"12","foodNutrientSourceDescription":"Manufacturer's analytical; partial documentation","rank":1510,"indentLevel":3,"foodNutrientId":23786374},{"nutrientId":1079,"nutrientName":"Fiber, total dietary","nutrientNumber":"291","unitName":"G","derivationCode":"LCCS","derivationDescription":"Calculated from value per serving size measure","derivationId":70,"value":1.5,"foodNutrientSourceId":9,"foodNutrientSourceCode":"12","foodNutrientSourceDescription":"Manufacturer's analytical; partial documentation","rank":1200,"indentLevel":3,"foodNutrientId":23786375,"percentDailyValue":20},{"nutrientId":1087,"nutrientName":"Calcium, Ca","nutrientNumber":"301","unitName":"MG","derivationCode":"LCCD","derivationDescription":"Calculated from a daily value percentage per serving size measure","derivationId":75,"value":31.0,"foodNutrientSourceId":9,"foodNutrientSourceCode":"12","foodNutrientSourceDescription":"Manufacturer's analytical; partial documentation","rank":5300,"indentLevel":1,"foodNutrientId":23786376,"percentDailyValue":10},{"nutrientId":1089,"nutrientName":"Iron, Fe","nutrientNumber":"303","unitName":"MG","derivationCode":"LCCD","derivationDescription":"Calculated from a daily value percentage per serving size measure","derivationId":75,"value":0.83,"foodNutrientSourceId":9,"foodNutrientSourceCode":"12","foodNutrientSourceDescription":"Manufacturer's analytical; partial documentation","rank":5400,"indentLevel":1,"foodNutrientId":23786377,"percentDailyValue":15},{"nutrientId":1093,"nutrientName":"Sodium, Na","nutrientNumber":"307","unitName":"MG","derivationCode":"LCCS","derivationDescription":"Calculated from value per serving size measure","derivationId":70,"value":212,"foodNutrientSourceId":9,"foodNutrientSourceCode":"12","foodNutrientSourceDescription":"Manufacturer's analytical; partial documentation","rank":5800,"indentLevel":1,"foodNutrientId":23786378,"percentDailyValue":29},{"nutrientId":1104,"nutrientName":"Vitamin A, IU","nutrientNumber":"318","unitName":"IU","derivationCode":"LCCD","derivationDescription":"Calculated from a daily value percentage per serving size measure","derivationId":75,"value":613,"foodNutrientSourceId":9,"foodNutrientSourceCode":"12","foodNutrientSourceDescription":"Manufacturer's analytical; partial documentation","rank":7500,"indentLevel":1,"foodNutrientId":23786379,"percentDailyValue":40},{"nutrientId":1162,"nutrientName":"Vitamin C, total ascorbic acid","nutrientNumber":"401","unitName":"MG","derivationCode":"LCCD","derivationDescription":"Calculated from a daily value percentage per serving size measure","derivationId":75,"value":9.2,"foodNutrientSourceId":9,"foodNutrientSourceCode":"12","foodNutrientSourceDescription":"Manufacturer's analytical; partial documentation","rank":6300,"indentLevel":1,"foodNutrientId":23786380,"percentDailyValue":50},{"nutrientId":1253,"nutrientName":"Cholesterol","nutrientNumber":"601","unitName":"MG","derivationCode":"LCCS","derivationDescription":"Calculated from value per serving size measure","derivationId":70,"value":20.0,"foodNutrientSourceId":9,"foodNutrientSourceCode":"12","foodNutrientSourceDescription":"Manufacturer's analytical; partial documentation","rank":15700,"indentLevel":1,"foodNutrientId":23786381,"percentDailyValue":22},{"nutrientId":1257,"nutrientName":"Fatty acids, total trans","nutrientNumber":"605","unitName":"G","derivationCode":"LCCS","derivationDescription":"Calculated from value per serving size measure","derivationId":70,"value":0.0,"foodNutrientSourceId":9,"foodNutrientSourceCode":"12","foodNutrientSourceDescription":"Manufacturer's analytical; partial documentation","rank":15400,"indentLevel":1,"foodNutrientId":23786382},{"nutrientId":1258,"nutrientName":"Fatty acids, total saturated","nutrientNumber":"606","unitName":"G","derivationCode":"LCCS","derivationDescription":"Calculated from value per serving size measure","derivationId":70,"value":1.07,"foodNutrientSourceId":9,"foodNutrientSourceCode":"12","foodNutrientSourceDescription":"Manufacturer's analytical; partial documentation","rank":9700,"indentLevel":1,"foodNutrientId":23786383,"percentDailyValue":18}],"finalFoodInputFoods":[],"foodMeasures":[],"foodAttributes":[],"foodAttributeTypes":[],"foodVersionIds":[]}],"aggregations":{"dataType":{"Branded":20662,"SR Legacy":598,"Survey (FNDDS)":227,"Foundation":12},"nutrients":{}}}
